%!PS-Adobe-3.0 EPSF-3.0
%%Title: /Users/Jacob/Documents/Uni/year3/project/graphs/basic_evo/DISP_MAX-1D.eps
%%Creator: matplotlib version 1.3.1, http://matplotlib.org/
%%CreationDate: Sat Feb  7 16:51:27 2015
%%Orientation: portrait
%%BoundingBox: 18 180 594 612
%%EndComments
%%BeginProlog
/mpldict 8 dict def
mpldict begin
/m { moveto } bind def
/l { lineto } bind def
/r { rlineto } bind def
/c { curveto } bind def
/cl { closepath } bind def
/box {
m
1 index 0 r
0 exch r
neg 0 r
cl
} bind def
/clipbox {
box
clip
newpath
} bind def
%!PS-Adobe-3.0 Resource-Font
%%Title: Bitstream Vera Sans
%%Copyright: Copyright (c) 2003 by Bitstream, Inc. All Rights Reserved.
%%Creator: Converted from TrueType to type 3 by PPR
25 dict begin
/_d{bind def}bind def
/_m{moveto}_d
/_l{lineto}_d
/_cl{closepath eofill}_d
/_c{curveto}_d
/_sc{7 -1 roll{setcachedevice}{pop pop pop pop pop pop}ifelse}_d
/_e{exec}_d
/FontName /BitstreamVeraSans-Roman def
/PaintType 0 def
/FontMatrix[.001 0 0 .001 0 0]def
/FontBBox[-183 -236 1287 928]def
/FontType 3 def
/Encoding [ /space /zero /one /two /three /four /five /six /H /R /T /a /b /c /d /e /f /g /h /i /k /l /m /n /o /r /s /t /u /w /minus ] def
/FontInfo 10 dict dup begin
/FamilyName (Bitstream Vera Sans) def
/FullName (Bitstream Vera Sans) def
/Notice (Copyright (c) 2003 by Bitstream, Inc. All Rights Reserved. Bitstream Vera is a trademark of Bitstream, Inc.) def
/Weight (Roman) def
/Version (Release 1.10) def
/ItalicAngle 0.0 def
/isFixedPitch false def
/UnderlinePosition -213 def
/UnderlineThickness 143 def
end readonly def
/CharStrings 31 dict dup begin
/space{318 0 0 0 0 0 _sc
}_d
/zero{636 0 66 -13 570 742 _sc
318 664 _m
267 664 229 639 203 589 _c
177 539 165 464 165 364 _c
165 264 177 189 203 139 _c
229 89 267 64 318 64 _c
369 64 407 89 433 139 _c
458 189 471 264 471 364 _c
471 464 458 539 433 589 _c
407 639 369 664 318 664 _c
318 742 _m
399 742 461 709 505 645 _c
548 580 570 486 570 364 _c
570 241 548 147 505 83 _c
461 19 399 -13 318 -13 _c
236 -13 173 19 130 83 _c
87 147 66 241 66 364 _c
66 486 87 580 130 645 _c
173 709 236 742 318 742 _c
_cl}_d
/one{636 0 110 0 544 729 _sc
124 83 _m
285 83 _l
285 639 _l
110 604 _l
110 694 _l
284 729 _l
383 729 _l
383 83 _l
544 83 _l
544 0 _l
124 0 _l
124 83 _l
_cl}_d
/two{{636 0 73 0 536 742 _sc
192 83 _m
536 83 _l
536 0 _l
73 0 _l
73 83 _l
110 121 161 173 226 239 _c
290 304 331 346 348 365 _c
380 400 402 430 414 455 _c
426 479 433 504 433 528 _c
433 566 419 598 392 622 _c
365 646 330 659 286 659 _c
255 659 222 653 188 643 _c
154 632 117 616 78 594 _c
78 694 _l
118 710 155 722 189 730 _c
223 738 255 742 284 742 _c
}_e{359 742 419 723 464 685 _c
509 647 532 597 532 534 _c
532 504 526 475 515 449 _c
504 422 484 390 454 354 _c
446 344 420 317 376 272 _c
332 227 271 164 192 83 _c
_cl}_e}_d
/three{{636 0 76 -13 556 742 _sc
406 393 _m
453 383 490 362 516 330 _c
542 298 556 258 556 212 _c
556 140 531 84 482 45 _c
432 6 362 -13 271 -13 _c
240 -13 208 -10 176 -4 _c
144 1 110 10 76 22 _c
76 117 _l
103 101 133 89 166 81 _c
198 73 232 69 268 69 _c
330 69 377 81 409 105 _c
441 129 458 165 458 212 _c
458 254 443 288 413 312 _c
383 336 341 349 287 349 _c
}_e{202 349 _l
202 430 _l
291 430 _l
339 430 376 439 402 459 _c
428 478 441 506 441 543 _c
441 580 427 609 401 629 _c
374 649 336 659 287 659 _c
260 659 231 656 200 650 _c
169 644 135 635 98 623 _c
98 711 _l
135 721 170 729 203 734 _c
235 739 266 742 296 742 _c
370 742 429 725 473 691 _c
517 657 539 611 539 553 _c
539 513 527 479 504 451 _c
481 423 448 403 406 393 _c
_cl}_e}_d
/four{636 0 49 0 580 729 _sc
378 643 _m
129 254 _l
378 254 _l
378 643 _l
352 729 _m
476 729 _l
476 254 _l
580 254 _l
580 172 _l
476 172 _l
476 0 _l
378 0 _l
378 172 _l
49 172 _l
49 267 _l
352 729 _l
_cl}_d
/five{{636 0 77 -13 549 729 _sc
108 729 _m
495 729 _l
495 646 _l
198 646 _l
198 467 _l
212 472 227 476 241 478 _c
255 480 270 482 284 482 _c
365 482 429 459 477 415 _c
525 370 549 310 549 234 _c
549 155 524 94 475 51 _c
426 8 357 -13 269 -13 _c
238 -13 207 -10 175 -6 _c
143 -1 111 6 77 17 _c
77 116 _l
106 100 136 88 168 80 _c
199 72 232 69 267 69 _c
}_e{323 69 368 83 401 113 _c
433 143 450 183 450 234 _c
450 284 433 324 401 354 _c
368 384 323 399 267 399 _c
241 399 214 396 188 390 _c
162 384 135 375 108 363 _c
108 729 _l
_cl}_e}_d
/six{{636 0 70 -13 573 742 _sc
330 404 _m
286 404 251 388 225 358 _c
199 328 186 286 186 234 _c
186 181 199 139 225 109 _c
251 79 286 64 330 64 _c
374 64 409 79 435 109 _c
461 139 474 181 474 234 _c
474 286 461 328 435 358 _c
409 388 374 404 330 404 _c
526 713 _m
526 623 _l
501 635 476 644 451 650 _c
425 656 400 659 376 659 _c
310 659 260 637 226 593 _c
}_e{192 549 172 482 168 394 _c
187 422 211 444 240 459 _c
269 474 301 482 336 482 _c
409 482 467 459 509 415 _c
551 371 573 310 573 234 _c
573 159 550 99 506 54 _c
462 9 403 -13 330 -13 _c
246 -13 181 19 137 83 _c
92 147 70 241 70 364 _c
70 479 97 571 152 639 _c
206 707 280 742 372 742 _c
396 742 421 739 447 735 _c
472 730 498 723 526 713 _c
_cl}_e}_d
/H{752 0 98 0 654 729 _sc
98 729 _m
197 729 _l
197 430 _l
555 430 _l
555 729 _l
654 729 _l
654 0 _l
555 0 _l
555 347 _l
197 347 _l
197 0 _l
98 0 _l
98 729 _l
_cl}_d
/R{{695 0 98 0 666 729 _sc
444 342 _m
465 334 486 319 506 296 _c
526 272 546 240 566 199 _c
666 0 _l
560 0 _l
467 187 _l
443 235 419 268 397 284 _c
374 300 343 308 304 308 _c
197 308 _l
197 0 _l
98 0 _l
98 729 _l
321 729 _l
404 729 466 711 507 677 _c
548 642 569 589 569 519 _c
569 473 558 434 537 404 _c
515 374 484 353 444 342 _c
197 648 _m
197 389 _l
321 389 _l
}_e{368 389 404 400 428 422 _c
452 444 465 476 465 519 _c
465 561 452 593 428 615 _c
404 637 368 648 321 648 _c
197 648 _l
_cl}_e}_d
/T{611 0 -2 0 614 729 _sc
-2 729 _m
614 729 _l
614 646 _l
355 646 _l
355 0 _l
256 0 _l
256 646 _l
-2 646 _l
-2 729 _l
_cl}_d
/a{{613 0 60 -13 522 560 _sc
343 275 _m
270 275 220 266 192 250 _c
164 233 150 205 150 165 _c
150 133 160 107 181 89 _c
202 70 231 61 267 61 _c
317 61 357 78 387 114 _c
417 149 432 196 432 255 _c
432 275 _l
343 275 _l
522 312 _m
522 0 _l
432 0 _l
432 83 _l
411 49 385 25 355 10 _c
325 -5 287 -13 243 -13 _c
187 -13 142 2 109 33 _c
76 64 60 106 60 159 _c
}_e{60 220 80 266 122 298 _c
163 329 224 345 306 345 _c
432 345 _l
432 354 _l
432 395 418 427 391 450 _c
364 472 326 484 277 484 _c
245 484 215 480 185 472 _c
155 464 127 453 100 439 _c
100 522 _l
132 534 164 544 195 550 _c
226 556 256 560 286 560 _c
365 560 424 539 463 498 _c
502 457 522 395 522 312 _c
_cl}_e}_d
/b{{635 0 91 -13 580 760 _sc
487 273 _m
487 339 473 390 446 428 _c
418 466 381 485 334 485 _c
286 485 249 466 222 428 _c
194 390 181 339 181 273 _c
181 207 194 155 222 117 _c
249 79 286 61 334 61 _c
381 61 418 79 446 117 _c
473 155 487 207 487 273 _c
181 464 _m
199 496 223 520 252 536 _c
281 552 316 560 356 560 _c
422 560 476 533 518 481 _c
559 428 580 359 580 273 _c
}_e{580 187 559 117 518 65 _c
476 13 422 -13 356 -13 _c
316 -13 281 -5 252 10 _c
223 25 199 49 181 82 _c
181 0 _l
91 0 _l
91 760 _l
181 760 _l
181 464 _l
_cl}_e}_d
/c{{550 0 55 -13 488 560 _sc
488 526 _m
488 442 _l
462 456 437 466 411 473 _c
385 480 360 484 334 484 _c
276 484 230 465 198 428 _c
166 391 150 339 150 273 _c
150 206 166 154 198 117 _c
230 80 276 62 334 62 _c
360 62 385 65 411 72 _c
437 79 462 90 488 104 _c
488 21 _l
462 9 436 0 410 -5 _c
383 -10 354 -13 324 -13 _c
242 -13 176 12 128 64 _c
}_e{79 115 55 185 55 273 _c
55 362 79 432 128 483 _c
177 534 244 560 330 560 _c
358 560 385 557 411 551 _c
437 545 463 537 488 526 _c
_cl}_e}_d
/d{{635 0 55 -13 544 760 _sc
454 464 _m
454 760 _l
544 760 _l
544 0 _l
454 0 _l
454 82 _l
435 49 411 25 382 10 _c
353 -5 319 -13 279 -13 _c
213 -13 159 13 117 65 _c
75 117 55 187 55 273 _c
55 359 75 428 117 481 _c
159 533 213 560 279 560 _c
319 560 353 552 382 536 _c
411 520 435 496 454 464 _c
148 273 _m
148 207 161 155 188 117 _c
215 79 253 61 301 61 _c
}_e{348 61 385 79 413 117 _c
440 155 454 207 454 273 _c
454 339 440 390 413 428 _c
385 466 348 485 301 485 _c
253 485 215 466 188 428 _c
161 390 148 339 148 273 _c
_cl}_e}_d
/e{{615 0 55 -13 562 560 _sc
562 296 _m
562 252 _l
149 252 _l
153 190 171 142 205 110 _c
238 78 284 62 344 62 _c
378 62 412 66 444 74 _c
476 82 509 95 541 113 _c
541 28 _l
509 14 476 3 442 -3 _c
408 -9 373 -13 339 -13 _c
251 -13 182 12 131 62 _c
80 112 55 181 55 268 _c
55 357 79 428 127 481 _c
175 533 241 560 323 560 _c
397 560 455 536 498 489 _c
}_e{540 441 562 377 562 296 _c
472 322 _m
471 371 457 410 431 440 _c
404 469 368 484 324 484 _c
274 484 234 469 204 441 _c
174 413 156 373 152 322 _c
472 322 _l
_cl}_e}_d
/f{352 0 23 0 371 760 _sc
371 760 _m
371 685 _l
285 685 _l
253 685 230 678 218 665 _c
205 652 199 629 199 595 _c
199 547 _l
347 547 _l
347 477 _l
199 477 _l
199 0 _l
109 0 _l
109 477 _l
23 477 _l
23 547 _l
109 547 _l
109 585 _l
109 645 123 690 151 718 _c
179 746 224 760 286 760 _c
371 760 _l
_cl}_d
/g{{635 0 55 -207 544 560 _sc
454 280 _m
454 344 440 395 414 431 _c
387 467 349 485 301 485 _c
253 485 215 467 188 431 _c
161 395 148 344 148 280 _c
148 215 161 165 188 129 _c
215 93 253 75 301 75 _c
349 75 387 93 414 129 _c
440 165 454 215 454 280 _c
544 68 _m
544 -24 523 -93 482 -139 _c
440 -184 377 -207 292 -207 _c
260 -207 231 -204 203 -200 _c
175 -195 147 -188 121 -178 _c
}_e{121 -91 _l
147 -105 173 -115 199 -122 _c
225 -129 251 -133 278 -133 _c
336 -133 380 -117 410 -87 _c
439 -56 454 -10 454 52 _c
454 96 _l
435 64 411 40 382 24 _c
353 8 319 0 279 0 _c
211 0 157 25 116 76 _c
75 127 55 195 55 280 _c
55 364 75 432 116 483 _c
157 534 211 560 279 560 _c
319 560 353 552 382 536 _c
411 520 435 496 454 464 _c
454 547 _l
544 547 _l
}_e{544 68 _l
_cl}_e}_d
/h{634 0 91 0 549 760 _sc
549 330 _m
549 0 _l
459 0 _l
459 327 _l
459 379 448 417 428 443 _c
408 469 378 482 338 482 _c
289 482 251 466 223 435 _c
195 404 181 362 181 309 _c
181 0 _l
91 0 _l
91 760 _l
181 760 _l
181 462 _l
202 494 227 519 257 535 _c
286 551 320 560 358 560 _c
420 560 468 540 500 501 _c
532 462 549 405 549 330 _c
_cl}_d
/i{278 0 94 0 184 760 _sc
94 547 _m
184 547 _l
184 0 _l
94 0 _l
94 547 _l
94 760 _m
184 760 _l
184 646 _l
94 646 _l
94 760 _l
_cl}_d
/k{579 0 91 0 576 760 _sc
91 760 _m
181 760 _l
181 311 _l
449 547 _l
564 547 _l
274 291 _l
576 0 _l
459 0 _l
181 267 _l
181 0 _l
91 0 _l
91 760 _l
_cl}_d
/l{278 0 94 0 184 760 _sc
94 760 _m
184 760 _l
184 0 _l
94 0 _l
94 760 _l
_cl}_d
/m{{974 0 91 0 889 560 _sc
520 442 _m
542 482 569 511 600 531 _c
631 550 668 560 711 560 _c
767 560 811 540 842 500 _c
873 460 889 403 889 330 _c
889 0 _l
799 0 _l
799 327 _l
799 379 789 418 771 444 _c
752 469 724 482 686 482 _c
639 482 602 466 575 435 _c
548 404 535 362 535 309 _c
535 0 _l
445 0 _l
445 327 _l
445 379 435 418 417 444 _c
398 469 369 482 331 482 _c
}_e{285 482 248 466 221 435 _c
194 404 181 362 181 309 _c
181 0 _l
91 0 _l
91 547 _l
181 547 _l
181 462 _l
201 495 226 520 255 536 _c
283 552 317 560 357 560 _c
397 560 430 550 458 530 _c
486 510 506 480 520 442 _c
_cl}_e}_d
/n{634 0 91 0 549 560 _sc
549 330 _m
549 0 _l
459 0 _l
459 327 _l
459 379 448 417 428 443 _c
408 469 378 482 338 482 _c
289 482 251 466 223 435 _c
195 404 181 362 181 309 _c
181 0 _l
91 0 _l
91 547 _l
181 547 _l
181 462 _l
202 494 227 519 257 535 _c
286 551 320 560 358 560 _c
420 560 468 540 500 501 _c
532 462 549 405 549 330 _c
_cl}_d
/o{612 0 55 -13 557 560 _sc
306 484 _m
258 484 220 465 192 427 _c
164 389 150 338 150 273 _c
150 207 163 156 191 118 _c
219 80 257 62 306 62 _c
354 62 392 80 420 118 _c
448 156 462 207 462 273 _c
462 337 448 389 420 427 _c
392 465 354 484 306 484 _c
306 560 _m
384 560 445 534 490 484 _c
534 433 557 363 557 273 _c
557 183 534 113 490 63 _c
445 12 384 -13 306 -13 _c
227 -13 165 12 121 63 _c
77 113 55 183 55 273 _c
55 363 77 433 121 484 _c
165 534 227 560 306 560 _c
_cl}_d
/r{411 0 91 0 411 560 _sc
411 463 _m
401 469 390 473 378 476 _c
366 478 353 480 339 480 _c
288 480 249 463 222 430 _c
194 397 181 350 181 288 _c
181 0 _l
91 0 _l
91 547 _l
181 547 _l
181 462 _l
199 495 224 520 254 536 _c
284 552 321 560 365 560 _c
371 560 378 559 386 559 _c
393 558 401 557 411 555 _c
411 463 _l
_cl}_d
/s{{521 0 54 -13 472 560 _sc
443 531 _m
443 446 _l
417 458 391 468 364 475 _c
336 481 308 485 279 485 _c
234 485 200 478 178 464 _c
156 450 145 430 145 403 _c
145 382 153 366 169 354 _c
185 342 217 330 265 320 _c
296 313 _l
360 299 405 279 432 255 _c
458 230 472 195 472 151 _c
472 100 452 60 412 31 _c
372 1 316 -13 246 -13 _c
216 -13 186 -10 154 -5 _c
}_e{122 0 89 8 54 20 _c
54 113 _l
87 95 120 82 152 74 _c
184 65 216 61 248 61 _c
290 61 323 68 346 82 _c
368 96 380 117 380 144 _c
380 168 371 187 355 200 _c
339 213 303 226 247 238 _c
216 245 _l
160 257 119 275 95 299 _c
70 323 58 356 58 399 _c
58 450 76 490 112 518 _c
148 546 200 560 268 560 _c
301 560 332 557 362 552 _c
391 547 418 540 443 531 _c
}_e{_cl}_e}_d
/t{392 0 27 0 368 702 _sc
183 702 _m
183 547 _l
368 547 _l
368 477 _l
183 477 _l
183 180 _l
183 135 189 106 201 94 _c
213 81 238 75 276 75 _c
368 75 _l
368 0 _l
276 0 _l
206 0 158 13 132 39 _c
106 65 93 112 93 180 _c
93 477 _l
27 477 _l
27 547 _l
93 547 _l
93 702 _l
183 702 _l
_cl}_d
/u{634 0 85 -13 543 547 _sc
85 216 _m
85 547 _l
175 547 _l
175 219 _l
175 167 185 129 205 103 _c
225 77 255 64 296 64 _c
344 64 383 79 411 110 _c
439 141 453 183 453 237 _c
453 547 _l
543 547 _l
543 0 _l
453 0 _l
453 84 _l
431 50 405 26 377 10 _c
348 -5 315 -13 277 -13 _c
214 -13 166 6 134 45 _c
101 83 85 140 85 216 _c
_cl}_d
/w{818 0 42 0 776 547 _sc
42 547 _m
132 547 _l
244 120 _l
356 547 _l
462 547 _l
574 120 _l
686 547 _l
776 547 _l
633 0 _l
527 0 _l
409 448 _l
291 0 _l
185 0 _l
42 547 _l
_cl}_d
/minus{838 0 106 272 732 355 _sc
106 355 _m
732 355 _l
732 272 _l
106 272 _l
106 355 _l
_cl}_d
end readonly def

/BuildGlyph
 {exch begin
 CharStrings exch
 2 copy known not{pop /.notdef}if
 true 3 1 roll get exec
 end}_d

/BuildChar {
 1 index /Encoding get exch get
 1 index /BuildGlyph get exec
}_d

FontName currentdict end definefont pop
end
%%EndProlog
mpldict begin
18 180 translate
576 432 0 0 clipbox
gsave
0 0 m
576 0 l
576 432 l
0 432 l
cl
1.000 setgray
fill
grestore
gsave
72 43.2 m
518.4 43.2 l
518.4 388.8 l
72 388.8 l
cl
1.000 setgray
fill
grestore
1.000 setlinewidth
1 setlinejoin
2 setlinecap
[] 0 setdash
0.000 setgray
gsave
446.4 345.6 72 43.2 clipbox
72 388.8 m
72.2232 376.163 l
72.4464 373.029 l
72.6696 353.353 l
72.8928 363.421 l
73.116 366.319 l
73.3392 353.71 l
73.5624 351.579 l
73.7856 292.32 l
74.6784 182.58 l
74.9016 183.243 l
75.1248 168.019 l
75.7944 79.1366 l
76.2408 103.231 l
76.6872 242.911 l
76.9104 278.916 l
77.1336 252.351 l
77.3568 273.79 l
77.58 281.497 l
77.8032 313.01 l
78.0264 305.833 l
78.2496 306.582 l
78.4728 323.309 l
78.696 354.223 l
78.9192 355.236 l
79.1424 358.854 l
79.3656 359.85 l
79.5888 359.038 l
80.0352 361.889 l
80.2584 362.978 l
80.4816 361.647 l
80.7048 365.161 l
80.928 364.85 l
81.1512 362.39 l
81.3744 364.481 l
81.5976 364.55 l
81.8208 361.094 l
82.044 359.827 l
82.2672 365.357 l
82.7136 369.043 l
82.9368 371.209 l
83.16 370.644 l
83.6064 367.69 l
83.8296 369.423 l
84.0528 370.247 l
84.276 370.27 l
84.4992 369.228 l
84.7224 365.547 l
84.9456 366.365 l
85.1688 364.758 l
85.6152 366.849 l
85.8384 366.751 l
86.0616 368.652 l
86.2848 368.289 l
86.508 366.791 l
86.7312 366.313 l
86.9544 365.322 l
87.1776 366.44 l
87.4008 366.313 l
87.624 365.628 l
87.8472 369.504 l
88.0704 367.004 l
88.2936 370.293 l
88.5168 370.552 l
88.9632 368.3 l
89.1864 369.487 l
89.4096 371.837 l
89.6328 370.84 l
89.856 370.973 l
90.3024 370.028 l
90.5256 370.956 l
90.7488 369.544 l
90.972 369.245 l
91.1952 369.464 l
91.6416 368.271 l
91.8648 368.813 l
92.3112 367.811 l
92.5344 367.828 l
92.7576 368.018 l
92.9808 367.868 l
93.204 371.267 l
93.4272 372.66 l
93.6504 372.499 l
94.0968 368.07 l
94.32 370.512 l
94.5432 369.976 l
94.7664 368.94 l
94.9896 371.566 l
95.2128 372.223 l
95.436 371.618 l
95.6592 371.854 l
95.8824 371.514 l
96.1056 370.587 l
96.552 367.252 l
96.7752 367.332 l
96.9984 370.725 l
97.2216 370.593 l
97.4448 368.611 l
97.668 368.945 l
97.8912 370.558 l
98.1144 369.855 l
98.3376 369.729 l
98.5608 370.547 l
98.784 372.856 l
99.0072 373.571 l
99.2304 371.762 l
99.4536 371.249 l
99.6768 372.862 l
99.9 372.948 l
100.123 373.974 l
100.57 372.24 l
100.793 373.023 l
101.239 371.013 l
101.462 372.718 l
101.686 373.196 l
101.909 372.108 l
102.132 370.259 l
102.578 371.877 l
102.802 373.49 l
103.025 373.196 l
103.471 373.49 l
103.694 372.862 l
103.918 372.92 l
104.141 371.56 l
104.364 368.352 l
104.81 366.532 l
105.034 369.855 l
105.257 371.1 l
105.48 368.34 l
106.15 372.977 l
106.373 376.168 l
106.596 376.209 l
106.819 375.731 l
107.042 376.111 l
107.266 375.788 l
107.489 375.702 l
107.712 374.878 l
107.935 374.786 l
108.382 376.266 l
108.605 375.805 l
108.828 376.698 l
109.051 376.272 l
109.274 375.299 l
109.498 374.918 l
109.944 375.425 l
110.167 374.959 l
110.39 376.116 l
110.614 376.399 l
110.837 375.638 l
111.06 375.477 l
111.283 375.091 l
111.506 374.089 l
111.73 374.665 l
111.953 374.544 l
112.176 375.391 l
112.399 375.08 l
112.622 373.363 l
112.846 374.262 l
113.069 373.928 l
113.292 374.164 l
113.515 375.12 l
113.738 374.82 l
113.962 375.604 l
114.185 374.682 l
114.408 375.489 l
114.631 375.425 l
115.078 374.93 l
115.524 375.615 l
115.747 374.999 l
115.97 374.734 l
116.194 374.688 l
116.417 374.976 l
116.863 374.509 l
117.31 375.754 l
117.533 374.763 l
117.756 375.869 l
117.979 375.915 l
118.426 375.155 l
118.649 373.524 l
118.872 373.352 l
119.095 375.299 l
119.318 375.252 l
119.542 374.406 l
119.765 374.728 l
119.988 375.944 l
120.211 376.047 l
120.434 374.665 l
120.658 371.837 l
120.881 370.956 l
121.327 368.68 l
121.55 367.862 l
121.774 369.429 l
122.22 367.534 l
122.89 369.325 l
123.113 371.843 l
123.336 371.733 l
123.559 373.795 l
123.782 374.331 l
124.006 375.385 l
124.229 375.057 l
124.452 375.034 l
124.675 374.129 l
125.122 375.373 l
125.345 374.014 l
125.568 373.651 l
125.791 374.59 l
126.014 374.676 l
126.238 375.391 l
126.461 375.731 l
126.684 375.028 l
126.907 375.126 l
127.13 375.477 l
127.354 376.479 l
127.8 374.158 l
128.246 372.292 l
128.693 368.847 l
128.916 371.117 l
129.139 370.477 l
129.362 372.499 l
129.586 370.909 l
129.809 371.088 l
130.032 371.019 l
130.478 370.593 l
130.925 371.503 l
131.148 374.913 l
131.371 374.976 l
131.594 373.98 l
131.818 374.302 l
132.041 373.801 l
132.264 374.694 l
132.487 376.099 l
132.71 375.529 l
132.934 375.322 l
133.157 376.111 l
133.38 374.867 l
133.603 376.174 l
133.826 375.944 l
134.05 375.898 l
134.273 375.339 l
134.496 375.754 l
134.942 374.55 l
135.166 374.959 l
135.389 376.145 l
135.612 376.18 l
136.058 375.373 l
136.282 373.3 l
136.505 374.792 l
136.728 375.016 l
136.951 376.197 l
137.174 376.312 l
137.398 374.895 l
137.621 375.085 l
137.844 375.466 l
138.067 373.582 l
138.514 375.702 l
138.737 375.12 l
139.183 375.909 l
139.63 373.064 l
140.076 375.535 l
140.299 375.281 l
140.522 374.291 l
140.746 375.454 l
141.415 376.802 l
141.638 375.949 l
142.085 376.577 l
142.308 376.969 l
142.754 374.734 l
142.978 375.644 l
143.201 375.932 l
143.424 374.953 l
143.647 371.462 l
143.87 370.011 l
144.763 375.051 l
144.986 375.489 l
145.21 374.964 l
145.656 375.794 l
145.879 375.345 l
146.102 375.667 l
146.326 374.746 l
146.549 374.63 l
146.772 374.095 l
146.995 375.696 l
147.218 375.12 l
147.888 375.322 l
148.111 377.073 l
148.334 376.387 l
148.781 376.894 l
149.004 376.842 l
149.227 376.664 l
149.45 376.998 l
149.674 375.903 l
150.343 376.053 l
150.566 375.356 l
150.79 376.26 l
151.013 375.097 l
151.459 375.949 l
151.682 375.402 l
151.906 375.224 l
152.129 375.581 l
152.352 374.993 l
152.575 373.703 l
152.798 374.077 l
153.022 374.175 l
153.245 372.182 l
153.468 371.526 l
153.691 372.228 l
153.914 372.338 l
154.361 371.814 l
154.584 370.207 l
154.807 371.411 l
155.03 371.226 l
155.254 369.435 l
155.477 369.412 l
155.7 370.028 l
156.37 374.849 l
156.816 373.041 l
157.039 373.455 l
157.262 375.097 l
157.486 373.68 l
157.932 374.74 l
158.155 374.106 l
158.602 375.108 l
159.048 371.532 l
159.271 374.757 l
159.494 374.613 l
159.941 375.264 l
160.164 374.89 l
160.387 375.788 l
160.61 375.742 l
160.834 375.961 l
161.057 375.909 l
161.726 373.041 l
161.95 372.332 l
162.173 372.159 l
162.396 374.141 l
162.619 375.091 l
162.842 374.763 l
163.066 374.982 l
163.289 375.402 l
163.512 374.964 l
163.735 371.86 l
163.958 372.902 l
164.182 375.915 l
164.628 374.746 l
165.074 375.494 l
165.298 375.466 l
165.521 375.909 l
165.744 376.007 l
165.967 376.756 l
166.414 375.051 l
166.637 375.771 l
166.86 374.314 l
167.083 374.602 l
167.306 376.272 l
167.53 375.909 l
167.753 375.252 l
167.976 375.656 l
168.199 375.661 l
168.422 376.134 l
168.646 374.78 l
168.869 374.607 l
169.092 375.016 l
169.315 375.143 l
169.538 375.834 l
169.762 375.863 l
170.208 375.057 l
170.431 375.143 l
170.654 374.273 l
170.878 375.61 l
171.101 376.145 l
171.324 375.823 l
171.547 375.777 l
171.77 376.883 l
171.994 377.303 l
172.217 377.044 l
172.44 377.47 l
172.663 376.399 l
173.11 375.471 l
173.333 372.701 l
173.779 375.304 l
174.002 375.379 l
174.226 375.195 l
174.449 374.4 l
174.672 372.424 l
174.895 371.912 l
175.118 374.774 l
175.342 375.903 l
175.565 376.18 l
175.788 376.687 l
176.011 376.468 l
176.234 376.767 l
176.458 376.376 l
177.127 374.302 l
177.35 374.417 l
177.574 375.759 l
177.797 375.805 l
178.02 376.019 l
178.466 374.93 l
178.69 374.97 l
178.913 375.667 l
179.136 375.587 l
179.359 375.944 l
179.582 374.475 l
180.029 376.082 l
180.252 375.517 l
180.698 376.036 l
181.145 375.281 l
181.368 374.36 l
181.591 374.003 l
181.814 372.868 l
182.261 376.646 l
182.93 374.786 l
183.154 374.976 l
183.377 374.665 l
183.6 375.425 l
183.823 375.684 l
184.27 377.032 l
184.493 376.854 l
184.716 375.817 l
184.939 375.996 l
185.162 375.506 l
185.609 376.26 l
186.725 376.278 l
187.171 375.114 l
187.394 375.471 l
187.618 376.358 l
187.841 376.013 l
188.064 376.151 l
188.287 375.834 l
188.51 375.967 l
188.734 377.107 l
189.18 375.638 l
189.403 375.569 l
189.626 375.022 l
189.85 372.499 l
190.073 372.868 l
190.519 374.584 l
190.742 374.158 l
190.966 373.311 l
191.189 373.766 l
191.412 373 l
191.858 373.26 l
192.082 374.458 l
192.305 374.671 l
192.528 375.126 l
192.751 375.276 l
193.421 372.787 l
193.867 375.903 l
194.09 375.846 l
194.314 376.289 l
194.537 376.433 l
194.76 376.393 l
194.983 376.842 l
195.206 376.543 l
195.43 377.303 l
195.876 375.725 l
196.322 375.702 l
196.769 376.451 l
196.992 376.428 l
197.215 376.168 l
197.438 375.587 l
197.662 374.463 l
197.885 374.158 l
198.108 375.281 l
198.331 374.348 l
198.778 376.848 l
199.001 377.078 l
199.447 376.773 l
199.67 376.813 l
199.894 376.618 l
200.34 376.911 l
200.786 377.153 l
201.01 377.395 l
201.233 377.401 l
201.456 376.934 l
201.679 377.055 l
201.902 376.9 l
202.126 376.145 l
202.795 377.061 l
203.018 376.433 l
203.242 377.251 l
203.911 376.134 l
204.134 376.312 l
204.358 376.157 l
204.581 376.249 l
204.804 375.88 l
205.027 375.996 l
205.25 375.46 l
205.474 375.713 l
205.697 375.794 l
206.143 376.992 l
206.366 376.606 l
206.813 377.499 l
207.036 377.153 l
207.482 378.265 l
207.706 378.104 l
207.929 378.288 l
208.152 378.075 l
208.375 377.436 l
208.598 377.361 l
209.045 375.967 l
209.268 376.698 l
209.491 377.868 l
209.714 377.787 l
209.938 377.251 l
210.607 376.572 l
210.83 377.05 l
211.277 375.667 l
211.5 375.402 l
211.723 375.644 l
211.946 375.299 l
212.17 376.226 l
212.393 376.641 l
212.616 377.384 l
212.839 377.343 l
213.062 377.568 l
213.286 378.248 l
213.509 377.355 l
213.732 376.998 l
214.178 375.339 l
214.402 377.205 l
214.625 378.132 l
214.848 378.092 l
215.071 378.593 l
215.294 378.547 l
215.741 377.816 l
215.964 378.167 l
216.187 377.833 l
216.41 378.305 l
216.634 378.386 l
216.857 378.611 l
217.303 378.305 l
217.75 378.34 l
217.973 378.15 l
218.196 377.464 l
218.419 378.645 l
218.642 378.616 l
219.089 377.821 l
219.312 378.346 l
219.535 378.513 l
219.758 376.986 l
220.205 376.14 l
220.428 377.522 l
220.874 378.455 l
221.098 378.57 l
221.544 377.562 l
221.767 377.528 l
221.99 377.706 l
222.214 377.447 l
222.437 377.453 l
222.66 378.017 l
223.106 378.069 l
223.33 377.885 l
223.553 379.083 l
223.776 379.135 l
224.222 378.334 l
224.446 376.957 l
224.669 376.422 l
224.892 377.004 l
225.115 377.896 l
225.785 378.081 l
226.231 377.015 l
226.678 377.868 l
226.901 377.447 l
227.124 377.931 l
227.347 379.043 l
227.57 379.077 l
228.463 379.59 l
228.686 379.428 l
229.133 378.899 l
229.356 379.238 l
229.802 378.87 l
230.472 378.472 l
230.695 377.407 l
230.918 377.101 l
231.142 377.614 l
231.588 379.279 l
231.811 378.783 l
232.034 378.697 l
232.258 378.156 l
232.481 378.444 l
232.704 378.213 l
232.927 378.294 l
233.15 379.089 l
233.374 378.841 l
233.82 378.72 l
234.043 378.501 l
234.266 377.631 l
234.49 378.242 l
234.713 378.484 l
234.936 378.132 l
235.159 378.294 l
235.606 379.071 l
236.275 378.674 l
236.498 379.14 l
236.945 378.346 l
237.391 379.014 l
237.614 378.536 l
238.061 378.276 l
238.507 379.308 l
238.73 379.123 l
238.954 378.536 l
239.177 378.282 l
239.4 378.927 l
239.846 377.798 l
240.07 378.806 l
240.293 378.697 l
240.516 378.374 l
240.739 379.175 l
240.962 379.273 l
241.409 377.574 l
241.632 378.236 l
241.855 377.937 l
242.078 379.192 l
242.302 378.288 l
242.525 378.317 l
242.971 377.994 l
243.194 377.211 l
243.641 378.766 l
243.864 378.518 l
244.087 379.313 l
244.31 379.336 l
244.534 379.584 l
244.98 379.665 l
245.203 379.86 l
245.426 379.866 l
245.873 379.613 l
246.096 378.559 l
246.319 379.993 l
246.542 379.774 l
246.766 379.826 l
246.989 380.183 l
247.212 381.289 l
247.435 381.226 l
247.882 381.577 l
248.105 381.882 l
248.328 381.807 l
248.551 382.533 l
248.774 382.833 l
249.221 381.56 l
249.667 379.676 l
249.89 382.003 l
250.114 382.383 l
250.337 381.773 l
250.783 379.025 l
251.006 377.677 l
251.23 380.995 l
251.453 379.722 l
251.676 379.129 l
252.122 381.364 l
252.569 379.561 l
252.792 380.638 l
253.015 380.604 l
253.238 380.31 l
253.462 380.402 l
253.685 381.802 l
253.908 382.153 l
254.131 381.876 l
254.354 382.078 l
254.578 381.692 l
255.024 382.009 l
255.247 381.888 l
255.47 382.078 l
255.694 381.928 l
255.917 381.427 l
256.14 381.75 l
256.363 382.55 l
256.586 382.303 l
256.81 380.552 l
257.033 380.58 l
257.256 379.025 l
257.479 376.393 l
258.149 375.731 l
258.372 372.182 l
258.595 375.379 l
258.818 372.649 l
259.042 374.371 l
259.488 371.272 l
259.711 364.861 l
259.934 362.298 l
260.158 362.022 l
260.381 375.961 l
260.604 376.606 l
260.827 374.642 l
261.05 375.512 l
261.274 379.261 l
261.72 378.795 l
261.943 375.921 l
262.39 374.653 l
262.836 372.332 l
263.059 373.576 l
263.282 373.369 l
263.506 369.775 l
263.952 378.945 l
264.175 378.622 l
264.398 379.889 l
264.845 377.188 l
265.068 380.874 l
265.291 380.65 l
265.514 380.834 l
265.738 381.865 l
266.184 382.798 l
266.407 382.355 l
266.63 383.432 l
267.077 384.29 l
267.3 384.296 l
267.523 384.175 l
267.746 383.829 l
267.97 383.887 l
268.639 382.556 l
268.862 382.867 l
269.086 382.447 l
269.309 382.764 l
269.532 382.867 l
269.755 382.735 l
269.978 382.798 l
270.425 382.395 l
270.648 382.585 l
270.871 382.372 l
271.094 381.485 l
271.318 383.265 l
271.764 383.795 l
272.434 383.42 l
272.88 383.558 l
273.326 383.305 l
273.773 383.259 l
273.996 383.253 l
274.219 383.04 l
274.442 383.345 l
274.889 382.902 l
275.112 383.121 l
275.335 383.086 l
275.558 382.723 l
275.782 382.654 l
276.228 381.721 l
276.674 383.121 l
277.344 383.322 l
278.237 383.144 l
278.46 383.449 l
278.683 383.322 l
278.906 383.489 l
279.13 383.472 l
279.353 383.604 l
280.022 383.103 l
280.246 383.478 l
280.915 383.322 l
281.138 383.501 l
281.362 383.449 l
281.585 383.622 l
281.808 383.437 l
282.478 383.397 l
282.701 383.121 l
283.147 383.121 l
283.37 383.443 l
283.594 383.449 l
283.817 383.662 l
284.486 383.484 l
284.71 383.478 l
285.156 383.224 l
285.379 383.172 l
285.602 382.723 l
285.826 382.815 l
286.049 383.351 l
286.272 383.449 l
286.495 383.276 l
286.942 383.259 l
287.611 382.965 l
287.834 382.222 l
288.058 382.188 l
288.281 382.291 l
288.727 381.813 l
288.95 382.36 l
289.174 382.32 l
289.397 382.47 l
289.843 383.086 l
290.066 383.138 l
290.29 383.363 l
290.513 383.42 l
290.736 383.247 l
290.959 383.72 l
291.182 383.748 l
291.406 383.962 l
292.075 383.904 l
292.298 383.962 l
292.745 383.622 l
292.968 383.916 l
293.191 383.939 l
293.414 383.841 l
293.861 383.933 l
294.977 383.512 l
295.2 384.025 l
295.646 384.036 l
295.87 383.783 l
296.093 383.028 l
296.316 382.971 l
296.539 383.155 l
296.762 383.138 l
296.986 383.887 l
297.655 383.685 l
297.878 383.812 l
298.102 383.731 l
298.548 383.962 l
299.441 384.065 l
299.664 383.95 l
299.887 384.134 l
300.334 383.846 l
300.557 383.812 l
300.78 383.95 l
301.226 383.357 l
301.673 383.501 l
301.896 383.04 l
302.119 382.861 l
302.342 383.512 l
302.789 383.518 l
303.235 383.8 l
304.351 383.748 l
304.574 383.812 l
304.798 383.524 l
305.021 383.622 l
305.467 383.19 l
305.69 383.38 l
305.914 383.864 l
306.583 384.019 l
306.806 383.201 l
307.03 383.46 l
307.253 382.913 l
307.476 382.798 l
307.699 382.153 l
307.922 382.631 l
308.146 381.894 l
308.369 380.73 l
309.038 383.115 l
309.485 383.443 l
309.931 383.276 l
310.154 383.892 l
310.378 383.916 l
310.601 383.806 l
312.163 384.261 l
312.386 384.198 l
312.61 384.013 l
313.056 383.426 l
313.502 384.036 l
314.172 383.846 l
315.065 383.72 l
315.288 383.46 l
316.404 384.002 l
317.52 383.858 l
317.743 383.656 l
317.966 382.764 l
318.19 382.683 l
318.413 382.297 l
318.636 382.435 l
319.082 380.316 l
319.306 380.748 l
319.529 380.235 l
319.752 380.54 l
319.975 379.895 l
320.645 380.799 l
321.091 379.728 l
321.314 378.086 l
321.538 379.475 l
321.761 378.645 l
321.984 378.38 l
322.207 377.7 l
322.43 378.202 l
322.654 379.123 l
323.1 378.346 l
323.323 380.235 l
323.546 380.097 l
323.77 379.215 l
323.993 380.195 l
324.216 380.131 l
324.439 380.748 l
324.662 379.843 l
324.886 379.509 l
325.109 380.275 l
325.332 379.112 l
325.555 378.772 l
325.778 380.114 l
326.002 382.159 l
326.225 381.825 l
326.894 382.81 l
327.118 383.403 l
327.341 383.518 l
327.787 383.553 l
328.68 383.766 l
328.903 383.772 l
329.126 383.662 l
329.35 383.702 l
329.796 383.253 l
330.242 383.276 l
330.689 383.08 l
331.358 383.144 l
332.028 381.514 l
332.251 381.986 l
332.474 381.289 l
332.698 381.514 l
332.921 381.214 l
333.144 380.125 l
333.367 380.246 l
333.59 380.166 l
333.814 379.843 l
334.037 380.108 l
334.706 379.895 l
334.93 378.893 l
335.153 378.703 l
335.376 380.903 l
335.822 380.546 l
336.046 381.11 l
336.269 381.98 l
336.492 381.6 l
336.938 381.784 l
337.162 380.834 l
337.385 381.07 l
337.608 381.802 l
338.724 383.144 l
338.947 382.723 l
339.17 382.856 l
339.617 382.337 l
339.84 383.069 l
340.063 383.299 l
340.286 383.224 l
341.179 383.466 l
341.402 383.351 l
341.626 383.46 l
342.518 383.247 l
342.742 383.028 l
342.965 382.51 l
343.188 383.138 l
343.634 383.075 l
344.081 383.247 l
344.527 383.414 l
345.42 383.633 l
345.866 383.19 l
346.09 383.697 l
346.313 383.806 l
346.536 383.34 l
346.759 383.495 l
346.982 383.397 l
347.206 383.772 l
347.652 383.829 l
347.875 383.547 l
348.098 383.921 l
348.322 384.054 l
348.768 383.651 l
348.991 383.91 l
349.438 382.758 l
349.661 382.873 l
350.107 381.358 l
350.33 381.105 l
350.777 382.867 l
351 382.585 l
351.223 382.516 l
351.446 382.003 l
351.67 382.107 l
351.893 381.761 l
352.116 382.113 l
352.339 383.564 l
352.786 383.386 l
353.009 383.61 l
353.678 382.902 l
353.902 383.368 l
354.571 383.207 l
354.794 383.299 l
355.018 383.599 l
355.241 383.316 l
356.134 383.662 l
356.357 383.53 l
356.58 383.092 l
356.803 382.925 l
357.026 383.023 l
357.25 383.322 l
357.473 383.368 l
357.696 383.207 l
357.919 382.85 l
358.366 383.507 l
359.035 382.389 l
359.482 383.219 l
359.928 383.178 l
360.821 381.9 l
361.044 381.151 l
361.49 383.086 l
361.714 383 l
361.937 383.288 l
363.276 383.38 l
363.722 382.781 l
363.946 383.161 l
364.169 382.355 l
364.392 383.161 l
364.838 382.988 l
365.062 382.395 l
365.508 383.172 l
365.731 383.259 l
365.954 383.19 l
366.178 383.27 l
367.07 382.804 l
367.294 382.838 l
367.517 383.455 l
368.186 383.702 l
368.41 383.725 l
368.633 383.472 l
368.856 383.668 l
369.079 383.351 l
369.302 384.013 l
369.972 384.319 l
370.195 384.301 l
370.418 384.094 l
370.865 384.359 l
371.088 384.146 l
371.311 383.553 l
371.534 383.685 l
371.758 383.432 l
371.981 382.977 l
372.874 383.892 l
373.097 383.812 l
373.32 384.048 l
373.543 383.996 l
373.766 383.812 l
373.99 384.336 l
374.213 384.399 l
374.436 384.319 l
374.659 383.927 l
374.882 384.186 l
375.106 384.117 l
375.329 383.846 l
375.552 383.979 l
376.222 383.875 l
376.445 384.1 l
376.668 383.91 l
376.891 383.345 l
377.114 383.437 l
377.338 383.213 l
377.784 383.299 l
378.23 384.561 l
378.454 384.636 l
378.9 384.451 l
379.346 384.595 l
380.016 384.699 l
380.239 384.947 l
380.462 384.82 l
380.909 385.206 l
381.132 384.975 l
381.355 384.952 l
381.802 384.382 l
382.025 384.048 l
382.248 383.213 l
382.471 383.103 l
382.694 383.259 l
382.918 382.452 l
383.141 381.214 l
383.364 383.005 l
383.587 382.959 l
383.81 383.247 l
384.034 384.192 l
384.926 383.823 l
385.15 384.399 l
385.373 384.255 l
386.266 384.336 l
386.489 384.065 l
386.712 384.238 l
387.382 384.031 l
387.605 384.18 l
388.051 383.898 l
388.274 383.478 l
388.498 383.432 l
388.721 382.908 l
388.944 381.946 l
389.167 382.844 l
389.39 382.931 l
389.614 382.712 l
389.837 382.942 l
390.06 383.363 l
390.506 383.576 l
390.953 384.549 l
391.176 384.486 l
391.399 384.595 l
391.846 384.428 l
392.069 384.67 l
392.738 384.906 l
393.185 385.079 l
393.854 383.967 l
394.078 384.388 l
394.301 384.227 l
394.747 381.709 l
395.417 382.573 l
395.64 381.675 l
395.863 382.159 l
396.086 380.765 l
396.756 373.692 l
396.979 375.898 l
397.202 379.935 l
397.426 379.722 l
398.095 381.842 l
398.318 382.026 l
398.542 382.815 l
398.765 383.063 l
399.434 381.946 l
399.658 381.266 l
400.104 382.13 l
400.327 383.08 l
400.55 383.005 l
400.774 383.316 l
400.997 383.939 l
401.22 383.898 l
401.666 383.604 l
402.113 383.766 l
402.559 383.581 l
402.782 382.787 l
403.006 382.959 l
403.229 382.147 l
403.452 382.262 l
403.675 382.216 l
403.898 383.27 l
404.122 383.34 l
404.345 383.242 l
404.568 382.977 l
404.791 382.971 l
405.461 382.493 l
405.684 382.712 l
405.907 382.556 l
406.13 382.948 l
406.8 382.159 l
407.47 382.637 l
407.693 382.556 l
407.916 382.827 l
408.362 382.55 l
408.586 382.643 l
408.809 382.556 l
409.032 382.735 l
409.478 382.458 l
410.148 382.717 l
410.818 382.643 l
411.041 382.429 l
411.487 382.36 l
411.71 382.205 l
411.934 382.378 l
412.157 382.164 l
412.38 381.715 l
412.603 382.095 l
412.826 382.124 l
413.05 381.865 l
413.496 381.738 l
413.719 381.917 l
414.166 381.79 l
414.389 381.542 l
415.058 381.41 l
415.282 381.036 l
415.505 381.324 l
415.728 381.197 l
416.174 380.425 l
416.398 382.666 l
416.844 382.735 l
417.29 382.798 l
417.514 382.458 l
417.737 382.481 l
418.183 382.873 l
418.63 382.769 l
418.853 382.643 l
419.299 382.867 l
420.862 382.62 l
421.085 382.499 l
421.308 381.992 l
421.754 382.643 l
421.978 382.493 l
422.201 382.188 l
422.424 382.303 l
422.647 382.182 l
422.87 382.291 l
423.094 382.228 l
423.317 382.464 l
423.54 382.372 l
423.763 382.47 l
424.433 382.424 l
425.102 382.435 l
425.326 382.332 l
425.772 382.441 l
426.218 382.395 l
426.442 382.067 l
426.888 382.026 l
427.111 381.946 l
427.334 381.635 l
427.558 381.686 l
428.004 381.525 l
428.227 380.794 l
428.674 381.732 l
429.12 381.704 l
429.79 381.923 l
430.013 381.744 l
430.236 381.75 l
430.459 381.594 l
430.682 381.053 l
431.129 381.652 l
431.352 381.122 l
431.575 381.416 l
432.022 381.226 l
432.245 382.17 l
432.468 382.222 l
432.691 382.124 l
432.914 382.222 l
433.361 381.83 l
433.584 382.211 l
434.03 382.245 l
434.254 382.441 l
434.477 382.481 l
434.7 382.36 l
435.146 382.55 l
435.37 382.366 l
435.816 382.343 l
436.709 382.009 l
436.932 382.09 l
437.155 381.923 l
437.378 381.456 l
437.825 381.853 l
438.718 381.652 l
438.941 381.531 l
439.387 381.727 l
439.61 381.675 l
439.834 381.375 l
440.28 381.911 l
440.95 381.704 l
441.396 381.174 l
441.619 381.56 l
441.842 381.531 l
442.066 381.686 l
442.735 380.863 l
442.958 380.713 l
443.182 381.266 l
443.405 381.283 l
443.628 380.817 l
444.298 381.698 l
445.19 381.934 l
446.083 381.295 l
446.306 381.289 l
446.53 381.508 l
446.753 380.373 l
446.976 380.69 l
447.199 381.381 l
447.422 381.439 l
447.646 381.709 l
447.869 381.606 l
448.092 381.277 l
448.315 382.239 l
448.538 382.222 l
449.208 382.418 l
449.654 382.458 l
449.878 382.683 l
450.324 382.729 l
450.77 382.798 l
451.663 382.274 l
451.886 382.412 l
452.11 382.095 l
452.333 382.476 l
452.779 382.539 l
453.002 382.545 l
453.226 382.234 l
453.449 382.314 l
453.672 382.193 l
453.895 382.476 l
454.118 382.147 l
454.565 382.671 l
455.234 382.798 l
455.904 382.908 l
456.127 383.057 l
456.35 382.982 l
456.797 383.046 l
457.243 382.982 l
457.69 383.219 l
458.359 383.305 l
459.029 383.386 l
459.252 383.345 l
459.922 383.495 l
461.484 383.224 l
462.154 382.746 l
462.377 382.712 l
462.6 382.412 l
462.823 382.389 l
463.046 382.821 l
463.493 383.023 l
463.716 383.034 l
463.939 382.314 l
464.162 382.297 l
464.386 381.905 l
464.609 380.65 l
464.832 380.903 l
465.278 379.48 l
465.502 377.862 l
465.725 378.311 l
465.948 380.298 l
466.394 378.541 l
466.618 379.532 l
466.841 379.941 l
467.064 379.843 l
467.287 381.969 l
467.734 382.527 l
467.957 382.545 l
468.18 382.804 l
469.296 382.931 l
469.519 382.873 l
469.966 383.178 l
471.082 383.046 l
471.305 382.971 l
471.528 382.752 l
471.751 382.694 l
471.974 382.09 l
472.198 381.807 l
472.421 381.963 l
472.644 381.848 l
472.867 382.009 l
473.09 381.704 l
473.314 381.715 l
473.537 381.554 l
473.76 381.151 l
474.43 381.087 l
474.653 381.473 l
475.099 381.375 l
475.322 380.69 l
475.546 381.214 l
475.769 381.168 l
475.992 380.863 l
476.215 380.874 l
476.885 381.398 l
477.331 382.378 l
477.554 382.378 l
477.778 382.614 l
478.001 382.579 l
478.67 383.115 l
479.117 382.798 l
479.786 382.009 l
480.01 382.332 l
480.233 381.871 l
480.456 382.245 l
480.679 382.141 l
480.902 381.502 l
481.126 382.913 l
481.349 382.89 l
481.572 383.092 l
482.242 383.075 l
482.465 382.965 l
482.688 382.677 l
482.911 382.959 l
483.134 382.913 l
483.358 382.637 l
483.581 382.625 l
483.804 382.343 l
484.027 382.406 l
484.25 382.28 l
484.697 381.162 l
484.92 381.479 l
485.143 380.425 l
485.813 379.912 l
486.036 381.704 l
486.259 381.341 l
486.482 381.502 l
486.706 382.153 l
486.929 382.308 l
487.152 382.81 l
487.375 382.706 l
487.598 382.234 l
488.268 382.66 l
488.491 383.224 l
488.938 383.328 l
489.607 383.299 l
490.054 382.671 l
490.5 382.735 l
490.723 382.913 l
490.946 382.758 l
491.17 382.873 l
491.393 383.426 l
491.839 383.38 l
492.062 383.674 l
492.286 383.777 l
492.509 383.725 l
492.955 383.858 l
493.625 383.875 l
495.41 384.106 l
495.634 384.284 l
496.526 384.296 l
496.75 384.025 l
496.973 384.134 l
497.419 382.694 l
497.642 382.424 l
497.866 380.805 l
498.089 380.557 l
498.535 378.282 l
498.758 378.098 l
498.982 377.574 l
499.205 375.051 l
499.428 379.083 l
499.874 381.191 l
500.098 380.506 l
500.544 381.416 l
500.767 381.329 l
500.99 380.477 l
501.214 380.765 l
501.66 380.442 l
501.883 380.667 l
502.106 381.139 l
502.33 380.46 l
502.553 381.11 l
502.999 380.655 l
503.669 380.166 l
503.892 379.814 l
504.115 378.824 l
504.338 379.786 l
504.562 380.062 l
505.008 378.294 l
505.231 379.192 l
505.454 379.227 l
505.901 380.131 l
506.124 380.218 l
506.347 381.335 l
506.57 381.375 l
506.794 381.203 l
507.017 381.946 l
507.463 382.424 l
507.686 383.103 l
507.91 383.132 l
508.133 382.954 l
508.356 382.971 l
508.579 382.792 l
509.026 383.126 l
509.918 383.328 l
510.142 383.19 l
510.588 382.625 l
510.811 383.633 l
511.258 383.501 l
511.481 383.299 l
511.927 383.345 l
512.15 383.484 l
512.374 383.288 l
512.597 383.316 l
512.82 383.103 l
513.043 382.234 l
513.266 382.026 l
513.49 379.567 l
513.936 382.337 l
514.159 381.848 l
514.382 382.038 l
514.606 380.074 l
514.829 380.748 l
515.052 380.88 l
515.275 380.148 l
515.722 377.361 l
515.945 378.3 l
516.168 380.794 l
516.391 380.932 l
516.614 380.724 l
516.838 380.822 l
517.061 379.832 l
517.284 380.822 l
517.507 380.932 l
517.73 380.765 l
518.177 381.082 l
518.4 381.94 l
518.4 381.94 l
stroke
grestore
0.500 setlinewidth
0 setlinecap
gsave
/o {
gsave
newpath
translate
0.5 setlinewidth
1 setlinejoin
0 setlinecap
0 0 m
0 4 l
gsave
0.000 setgray
fill
grestore
stroke
grestore
} bind def
72 43.2 o
grestore
gsave
/o {
gsave
newpath
translate
0.5 setlinewidth
1 setlinejoin
0 setlinecap
0 0 m
0 -4 l
gsave
0.000 setgray
fill
grestore
stroke
grestore
} bind def
72 388.8 o
grestore
/BitstreamVeraSans-Roman findfont
12.000 scalefont
setfont
gsave
68.976562 30.075000 translate
0.000000 rotate
0.000000 0.000000 m /zero glyphshow
grestore
gsave
/o {
gsave
newpath
translate
0.5 setlinewidth
1 setlinejoin
0 setlinecap
0 0 m
0 4 l
gsave
0.000 setgray
fill
grestore
stroke
grestore
} bind def
183.6 43.2 o
grestore
gsave
/o {
gsave
newpath
translate
0.5 setlinewidth
1 setlinejoin
0 setlinecap
0 0 m
0 -4 l
gsave
0.000 setgray
fill
grestore
stroke
grestore
} bind def
183.6 388.8 o
grestore
gsave
172.998437 30.075000 translate
0.000000 rotate
0.000000 0.000000 m /five glyphshow
7.634766 0.000000 m /zero glyphshow
15.269531 0.000000 m /zero glyphshow
grestore
gsave
/o {
gsave
newpath
translate
0.5 setlinewidth
1 setlinejoin
0 setlinecap
0 0 m
0 4 l
gsave
0.000 setgray
fill
grestore
stroke
grestore
} bind def
295.2 43.2 o
grestore
gsave
/o {
gsave
newpath
translate
0.5 setlinewidth
1 setlinejoin
0 setlinecap
0 0 m
0 -4 l
gsave
0.000 setgray
fill
grestore
stroke
grestore
} bind def
295.2 388.8 o
grestore
gsave
280.973437 30.075000 translate
0.000000 rotate
0.000000 0.000000 m /one glyphshow
7.634766 0.000000 m /zero glyphshow
15.269531 0.000000 m /zero glyphshow
22.904297 0.000000 m /zero glyphshow
grestore
gsave
/o {
gsave
newpath
translate
0.5 setlinewidth
1 setlinejoin
0 setlinecap
0 0 m
0 4 l
gsave
0.000 setgray
fill
grestore
stroke
grestore
} bind def
406.8 43.2 o
grestore
gsave
/o {
gsave
newpath
translate
0.5 setlinewidth
1 setlinejoin
0 setlinecap
0 0 m
0 -4 l
gsave
0.000 setgray
fill
grestore
stroke
grestore
} bind def
406.8 388.8 o
grestore
gsave
392.573437 30.075000 translate
0.000000 rotate
0.000000 0.000000 m /one glyphshow
7.634766 0.000000 m /five glyphshow
15.269531 0.000000 m /zero glyphshow
22.904297 0.000000 m /zero glyphshow
grestore
gsave
/o {
gsave
newpath
translate
0.5 setlinewidth
1 setlinejoin
0 setlinecap
0 0 m
0 4 l
gsave
0.000 setgray
fill
grestore
stroke
grestore
} bind def
518.4 43.2 o
grestore
gsave
/o {
gsave
newpath
translate
0.5 setlinewidth
1 setlinejoin
0 setlinecap
0 0 m
0 -4 l
gsave
0.000 setgray
fill
grestore
stroke
grestore
} bind def
518.4 388.8 o
grestore
gsave
503.954687 30.075000 translate
0.000000 rotate
0.000000 0.000000 m /two glyphshow
7.634766 0.000000 m /zero glyphshow
15.269531 0.000000 m /zero glyphshow
22.904297 0.000000 m /zero glyphshow
grestore
gsave
277.317187 13.450000 translate
0.000000 rotate
0.000000 0.000000 m /R glyphshow
7.837891 0.000000 m /o glyphshow
15.179688 0.000000 m /u glyphshow
22.785156 0.000000 m /n glyphshow
30.390625 0.000000 m /d glyphshow
grestore
gsave
/o {
gsave
newpath
translate
0.5 setlinewidth
1 setlinejoin
0 setlinecap
0 0 m
4 0 l
gsave
0.000 setgray
fill
grestore
stroke
grestore
} bind def
72 43.2 o
grestore
gsave
/o {
gsave
newpath
translate
0.5 setlinewidth
1 setlinejoin
0 setlinecap
0 0 m
-4 0 l
gsave
0.000 setgray
fill
grestore
stroke
grestore
} bind def
518.4 43.2 o
grestore
gsave
21.796875 39.887500 translate
0.000000 rotate
0.000000 0.000000 m /minus glyphshow
10.054688 0.000000 m /six glyphshow
17.689453 0.000000 m /zero glyphshow
25.324219 0.000000 m /zero glyphshow
32.958984 0.000000 m /zero glyphshow
40.593750 0.000000 m /zero glyphshow
grestore
gsave
/o {
gsave
newpath
translate
0.5 setlinewidth
1 setlinejoin
0 setlinecap
0 0 m
4 0 l
gsave
0.000 setgray
fill
grestore
stroke
grestore
} bind def
72 100.8 o
grestore
gsave
/o {
gsave
newpath
translate
0.5 setlinewidth
1 setlinejoin
0 setlinecap
0 0 m
-4 0 l
gsave
0.000 setgray
fill
grestore
stroke
grestore
} bind def
518.4 100.8 o
grestore
gsave
21.796875 97.487500 translate
0.000000 rotate
0.000000 0.000000 m /minus glyphshow
10.054688 0.000000 m /five glyphshow
17.689453 0.000000 m /zero glyphshow
25.324219 0.000000 m /zero glyphshow
32.958984 0.000000 m /zero glyphshow
40.593750 0.000000 m /zero glyphshow
grestore
gsave
/o {
gsave
newpath
translate
0.5 setlinewidth
1 setlinejoin
0 setlinecap
0 0 m
4 0 l
gsave
0.000 setgray
fill
grestore
stroke
grestore
} bind def
72 158.4 o
grestore
gsave
/o {
gsave
newpath
translate
0.5 setlinewidth
1 setlinejoin
0 setlinecap
0 0 m
-4 0 l
gsave
0.000 setgray
fill
grestore
stroke
grestore
} bind def
518.4 158.4 o
grestore
gsave
21.796875 155.087500 translate
0.000000 rotate
0.000000 0.000000 m /minus glyphshow
10.054688 0.000000 m /four glyphshow
17.689453 0.000000 m /zero glyphshow
25.324219 0.000000 m /zero glyphshow
32.958984 0.000000 m /zero glyphshow
40.593750 0.000000 m /zero glyphshow
grestore
gsave
/o {
gsave
newpath
translate
0.5 setlinewidth
1 setlinejoin
0 setlinecap
0 0 m
4 0 l
gsave
0.000 setgray
fill
grestore
stroke
grestore
} bind def
72 216 o
grestore
gsave
/o {
gsave
newpath
translate
0.5 setlinewidth
1 setlinejoin
0 setlinecap
0 0 m
-4 0 l
gsave
0.000 setgray
fill
grestore
stroke
grestore
} bind def
518.4 216 o
grestore
gsave
21.796875 212.687500 translate
0.000000 rotate
0.000000 0.000000 m /minus glyphshow
10.054688 0.000000 m /three glyphshow
17.689453 0.000000 m /zero glyphshow
25.324219 0.000000 m /zero glyphshow
32.958984 0.000000 m /zero glyphshow
40.593750 0.000000 m /zero glyphshow
grestore
gsave
/o {
gsave
newpath
translate
0.5 setlinewidth
1 setlinejoin
0 setlinecap
0 0 m
4 0 l
gsave
0.000 setgray
fill
grestore
stroke
grestore
} bind def
72 273.6 o
grestore
gsave
/o {
gsave
newpath
translate
0.5 setlinewidth
1 setlinejoin
0 setlinecap
0 0 m
-4 0 l
gsave
0.000 setgray
fill
grestore
stroke
grestore
} bind def
518.4 273.6 o
grestore
gsave
21.796875 270.287500 translate
0.000000 rotate
0.000000 0.000000 m /minus glyphshow
10.054688 0.000000 m /two glyphshow
17.689453 0.000000 m /zero glyphshow
25.324219 0.000000 m /zero glyphshow
32.958984 0.000000 m /zero glyphshow
40.593750 0.000000 m /zero glyphshow
grestore
gsave
/o {
gsave
newpath
translate
0.5 setlinewidth
1 setlinejoin
0 setlinecap
0 0 m
4 0 l
gsave
0.000 setgray
fill
grestore
stroke
grestore
} bind def
72 331.2 o
grestore
gsave
/o {
gsave
newpath
translate
0.5 setlinewidth
1 setlinejoin
0 setlinecap
0 0 m
-4 0 l
gsave
0.000 setgray
fill
grestore
stroke
grestore
} bind def
518.4 331.2 o
grestore
gsave
21.796875 327.887500 translate
0.000000 rotate
0.000000 0.000000 m /minus glyphshow
10.054688 0.000000 m /one glyphshow
17.689453 0.000000 m /zero glyphshow
25.324219 0.000000 m /zero glyphshow
32.958984 0.000000 m /zero glyphshow
40.593750 0.000000 m /zero glyphshow
grestore
gsave
/o {
gsave
newpath
translate
0.5 setlinewidth
1 setlinejoin
0 setlinecap
0 0 m
4 0 l
gsave
0.000 setgray
fill
grestore
stroke
grestore
} bind def
72 388.8 o
grestore
gsave
/o {
gsave
newpath
translate
0.5 setlinewidth
1 setlinejoin
0 setlinecap
0 0 m
-4 0 l
gsave
0.000 setgray
fill
grestore
stroke
grestore
} bind def
518.4 388.8 o
grestore
gsave
61.953125 385.487500 translate
0.000000 rotate
0.000000 0.000000 m /zero glyphshow
grestore
gsave
14.296875 184.234375 translate
90.000000 rotate
0.000000 0.000000 m /T glyphshow
5.330078 0.000000 m /o glyphshow
12.671875 0.000000 m /t glyphshow
17.376953 0.000000 m /a glyphshow
24.730469 0.000000 m /l glyphshow
28.064453 0.000000 m /space glyphshow
31.878906 0.000000 m /s glyphshow
38.130859 0.000000 m /c glyphshow
44.728516 0.000000 m /o glyphshow
52.070312 0.000000 m /r glyphshow
56.753906 0.000000 m /e glyphshow
grestore
1.000 setlinewidth
gsave
72 388.8 m
518.4 388.8 l
stroke
grestore
gsave
518.4 43.2 m
518.4 388.8 l
stroke
grestore
gsave
72 43.2 m
518.4 43.2 l
stroke
grestore
gsave
72 43.2 m
72 388.8 l
stroke
grestore
/BitstreamVeraSans-Roman findfont
14.400 scalefont
setfont
gsave
29.746875 409.475000 translate
0.000000 rotate
0.000000 0.000000 m /H glyphshow
10.809326 0.000000 m /o glyphshow
19.604187 0.000000 m /w glyphshow
31.361084 0.000000 m /space glyphshow
35.930481 0.000000 m /t glyphshow
41.566772 0.000000 m /h glyphshow
50.677490 0.000000 m /e glyphshow
59.521484 0.000000 m /space glyphshow
64.090881 0.000000 m /t glyphshow
69.727173 0.000000 m /o glyphshow
78.522034 0.000000 m /t glyphshow
84.158325 0.000000 m /a glyphshow
92.967224 0.000000 m /l glyphshow
96.961060 0.000000 m /space glyphshow
101.530457 0.000000 m /s glyphshow
109.019775 0.000000 m /c glyphshow
116.923218 0.000000 m /o glyphshow
125.718079 0.000000 m /r glyphshow
131.253113 0.000000 m /e glyphshow
140.097107 0.000000 m /space glyphshow
144.666504 0.000000 m /o glyphshow
153.461365 0.000000 m /f glyphshow
158.522095 0.000000 m /space glyphshow
163.091492 0.000000 m /t glyphshow
168.727783 0.000000 m /h glyphshow
177.838501 0.000000 m /e glyphshow
186.682495 0.000000 m /space glyphshow
191.251892 0.000000 m /f glyphshow
196.312622 0.000000 m /l glyphshow
200.306458 0.000000 m /o glyphshow
209.101318 0.000000 m /c glyphshow
217.004761 0.000000 m /k glyphshow
225.329346 0.000000 m /space glyphshow
229.898743 0.000000 m /c glyphshow
237.802185 0.000000 m /h glyphshow
246.912903 0.000000 m /a glyphshow
255.721802 0.000000 m /n glyphshow
264.832520 0.000000 m /g glyphshow
273.957275 0.000000 m /e glyphshow
282.801270 0.000000 m /s glyphshow
290.290588 0.000000 m /space glyphshow
294.859985 0.000000 m /f glyphshow
299.920715 0.000000 m /o glyphshow
308.715576 0.000000 m /r glyphshow
314.625610 0.000000 m /space glyphshow
319.195007 0.000000 m /e glyphshow
328.039001 0.000000 m /a glyphshow
336.847900 0.000000 m /c glyphshow
344.751343 0.000000 m /h glyphshow
353.862061 0.000000 m /space glyphshow
358.431458 0.000000 m /r glyphshow
363.966492 0.000000 m /o glyphshow
372.761353 0.000000 m /u glyphshow
381.872070 0.000000 m /n glyphshow
390.982788 0.000000 m /d glyphshow
400.107544 0.000000 m /space glyphshow
404.676941 0.000000 m /o glyphshow
413.471802 0.000000 m /f glyphshow
418.532532 0.000000 m /space glyphshow
423.101929 0.000000 m /t glyphshow
428.738220 0.000000 m /h glyphshow
437.848938 0.000000 m /e glyphshow
446.692932 0.000000 m /space glyphshow
451.262329 0.000000 m /h glyphshow
460.373047 0.000000 m /i glyphshow
464.366882 0.000000 m /l glyphshow
468.360718 0.000000 m /l glyphshow
472.354553 0.000000 m /space glyphshow
476.923950 0.000000 m /c glyphshow
484.827393 0.000000 m /l glyphshow
488.821228 0.000000 m /i glyphshow
492.815063 0.000000 m /m glyphshow
506.818054 0.000000 m /b glyphshow
515.942810 0.000000 m /e glyphshow
524.786804 0.000000 m /r glyphshow
grestore
gsave
295.200000 393.800000 translate
0.000000 rotate

grestore

end
showpage
