%!PS-Adobe-3.0 EPSF-3.0
%%Title: /Users/Jacob/Documents/Uni/year3/project/graphs/basic_evo/SPREAD_MAX_total.eps
%%Creator: matplotlib version 1.3.1, http://matplotlib.org/
%%CreationDate: Sat Feb  7 16:57:37 2015
%%Orientation: portrait
%%BoundingBox: 18 180 594 612
%%EndComments
%%BeginProlog
/mpldict 8 dict def
mpldict begin
/m { moveto } bind def
/l { lineto } bind def
/r { rlineto } bind def
/c { curveto } bind def
/cl { closepath } bind def
/box {
m
1 index 0 r
0 exch r
neg 0 r
cl
} bind def
/clipbox {
box
clip
newpath
} bind def
%!PS-Adobe-3.0 Resource-Font
%%Title: Bitstream Vera Sans
%%Copyright: Copyright (c) 2003 by Bitstream, Inc. All Rights Reserved.
%%Creator: Converted from TrueType to type 3 by PPR
25 dict begin
/_d{bind def}bind def
/_m{moveto}_d
/_l{lineto}_d
/_cl{closepath eofill}_d
/_c{curveto}_d
/_sc{7 -1 roll{setcachedevice}{pop pop pop pop pop pop}ifelse}_d
/_e{exec}_d
/FontName /BitstreamVeraSans-Roman def
/PaintType 0 def
/FontMatrix[.001 0 0 .001 0 0]def
/FontBBox[-183 -236 1287 928]def
/FontType 3 def
/Encoding [ /space /period /zero /one /two /four /five /six /eight /H /R /T /a /b /c /d /e /f /g /h /i /k /l /m /n /o /r /s /t /u /w /minus ] def
/FontInfo 10 dict dup begin
/FamilyName (Bitstream Vera Sans) def
/FullName (Bitstream Vera Sans) def
/Notice (Copyright (c) 2003 by Bitstream, Inc. All Rights Reserved. Bitstream Vera is a trademark of Bitstream, Inc.) def
/Weight (Roman) def
/Version (Release 1.10) def
/ItalicAngle 0.0 def
/isFixedPitch false def
/UnderlinePosition -213 def
/UnderlineThickness 143 def
end readonly def
/CharStrings 32 dict dup begin
/space{318 0 0 0 0 0 _sc
}_d
/period{318 0 107 0 210 124 _sc
107 124 _m
210 124 _l
210 0 _l
107 0 _l
107 124 _l
_cl}_d
/zero{636 0 66 -13 570 742 _sc
318 664 _m
267 664 229 639 203 589 _c
177 539 165 464 165 364 _c
165 264 177 189 203 139 _c
229 89 267 64 318 64 _c
369 64 407 89 433 139 _c
458 189 471 264 471 364 _c
471 464 458 539 433 589 _c
407 639 369 664 318 664 _c
318 742 _m
399 742 461 709 505 645 _c
548 580 570 486 570 364 _c
570 241 548 147 505 83 _c
461 19 399 -13 318 -13 _c
236 -13 173 19 130 83 _c
87 147 66 241 66 364 _c
66 486 87 580 130 645 _c
173 709 236 742 318 742 _c
_cl}_d
/one{636 0 110 0 544 729 _sc
124 83 _m
285 83 _l
285 639 _l
110 604 _l
110 694 _l
284 729 _l
383 729 _l
383 83 _l
544 83 _l
544 0 _l
124 0 _l
124 83 _l
_cl}_d
/two{{636 0 73 0 536 742 _sc
192 83 _m
536 83 _l
536 0 _l
73 0 _l
73 83 _l
110 121 161 173 226 239 _c
290 304 331 346 348 365 _c
380 400 402 430 414 455 _c
426 479 433 504 433 528 _c
433 566 419 598 392 622 _c
365 646 330 659 286 659 _c
255 659 222 653 188 643 _c
154 632 117 616 78 594 _c
78 694 _l
118 710 155 722 189 730 _c
223 738 255 742 284 742 _c
}_e{359 742 419 723 464 685 _c
509 647 532 597 532 534 _c
532 504 526 475 515 449 _c
504 422 484 390 454 354 _c
446 344 420 317 376 272 _c
332 227 271 164 192 83 _c
_cl}_e}_d
/four{636 0 49 0 580 729 _sc
378 643 _m
129 254 _l
378 254 _l
378 643 _l
352 729 _m
476 729 _l
476 254 _l
580 254 _l
580 172 _l
476 172 _l
476 0 _l
378 0 _l
378 172 _l
49 172 _l
49 267 _l
352 729 _l
_cl}_d
/five{{636 0 77 -13 549 729 _sc
108 729 _m
495 729 _l
495 646 _l
198 646 _l
198 467 _l
212 472 227 476 241 478 _c
255 480 270 482 284 482 _c
365 482 429 459 477 415 _c
525 370 549 310 549 234 _c
549 155 524 94 475 51 _c
426 8 357 -13 269 -13 _c
238 -13 207 -10 175 -6 _c
143 -1 111 6 77 17 _c
77 116 _l
106 100 136 88 168 80 _c
199 72 232 69 267 69 _c
}_e{323 69 368 83 401 113 _c
433 143 450 183 450 234 _c
450 284 433 324 401 354 _c
368 384 323 399 267 399 _c
241 399 214 396 188 390 _c
162 384 135 375 108 363 _c
108 729 _l
_cl}_e}_d
/six{{636 0 70 -13 573 742 _sc
330 404 _m
286 404 251 388 225 358 _c
199 328 186 286 186 234 _c
186 181 199 139 225 109 _c
251 79 286 64 330 64 _c
374 64 409 79 435 109 _c
461 139 474 181 474 234 _c
474 286 461 328 435 358 _c
409 388 374 404 330 404 _c
526 713 _m
526 623 _l
501 635 476 644 451 650 _c
425 656 400 659 376 659 _c
310 659 260 637 226 593 _c
}_e{192 549 172 482 168 394 _c
187 422 211 444 240 459 _c
269 474 301 482 336 482 _c
409 482 467 459 509 415 _c
551 371 573 310 573 234 _c
573 159 550 99 506 54 _c
462 9 403 -13 330 -13 _c
246 -13 181 19 137 83 _c
92 147 70 241 70 364 _c
70 479 97 571 152 639 _c
206 707 280 742 372 742 _c
396 742 421 739 447 735 _c
472 730 498 723 526 713 _c
_cl}_e}_d
/eight{{636 0 68 -13 568 742 _sc
318 346 _m
271 346 234 333 207 308 _c
180 283 167 249 167 205 _c
167 161 180 126 207 101 _c
234 76 271 64 318 64 _c
364 64 401 76 428 102 _c
455 127 469 161 469 205 _c
469 249 455 283 429 308 _c
402 333 365 346 318 346 _c
219 388 _m
177 398 144 418 120 447 _c
96 476 85 511 85 553 _c
85 611 105 657 147 691 _c
188 725 245 742 318 742 _c
}_e{390 742 447 725 489 691 _c
530 657 551 611 551 553 _c
551 511 539 476 515 447 _c
491 418 459 398 417 388 _c
464 377 501 355 528 323 _c
554 291 568 251 568 205 _c
568 134 546 80 503 43 _c
459 5 398 -13 318 -13 _c
237 -13 175 5 132 43 _c
89 80 68 134 68 205 _c
68 251 81 291 108 323 _c
134 355 171 377 219 388 _c
183 544 _m
183 506 194 476 218 455 _c
}_e{242 434 275 424 318 424 _c
360 424 393 434 417 455 _c
441 476 453 506 453 544 _c
453 582 441 611 417 632 _c
393 653 360 664 318 664 _c
275 664 242 653 218 632 _c
194 611 183 582 183 544 _c
_cl}_e}_d
/H{752 0 98 0 654 729 _sc
98 729 _m
197 729 _l
197 430 _l
555 430 _l
555 729 _l
654 729 _l
654 0 _l
555 0 _l
555 347 _l
197 347 _l
197 0 _l
98 0 _l
98 729 _l
_cl}_d
/R{{695 0 98 0 666 729 _sc
444 342 _m
465 334 486 319 506 296 _c
526 272 546 240 566 199 _c
666 0 _l
560 0 _l
467 187 _l
443 235 419 268 397 284 _c
374 300 343 308 304 308 _c
197 308 _l
197 0 _l
98 0 _l
98 729 _l
321 729 _l
404 729 466 711 507 677 _c
548 642 569 589 569 519 _c
569 473 558 434 537 404 _c
515 374 484 353 444 342 _c
197 648 _m
197 389 _l
321 389 _l
}_e{368 389 404 400 428 422 _c
452 444 465 476 465 519 _c
465 561 452 593 428 615 _c
404 637 368 648 321 648 _c
197 648 _l
_cl}_e}_d
/T{611 0 -2 0 614 729 _sc
-2 729 _m
614 729 _l
614 646 _l
355 646 _l
355 0 _l
256 0 _l
256 646 _l
-2 646 _l
-2 729 _l
_cl}_d
/a{{613 0 60 -13 522 560 _sc
343 275 _m
270 275 220 266 192 250 _c
164 233 150 205 150 165 _c
150 133 160 107 181 89 _c
202 70 231 61 267 61 _c
317 61 357 78 387 114 _c
417 149 432 196 432 255 _c
432 275 _l
343 275 _l
522 312 _m
522 0 _l
432 0 _l
432 83 _l
411 49 385 25 355 10 _c
325 -5 287 -13 243 -13 _c
187 -13 142 2 109 33 _c
76 64 60 106 60 159 _c
}_e{60 220 80 266 122 298 _c
163 329 224 345 306 345 _c
432 345 _l
432 354 _l
432 395 418 427 391 450 _c
364 472 326 484 277 484 _c
245 484 215 480 185 472 _c
155 464 127 453 100 439 _c
100 522 _l
132 534 164 544 195 550 _c
226 556 256 560 286 560 _c
365 560 424 539 463 498 _c
502 457 522 395 522 312 _c
_cl}_e}_d
/b{{635 0 91 -13 580 760 _sc
487 273 _m
487 339 473 390 446 428 _c
418 466 381 485 334 485 _c
286 485 249 466 222 428 _c
194 390 181 339 181 273 _c
181 207 194 155 222 117 _c
249 79 286 61 334 61 _c
381 61 418 79 446 117 _c
473 155 487 207 487 273 _c
181 464 _m
199 496 223 520 252 536 _c
281 552 316 560 356 560 _c
422 560 476 533 518 481 _c
559 428 580 359 580 273 _c
}_e{580 187 559 117 518 65 _c
476 13 422 -13 356 -13 _c
316 -13 281 -5 252 10 _c
223 25 199 49 181 82 _c
181 0 _l
91 0 _l
91 760 _l
181 760 _l
181 464 _l
_cl}_e}_d
/c{{550 0 55 -13 488 560 _sc
488 526 _m
488 442 _l
462 456 437 466 411 473 _c
385 480 360 484 334 484 _c
276 484 230 465 198 428 _c
166 391 150 339 150 273 _c
150 206 166 154 198 117 _c
230 80 276 62 334 62 _c
360 62 385 65 411 72 _c
437 79 462 90 488 104 _c
488 21 _l
462 9 436 0 410 -5 _c
383 -10 354 -13 324 -13 _c
242 -13 176 12 128 64 _c
}_e{79 115 55 185 55 273 _c
55 362 79 432 128 483 _c
177 534 244 560 330 560 _c
358 560 385 557 411 551 _c
437 545 463 537 488 526 _c
_cl}_e}_d
/d{{635 0 55 -13 544 760 _sc
454 464 _m
454 760 _l
544 760 _l
544 0 _l
454 0 _l
454 82 _l
435 49 411 25 382 10 _c
353 -5 319 -13 279 -13 _c
213 -13 159 13 117 65 _c
75 117 55 187 55 273 _c
55 359 75 428 117 481 _c
159 533 213 560 279 560 _c
319 560 353 552 382 536 _c
411 520 435 496 454 464 _c
148 273 _m
148 207 161 155 188 117 _c
215 79 253 61 301 61 _c
}_e{348 61 385 79 413 117 _c
440 155 454 207 454 273 _c
454 339 440 390 413 428 _c
385 466 348 485 301 485 _c
253 485 215 466 188 428 _c
161 390 148 339 148 273 _c
_cl}_e}_d
/e{{615 0 55 -13 562 560 _sc
562 296 _m
562 252 _l
149 252 _l
153 190 171 142 205 110 _c
238 78 284 62 344 62 _c
378 62 412 66 444 74 _c
476 82 509 95 541 113 _c
541 28 _l
509 14 476 3 442 -3 _c
408 -9 373 -13 339 -13 _c
251 -13 182 12 131 62 _c
80 112 55 181 55 268 _c
55 357 79 428 127 481 _c
175 533 241 560 323 560 _c
397 560 455 536 498 489 _c
}_e{540 441 562 377 562 296 _c
472 322 _m
471 371 457 410 431 440 _c
404 469 368 484 324 484 _c
274 484 234 469 204 441 _c
174 413 156 373 152 322 _c
472 322 _l
_cl}_e}_d
/f{352 0 23 0 371 760 _sc
371 760 _m
371 685 _l
285 685 _l
253 685 230 678 218 665 _c
205 652 199 629 199 595 _c
199 547 _l
347 547 _l
347 477 _l
199 477 _l
199 0 _l
109 0 _l
109 477 _l
23 477 _l
23 547 _l
109 547 _l
109 585 _l
109 645 123 690 151 718 _c
179 746 224 760 286 760 _c
371 760 _l
_cl}_d
/g{{635 0 55 -207 544 560 _sc
454 280 _m
454 344 440 395 414 431 _c
387 467 349 485 301 485 _c
253 485 215 467 188 431 _c
161 395 148 344 148 280 _c
148 215 161 165 188 129 _c
215 93 253 75 301 75 _c
349 75 387 93 414 129 _c
440 165 454 215 454 280 _c
544 68 _m
544 -24 523 -93 482 -139 _c
440 -184 377 -207 292 -207 _c
260 -207 231 -204 203 -200 _c
175 -195 147 -188 121 -178 _c
}_e{121 -91 _l
147 -105 173 -115 199 -122 _c
225 -129 251 -133 278 -133 _c
336 -133 380 -117 410 -87 _c
439 -56 454 -10 454 52 _c
454 96 _l
435 64 411 40 382 24 _c
353 8 319 0 279 0 _c
211 0 157 25 116 76 _c
75 127 55 195 55 280 _c
55 364 75 432 116 483 _c
157 534 211 560 279 560 _c
319 560 353 552 382 536 _c
411 520 435 496 454 464 _c
454 547 _l
544 547 _l
}_e{544 68 _l
_cl}_e}_d
/h{634 0 91 0 549 760 _sc
549 330 _m
549 0 _l
459 0 _l
459 327 _l
459 379 448 417 428 443 _c
408 469 378 482 338 482 _c
289 482 251 466 223 435 _c
195 404 181 362 181 309 _c
181 0 _l
91 0 _l
91 760 _l
181 760 _l
181 462 _l
202 494 227 519 257 535 _c
286 551 320 560 358 560 _c
420 560 468 540 500 501 _c
532 462 549 405 549 330 _c
_cl}_d
/i{278 0 94 0 184 760 _sc
94 547 _m
184 547 _l
184 0 _l
94 0 _l
94 547 _l
94 760 _m
184 760 _l
184 646 _l
94 646 _l
94 760 _l
_cl}_d
/k{579 0 91 0 576 760 _sc
91 760 _m
181 760 _l
181 311 _l
449 547 _l
564 547 _l
274 291 _l
576 0 _l
459 0 _l
181 267 _l
181 0 _l
91 0 _l
91 760 _l
_cl}_d
/l{278 0 94 0 184 760 _sc
94 760 _m
184 760 _l
184 0 _l
94 0 _l
94 760 _l
_cl}_d
/m{{974 0 91 0 889 560 _sc
520 442 _m
542 482 569 511 600 531 _c
631 550 668 560 711 560 _c
767 560 811 540 842 500 _c
873 460 889 403 889 330 _c
889 0 _l
799 0 _l
799 327 _l
799 379 789 418 771 444 _c
752 469 724 482 686 482 _c
639 482 602 466 575 435 _c
548 404 535 362 535 309 _c
535 0 _l
445 0 _l
445 327 _l
445 379 435 418 417 444 _c
398 469 369 482 331 482 _c
}_e{285 482 248 466 221 435 _c
194 404 181 362 181 309 _c
181 0 _l
91 0 _l
91 547 _l
181 547 _l
181 462 _l
201 495 226 520 255 536 _c
283 552 317 560 357 560 _c
397 560 430 550 458 530 _c
486 510 506 480 520 442 _c
_cl}_e}_d
/n{634 0 91 0 549 560 _sc
549 330 _m
549 0 _l
459 0 _l
459 327 _l
459 379 448 417 428 443 _c
408 469 378 482 338 482 _c
289 482 251 466 223 435 _c
195 404 181 362 181 309 _c
181 0 _l
91 0 _l
91 547 _l
181 547 _l
181 462 _l
202 494 227 519 257 535 _c
286 551 320 560 358 560 _c
420 560 468 540 500 501 _c
532 462 549 405 549 330 _c
_cl}_d
/o{612 0 55 -13 557 560 _sc
306 484 _m
258 484 220 465 192 427 _c
164 389 150 338 150 273 _c
150 207 163 156 191 118 _c
219 80 257 62 306 62 _c
354 62 392 80 420 118 _c
448 156 462 207 462 273 _c
462 337 448 389 420 427 _c
392 465 354 484 306 484 _c
306 560 _m
384 560 445 534 490 484 _c
534 433 557 363 557 273 _c
557 183 534 113 490 63 _c
445 12 384 -13 306 -13 _c
227 -13 165 12 121 63 _c
77 113 55 183 55 273 _c
55 363 77 433 121 484 _c
165 534 227 560 306 560 _c
_cl}_d
/r{411 0 91 0 411 560 _sc
411 463 _m
401 469 390 473 378 476 _c
366 478 353 480 339 480 _c
288 480 249 463 222 430 _c
194 397 181 350 181 288 _c
181 0 _l
91 0 _l
91 547 _l
181 547 _l
181 462 _l
199 495 224 520 254 536 _c
284 552 321 560 365 560 _c
371 560 378 559 386 559 _c
393 558 401 557 411 555 _c
411 463 _l
_cl}_d
/s{{521 0 54 -13 472 560 _sc
443 531 _m
443 446 _l
417 458 391 468 364 475 _c
336 481 308 485 279 485 _c
234 485 200 478 178 464 _c
156 450 145 430 145 403 _c
145 382 153 366 169 354 _c
185 342 217 330 265 320 _c
296 313 _l
360 299 405 279 432 255 _c
458 230 472 195 472 151 _c
472 100 452 60 412 31 _c
372 1 316 -13 246 -13 _c
216 -13 186 -10 154 -5 _c
}_e{122 0 89 8 54 20 _c
54 113 _l
87 95 120 82 152 74 _c
184 65 216 61 248 61 _c
290 61 323 68 346 82 _c
368 96 380 117 380 144 _c
380 168 371 187 355 200 _c
339 213 303 226 247 238 _c
216 245 _l
160 257 119 275 95 299 _c
70 323 58 356 58 399 _c
58 450 76 490 112 518 _c
148 546 200 560 268 560 _c
301 560 332 557 362 552 _c
391 547 418 540 443 531 _c
}_e{_cl}_e}_d
/t{392 0 27 0 368 702 _sc
183 702 _m
183 547 _l
368 547 _l
368 477 _l
183 477 _l
183 180 _l
183 135 189 106 201 94 _c
213 81 238 75 276 75 _c
368 75 _l
368 0 _l
276 0 _l
206 0 158 13 132 39 _c
106 65 93 112 93 180 _c
93 477 _l
27 477 _l
27 547 _l
93 547 _l
93 702 _l
183 702 _l
_cl}_d
/u{634 0 85 -13 543 547 _sc
85 216 _m
85 547 _l
175 547 _l
175 219 _l
175 167 185 129 205 103 _c
225 77 255 64 296 64 _c
344 64 383 79 411 110 _c
439 141 453 183 453 237 _c
453 547 _l
543 547 _l
543 0 _l
453 0 _l
453 84 _l
431 50 405 26 377 10 _c
348 -5 315 -13 277 -13 _c
214 -13 166 6 134 45 _c
101 83 85 140 85 216 _c
_cl}_d
/w{818 0 42 0 776 547 _sc
42 547 _m
132 547 _l
244 120 _l
356 547 _l
462 547 _l
574 120 _l
686 547 _l
776 547 _l
633 0 _l
527 0 _l
409 448 _l
291 0 _l
185 0 _l
42 547 _l
_cl}_d
/minus{838 0 106 272 732 355 _sc
106 355 _m
732 355 _l
732 272 _l
106 272 _l
106 355 _l
_cl}_d
end readonly def

/BuildGlyph
 {exch begin
 CharStrings exch
 2 copy known not{pop /.notdef}if
 true 3 1 roll get exec
 end}_d

/BuildChar {
 1 index /Encoding get exch get
 1 index /BuildGlyph get exec
}_d

FontName currentdict end definefont pop
end
%%EndProlog
mpldict begin
18 180 translate
576 432 0 0 clipbox
gsave
0 0 m
576 0 l
576 432 l
0 432 l
cl
1.000 setgray
fill
grestore
gsave
72 43.2 m
518.4 43.2 l
518.4 388.8 l
72 388.8 l
cl
1.000 setgray
fill
grestore
1.000 setlinewidth
1 setlinejoin
2 setlinecap
[] 0 setdash
0.000 setgray
gsave
446.4 345.6 72 43.2 clipbox
72 388.8 m
72.2232 370.224 l
72.4464 64.5362 l
72.6696 374.764 l
72.8928 336.593 l
73.116 366.442 l
73.3392 359.581 l
73.5624 372.916 l
73.7856 377.493 l
74.0088 365.21 l
74.232 368.771 l
74.6784 379.187 l
74.9016 378.901 l
75.1248 378.139 l
75.348 383.458 l
75.7944 382.921 l
76.2408 384.675 l
76.464 385.538 l
76.6872 385.665 l
76.9104 386.113 l
78.0264 385.952 l
78.2496 385.892 l
78.4728 385.519 l
78.9192 386.206 l
79.1424 385.774 l
79.3656 385.956 l
79.812 385.965 l
80.0352 385.753 l
80.2584 385.986 l
80.7048 386.074 l
81.3744 385.921 l
81.8208 386.16 l
82.044 386.162 l
82.2672 385.802 l
82.4904 385.968 l
82.7136 385.861 l
82.9368 386.171 l
83.3832 386.052 l
83.6064 386.183 l
83.8296 386.085 l
84.0528 386.156 l
84.4992 385.899 l
84.7224 386.235 l
85.6152 386.208 l
86.0616 385.801 l
86.2848 386.069 l
86.7312 386.14 l
87.1776 386.044 l
87.4008 385.997 l
87.624 386.149 l
87.8472 385.946 l
88.0704 386.04 l
88.5168 385.968 l
88.74 386.086 l
88.9632 385.893 l
89.1864 386.144 l
89.4096 385.793 l
89.856 386.066 l
91.6416 386.167 l
91.8648 386.069 l
92.088 385.601 l
92.3112 386.003 l
94.0968 386.233 l
94.32 385.918 l
94.5432 386.133 l
94.7664 386.119 l
94.9896 385.759 l
95.436 386.096 l
95.6592 386.013 l
95.8824 386.187 l
96.7752 386.034 l
96.9984 385.803 l
97.2216 386.041 l
97.4448 386.061 l
97.8912 386.236 l
98.1144 386.256 l
98.3376 386.063 l
99.0072 386.319 l
99.4536 385.969 l
99.6768 386.279 l
100.123 386.079 l
100.346 386.206 l
100.57 385.871 l
101.239 386.225 l
101.462 386.047 l
101.686 386.223 l
101.909 386.087 l
102.802 386.394 l
103.025 386.311 l
103.248 386.362 l
103.694 386.178 l
104.364 386.045 l
104.587 386.134 l
104.81 385.936 l
105.034 386.02 l
105.257 386.255 l
106.596 386.271 l
106.819 386.377 l
107.042 386.216 l
107.266 386.271 l
107.489 386.055 l
107.935 386.285 l
108.158 386.377 l
109.051 386.002 l
109.274 386.283 l
109.721 386.147 l
110.167 386.017 l
110.614 386.196 l
110.837 386.208 l
111.06 385.988 l
111.506 386.097 l
111.73 386.4 l
112.176 386.344 l
112.399 386.094 l
112.622 386.286 l
112.846 385.957 l
113.069 386.261 l
113.515 386.342 l
113.738 386.317 l
113.962 386.063 l
114.185 386.326 l
114.631 386.083 l
115.078 385.813 l
115.301 386.282 l
115.524 386.095 l
115.747 386.266 l
115.97 386.167 l
116.194 386.201 l
116.417 385.903 l
116.64 386.236 l
116.863 386.27 l
117.086 386.024 l
117.31 386.031 l
117.756 386.255 l
117.979 385.9 l
118.202 386.125 l
118.649 385.739 l
118.872 386.156 l
119.318 385.981 l
119.765 386.182 l
119.988 386.215 l
120.434 386.082 l
121.104 385.987 l
121.55 385.918 l
121.774 386.02 l
122.22 385.802 l
122.443 385.983 l
122.666 385.914 l
123.113 386.071 l
123.559 385.987 l
124.452 385.893 l
124.675 385.766 l
124.898 385.918 l
125.122 385.887 l
125.568 385.952 l
125.791 385.963 l
126.014 385.638 l
126.238 385.938 l
126.461 385.771 l
126.684 386.083 l
127.13 385.819 l
127.577 385.678 l
127.8 385.9 l
128.246 385.615 l
128.693 385.93 l
128.916 385.998 l
129.139 385.891 l
129.362 386.055 l
130.478 385.892 l
130.925 386.015 l
131.148 385.865 l
131.371 385.924 l
131.594 385.852 l
131.818 386.051 l
132.041 385.891 l
132.264 386.034 l
132.487 385.44 l
132.71 386.012 l
132.934 386.025 l
133.157 386.165 l
133.38 386.169 l
133.603 386.022 l
134.496 386.122 l
135.389 386.03 l
136.058 386.053 l
136.282 385.746 l
136.728 386.13 l
137.398 385.945 l
137.621 386.147 l
137.844 385.92 l
138.067 386.202 l
138.96 386.075 l
139.183 385.814 l
139.406 386.153 l
139.63 385.933 l
139.853 386.048 l
140.076 386.016 l
140.299 386.179 l
140.522 386.029 l
140.746 386.287 l
142.308 385.952 l
142.531 385.976 l
142.754 386.129 l
142.978 385.807 l
143.201 385.991 l
143.424 385.94 l
143.87 386.174 l
144.094 385.886 l
144.763 386.269 l
145.433 386.252 l
145.656 386.185 l
145.879 386.253 l
146.102 386.052 l
146.326 386.031 l
146.549 385.889 l
146.772 386.111 l
147.442 386.156 l
147.888 386.055 l
148.334 386.305 l
149.004 386.025 l
149.45 386.274 l
149.674 386.079 l
150.343 386.254 l
150.566 386.144 l
150.79 386.224 l
151.013 386.112 l
151.236 386.208 l
151.459 386.031 l
151.682 386.183 l
152.129 386.055 l
152.352 386.245 l
152.798 386.152 l
153.468 386.29 l
153.691 386.111 l
153.914 386.23 l
154.138 386.201 l
154.361 386.316 l
154.584 386.221 l
154.807 385.963 l
155.03 386.19 l
155.7 386.237 l
155.923 385.891 l
156.146 386.196 l
156.593 386.053 l
157.262 386.255 l
157.709 386.272 l
158.155 386.331 l
158.602 386.236 l
158.825 386.341 l
159.271 386.274 l
159.494 386.128 l
159.941 386.299 l
160.387 386.301 l
161.28 386.247 l
161.726 386.408 l
161.95 386.251 l
162.173 386.282 l
162.396 386.144 l
163.289 386.357 l
163.512 386.207 l
163.735 386.193 l
163.958 386.045 l
164.405 386.162 l
164.851 386.07 l
165.074 386.182 l
165.521 385.87 l
165.744 386.054 l
165.967 385.709 l
166.19 385.863 l
166.414 385.818 l
166.637 385.889 l
166.86 385.766 l
167.976 386.091 l
168.199 385.983 l
168.422 386.06 l
169.762 385.76 l
169.985 385.981 l
170.208 385.676 l
170.431 385.946 l
170.654 385.711 l
170.878 385.886 l
171.101 385.903 l
171.324 386.037 l
171.77 385.85 l
171.994 385.55 l
172.217 385.808 l
172.44 385.59 l
172.886 385.893 l
173.779 385.81 l
174.002 385.857 l
174.226 385.6 l
174.672 385.77 l
175.118 385.737 l
175.342 385.21 l
175.565 385.574 l
176.458 385.595 l
176.681 385.719 l
176.904 385.594 l
177.127 385.754 l
177.35 385.546 l
178.02 385.574 l
178.243 385.445 l
178.466 385.715 l
178.69 385.515 l
178.913 385.748 l
179.806 385.613 l
180.252 385.628 l
180.475 385.669 l
180.698 385.53 l
180.922 385.741 l
182.038 385.362 l
182.261 385.697 l
183.154 385.425 l
183.377 385.722 l
184.493 385.737 l
185.386 385.89 l
185.832 385.496 l
186.055 385.47 l
186.502 385.742 l
187.394 385.787 l
187.618 385.608 l
188.064 385.527 l
188.287 385.733 l
188.957 385.814 l
189.18 385.536 l
189.403 385.776 l
189.626 385.669 l
190.073 385.865 l
190.296 385.609 l
190.742 385.627 l
191.189 385.884 l
191.635 385.853 l
191.858 385.835 l
192.082 385.971 l
193.644 385.83 l
193.867 385.567 l
194.09 385.513 l
194.314 385.768 l
194.76 385.531 l
194.983 385.706 l
195.206 385.697 l
195.43 385.87 l
195.653 385.648 l
196.099 385.718 l
196.322 385.659 l
196.546 385.754 l
196.769 385.692 l
197.215 385.844 l
197.438 385.575 l
197.662 385.879 l
198.554 385.767 l
198.778 385.802 l
199.001 385.605 l
199.224 385.913 l
200.117 385.827 l
200.34 385.625 l
200.563 385.969 l
201.01 385.821 l
201.902 385.93 l
202.349 385.678 l
202.795 385.857 l
203.018 385.592 l
203.242 385.903 l
203.465 385.677 l
203.688 385.944 l
203.911 385.902 l
204.358 386.113 l
204.581 385.908 l
204.804 386.058 l
205.027 385.87 l
205.474 385.869 l
205.92 386.062 l
206.366 386.111 l
206.59 385.989 l
206.813 385.995 l
207.036 385.804 l
207.482 386.013 l
208.152 385.845 l
208.375 385.953 l
208.598 385.87 l
208.822 385.969 l
209.938 385.704 l
210.384 385.793 l
210.607 385.65 l
210.83 385.817 l
211.277 385.496 l
211.5 385.785 l
211.723 385.882 l
211.946 385.748 l
212.17 385.446 l
212.393 385.408 l
212.616 385.676 l
212.839 385.51 l
213.062 385.849 l
213.286 385.73 l
213.732 385.799 l
214.402 385.886 l
214.625 385.646 l
214.848 385.857 l
215.518 385.768 l
215.741 385.919 l
215.964 385.57 l
216.187 385.872 l
216.41 385.787 l
216.634 385.468 l
217.08 385.769 l
217.75 385.704 l
217.973 385.696 l
218.196 385.88 l
218.419 385.691 l
218.642 385.701 l
219.089 385.887 l
219.535 385.908 l
219.758 385.735 l
219.982 385.932 l
220.205 385.946 l
220.428 385.77 l
220.651 385.826 l
221.098 385.588 l
221.321 385.802 l
221.767 385.698 l
222.883 386.096 l
223.106 385.913 l
223.33 385.984 l
223.553 385.892 l
223.999 385.993 l
224.446 385.703 l
224.669 385.956 l
224.892 385.954 l
225.115 385.74 l
225.785 386.024 l
226.008 385.847 l
226.231 386.042 l
226.454 386.054 l
226.678 385.824 l
226.901 386.037 l
227.124 385.812 l
227.347 386.007 l
227.57 385.841 l
228.017 386.111 l
228.24 385.989 l
228.91 386.027 l
230.026 385.941 l
230.472 386.095 l
230.695 385.853 l
231.588 386.09 l
231.811 385.959 l
232.034 386.086 l
232.481 385.822 l
232.704 385.632 l
232.927 385.834 l
233.15 385.836 l
233.597 385.997 l
234.266 385.908 l
234.713 385.944 l
234.936 385.765 l
235.159 385.293 l
235.382 385.934 l
235.606 385.818 l
235.829 385.973 l
236.498 385.708 l
236.722 385.93 l
236.945 385.761 l
237.614 385.906 l
237.838 385.866 l
238.061 385.622 l
238.507 386.02 l
238.954 385.91 l
239.177 386.1 l
240.293 385.967 l
240.739 386.09 l
241.186 385.857 l
241.409 385.624 l
241.855 385.853 l
242.078 385.656 l
242.525 386.031 l
242.971 385.926 l
243.641 386.113 l
243.864 385.706 l
244.087 385.922 l
244.534 385.788 l
244.757 385.961 l
245.873 386.038 l
246.096 385.85 l
246.319 386.019 l
247.658 385.941 l
248.551 385.921 l
248.774 385.802 l
249.444 386.019 l
249.667 385.934 l
249.89 385.628 l
250.114 385.867 l
251.006 385.935 l
251.23 385.628 l
251.453 385.516 l
251.676 385.866 l
251.899 385.968 l
252.122 385.897 l
252.346 385.651 l
252.569 385.911 l
252.792 385.826 l
253.685 386.082 l
253.908 386.017 l
254.131 386.111 l
254.578 385.959 l
255.247 385.987 l
255.47 385.907 l
256.586 386.12 l
256.81 385.986 l
257.033 386.101 l
257.256 385.957 l
257.702 386.139 l
258.149 386.012 l
258.595 386.149 l
259.042 386.05 l
259.488 386.078 l
259.711 385.99 l
259.934 386.065 l
260.158 386.279 l
260.827 385.992 l
261.05 386.084 l
261.274 385.898 l
261.497 386.048 l
262.166 386.048 l
262.39 385.864 l
262.836 385.941 l
263.059 385.983 l
263.506 385.64 l
263.952 386.002 l
264.175 385.938 l
264.398 386.004 l
264.622 385.902 l
265.068 386.058 l
265.291 385.895 l
266.184 385.821 l
266.407 386.049 l
267.077 386.062 l
267.3 385.854 l
267.523 385.809 l
267.746 386.126 l
269.309 385.92 l
269.532 386.072 l
270.202 386.071 l
270.871 385.905 l
271.318 386.092 l
271.987 386.108 l
272.21 386.224 l
273.103 386.122 l
273.55 386.179 l
274.442 386.265 l
274.889 386.291 l
275.112 385.875 l
275.335 386.197 l
275.558 385.979 l
275.782 386.199 l
276.451 386.231 l
276.674 386.363 l
277.567 386.067 l
277.79 386.36 l
278.237 386.183 l
278.46 386.286 l
278.683 386.252 l
279.576 386.503 l
279.799 386.213 l
280.022 386.372 l
280.246 386.352 l
280.692 386.154 l
281.138 386.251 l
281.585 386.213 l
281.808 386.334 l
282.031 386.323 l
282.478 386.023 l
282.924 386.303 l
283.37 386.094 l
283.594 386.218 l
284.263 386.084 l
284.71 386.148 l
285.602 386.008 l
285.826 386.235 l
286.049 386.252 l
286.272 386.126 l
287.165 386.326 l
288.95 386.374 l
289.174 386.434 l
289.397 386.23 l
289.62 386.28 l
289.843 386.176 l
290.066 386.267 l
290.513 386.237 l
290.736 386.057 l
291.406 386.45 l
291.629 386.397 l
291.852 386.2 l
292.298 386.343 l
292.522 386.286 l
292.745 386.442 l
292.968 386.391 l
293.191 386.177 l
293.414 386.338 l
293.638 386.072 l
293.861 386.309 l
294.084 386.221 l
294.53 386.385 l
294.754 386.481 l
295.2 386.407 l
295.646 386.38 l
296.093 386.325 l
296.316 386.439 l
296.539 386.428 l
296.762 386.151 l
297.432 386.158 l
297.655 386.258 l
298.102 386.085 l
298.325 386.363 l
298.771 386.323 l
298.994 386.261 l
299.218 386.07 l
300.334 386.411 l
300.78 386.113 l
301.226 386.41 l
301.45 386.355 l
301.673 386.436 l
302.342 386.37 l
304.128 386.376 l
304.351 386.492 l
304.574 386.364 l
304.798 386.462 l
305.244 386.345 l
305.467 386.054 l
305.69 386.315 l
306.137 386.323 l
306.36 386.316 l
306.583 386.442 l
306.806 386.359 l
307.253 386.391 l
307.476 386.366 l
307.699 386.221 l
308.146 386.444 l
308.369 386.179 l
308.815 386.281 l
309.262 386.373 l
309.485 386.14 l
309.708 386.329 l
309.931 386.062 l
310.378 386.295 l
310.601 386.272 l
311.047 386.397 l
311.27 386.431 l
311.717 386.269 l
311.94 386.437 l
313.056 386.46 l
313.502 386.374 l
314.172 386.47 l
314.395 386.256 l
314.842 386.427 l
315.065 386.207 l
315.288 386.341 l
315.958 386.275 l
316.181 386.538 l
316.85 386.357 l
317.074 386.489 l
317.297 386.286 l
317.52 386.434 l
318.19 386.31 l
318.413 386.459 l
318.636 386.385 l
319.082 385.984 l
319.529 386.425 l
319.975 386.346 l
320.198 386.285 l
320.422 386.407 l
320.645 386.371 l
320.868 386.455 l
321.314 386.405 l
321.761 386.463 l
321.984 386.319 l
322.43 386.432 l
322.654 386.343 l
322.877 386 l
323.1 386.232 l
323.77 386.317 l
323.993 385.924 l
324.216 386.078 l
324.439 386.42 l
324.662 386.478 l
324.886 386.249 l
325.109 386.37 l
325.778 386.361 l
326.002 386.51 l
326.671 386.214 l
326.894 386.363 l
327.118 386.273 l
327.341 386.333 l
327.564 386.072 l
327.787 386.348 l
328.457 386.226 l
328.68 386.341 l
328.903 386.318 l
329.126 386.137 l
329.35 386.141 l
329.573 386.007 l
330.019 386.319 l
330.466 386.175 l
330.912 386.336 l
331.805 386.184 l
332.028 386.339 l
332.251 386.247 l
332.474 386.001 l
332.698 386.35 l
332.921 386.251 l
333.144 386.306 l
333.59 386.182 l
333.814 386.297 l
334.483 386.207 l
334.706 386.115 l
335.376 386.292 l
335.599 386.237 l
336.046 386.393 l
336.269 386.226 l
336.492 386.343 l
336.715 385.845 l
337.385 386.25 l
337.831 385.994 l
338.054 385.99 l
338.278 385.875 l
338.724 386.19 l
339.17 386.176 l
339.394 386.112 l
340.063 386.349 l
340.286 386.168 l
340.51 386.286 l
341.179 386.262 l
341.849 386.302 l
342.072 386.14 l
343.411 386.17 l
343.634 386.062 l
343.858 386.213 l
344.527 386.188 l
344.75 386.011 l
344.974 386.154 l
349.438 386.208 l
349.661 386.011 l
349.884 385.525 l
350.33 386.168 l
350.554 386.309 l
350.777 386.308 l
351 385.935 l
351.223 386.271 l
351.67 386.279 l
351.893 386.112 l
352.116 386.231 l
352.786 386.112 l
353.232 386.307 l
353.455 386.358 l
353.678 386.182 l
353.902 386.148 l
354.571 386.357 l
355.018 386.294 l
355.241 386.421 l
355.687 386.344 l
355.91 386.005 l
356.134 385.934 l
356.357 386.267 l
356.803 385.945 l
357.026 385.98 l
357.473 386.427 l
357.696 386.393 l
358.142 386.544 l
358.589 386.384 l
358.812 386.606 l
359.258 386.257 l
359.482 386.472 l
359.705 386.391 l
360.374 386.501 l
360.598 386.527 l
360.821 386.349 l
361.044 386.457 l
361.267 386.339 l
361.49 386.473 l
361.714 386.403 l
361.937 385.993 l
362.16 386.429 l
362.606 386.497 l
362.83 386.474 l
363.053 386.59 l
363.276 386.492 l
364.169 386.514 l
364.392 386.369 l
364.615 386.565 l
364.838 386.458 l
365.062 386.631 l
366.624 386.57 l
366.847 386.398 l
367.294 386.51 l
367.517 386.324 l
367.963 386.612 l
368.186 386.489 l
368.41 386.515 l
368.633 386.189 l
369.079 386.483 l
369.526 386.363 l
370.418 386.515 l
370.642 386.297 l
371.088 386.411 l
371.311 386.256 l
371.758 386.467 l
371.981 386.362 l
372.204 386.455 l
372.65 386.162 l
372.874 386.459 l
373.097 386.545 l
373.32 386.464 l
373.766 386.576 l
374.213 386.497 l
374.659 386.492 l
374.882 386.58 l
375.106 386.429 l
376.222 386.572 l
376.445 386.384 l
376.891 386.496 l
378.23 386.59 l
378.454 386.515 l
378.677 386.573 l
378.9 386.424 l
379.123 386.531 l
379.793 386.394 l
380.016 386.595 l
380.239 386.53 l
380.462 386.638 l
380.686 386.442 l
380.909 386.545 l
381.355 386.378 l
381.578 386.529 l
381.802 386.432 l
382.248 386.481 l
382.471 386.282 l
382.694 386.585 l
383.364 386.514 l
383.587 386.586 l
383.81 386.532 l
384.034 386.605 l
384.257 386.421 l
384.926 386.588 l
385.373 386.558 l
385.596 386.396 l
385.819 386.51 l
386.266 386.221 l
386.489 386.271 l
386.935 386.495 l
387.382 386.477 l
387.605 386.536 l
388.498 386.355 l
388.944 386.595 l
389.167 386.366 l
389.39 386.303 l
389.614 386.495 l
390.06 386.434 l
390.73 386.505 l
390.953 386.458 l
391.399 386.632 l
392.069 386.189 l
392.515 386.482 l
392.962 386.375 l
394.524 386.397 l
394.747 386.27 l
394.97 386.492 l
395.64 386.514 l
396.31 386.639 l
396.756 386.307 l
396.979 386.506 l
397.202 386.349 l
397.426 386.46 l
397.649 386.194 l
397.872 386.323 l
398.095 386.195 l
398.542 386.451 l
399.658 386.547 l
399.881 386.428 l
400.327 386.506 l
400.774 386.562 l
401.22 386.309 l
401.666 386.238 l
401.89 386.328 l
402.113 386.275 l
402.559 386.4 l
402.782 386.314 l
403.006 386.432 l
403.229 386.297 l
403.452 386.412 l
403.898 386.114 l
404.122 386.282 l
404.345 386.186 l
404.568 386.382 l
404.791 386.267 l
405.014 386.403 l
405.238 386.065 l
405.461 386.282 l
408.362 386.444 l
408.809 386.536 l
409.255 386.438 l
409.478 386.386 l
409.702 386.457 l
410.371 386.295 l
410.594 386.565 l
410.818 386.476 l
411.264 386.591 l
411.71 386.324 l
411.934 386.488 l
412.157 386.427 l
412.38 386.494 l
412.603 386.001 l
412.826 386.449 l
413.273 386.39 l
413.496 386.279 l
413.719 386.414 l
414.389 386.229 l
414.612 386.411 l
415.505 386.272 l
415.728 386.475 l
416.174 386.325 l
417.067 386.461 l
417.29 386.276 l
417.514 386.268 l
417.737 386.447 l
418.406 386.144 l
418.853 386.281 l
419.299 386.521 l
419.746 386.192 l
419.969 386.436 l
420.862 386.214 l
421.308 386.462 l
421.531 386.564 l
421.978 386.113 l
422.424 386.519 l
422.87 386.306 l
423.54 386.475 l
423.763 386.479 l
424.433 386.228 l
425.326 386.475 l
425.772 386.351 l
425.995 386.15 l
426.218 386.437 l
426.442 386.418 l
426.665 386.136 l
427.111 386.447 l
427.334 386.291 l
428.004 386.402 l
428.227 386.175 l
428.45 386.312 l
428.674 386.285 l
428.897 386.145 l
429.343 386.418 l
429.79 386.612 l
430.236 386.33 l
430.459 386.403 l
430.906 386.186 l
431.129 386.443 l
432.468 386.378 l
432.691 386.105 l
432.914 386.398 l
433.138 386.14 l
433.361 386.474 l
433.584 386.322 l
434.254 386.494 l
434.477 386.388 l
435.146 386.585 l
435.37 386.399 l
435.816 386.495 l
436.262 386.403 l
436.709 386.523 l
436.932 386.308 l
439.164 386.248 l
439.61 386.325 l
439.834 386.138 l
440.057 386.394 l
440.28 386.242 l
440.503 386.36 l
440.726 386.262 l
440.95 386.414 l
441.173 386.379 l
441.619 386.453 l
442.289 386.433 l
442.512 386.262 l
442.735 386.355 l
442.958 386.277 l
443.628 386.491 l
443.851 386.263 l
444.298 386.464 l
444.521 386.327 l
444.744 386.364 l
444.967 385.956 l
445.19 386.343 l
445.637 386.452 l
445.86 386.258 l
446.083 386.451 l
446.306 386.44 l
446.53 386.549 l
446.753 386.45 l
446.976 386.592 l
447.199 386.493 l
447.422 386.576 l
447.646 386.472 l
448.092 386.464 l
448.315 386.369 l
448.538 386.49 l
448.985 386.486 l
449.208 386.197 l
449.431 386.454 l
449.654 386.475 l
450.101 386.203 l
450.324 386.373 l
450.547 386.156 l
450.994 386.407 l
451.217 386.264 l
451.44 386.424 l
451.886 386.409 l
452.11 386.052 l
452.333 386.138 l
452.556 386.36 l
452.779 386.328 l
453.002 386.174 l
453.226 386.381 l
453.672 386.282 l
453.895 386.43 l
454.565 386.224 l
455.011 386.392 l
455.234 386.268 l
455.904 386.391 l
456.35 386.118 l
456.797 386.225 l
457.02 386.409 l
457.466 386.087 l
457.913 386.35 l
458.136 386.339 l
458.359 385.901 l
458.582 386.357 l
459.029 386.268 l
459.252 386.422 l
459.922 386.326 l
460.145 386.047 l
460.368 386.272 l
461.261 386.381 l
461.484 386.198 l
462.377 386.302 l
462.6 386.138 l
462.823 386.181 l
463.046 386.419 l
463.27 386.492 l
463.493 386.331 l
463.939 386.348 l
464.162 386.228 l
464.609 386.353 l
465.948 386.255 l
466.394 386.372 l
467.064 386.452 l
467.957 386.068 l
468.18 386.182 l
468.403 386.109 l
468.626 386.324 l
469.073 386.31 l
469.296 386.401 l
469.519 386.279 l
469.742 386.392 l
469.966 386.366 l
470.189 386.223 l
470.858 386.303 l
471.305 386.254 l
471.528 386.116 l
472.867 386.229 l
473.09 386.061 l
473.76 386.204 l
473.983 385.995 l
474.206 386.027 l
474.43 386.188 l
474.653 386.132 l
474.876 386.212 l
475.099 386.071 l
475.322 386.31 l
475.546 386.181 l
475.769 386.188 l
475.992 385.874 l
476.662 386.205 l
476.885 386.151 l
477.108 386.3 l
478.001 386.226 l
478.224 385.995 l
478.67 386.331 l
479.34 386.225 l
479.563 386.123 l
480.01 386.34 l
480.456 386.101 l
481.572 386.214 l
481.795 386.149 l
482.242 386.319 l
483.134 386.098 l
483.581 386.231 l
484.474 386.195 l
484.92 386.117 l
485.143 386.115 l
485.366 386.233 l
486.259 385.96 l
486.706 386.053 l
487.152 386.137 l
487.375 386.104 l
487.822 386.177 l
488.268 386.129 l
488.491 385.906 l
488.714 386.164 l
488.938 386.114 l
489.161 385.895 l
489.83 386.066 l
490.054 386.036 l
490.5 386.254 l
491.17 385.882 l
491.393 385.96 l
491.616 385.866 l
492.062 386.082 l
492.509 386.158 l
492.732 386.082 l
492.955 386.154 l
493.402 385.963 l
494.071 386.228 l
494.741 386.237 l
494.964 386.286 l
495.187 386.098 l
495.41 386.301 l
495.634 386.174 l
496.526 386.227 l
496.973 386.146 l
497.196 386.298 l
497.642 386.12 l
498.089 386.051 l
498.312 386.205 l
498.535 385.941 l
498.758 385.879 l
499.428 386.236 l
499.874 386.167 l
500.321 386.141 l
500.544 386.216 l
500.767 386.066 l
500.99 386.175 l
501.214 386.156 l
501.437 385.896 l
501.66 386.127 l
502.106 385.946 l
502.33 386.02 l
503.222 385.755 l
503.892 386.151 l
504.338 386.02 l
504.785 386.147 l
505.231 386.037 l
506.347 386.166 l
507.017 385.877 l
507.24 386.025 l
507.686 385.945 l
507.91 386.2 l
508.356 385.979 l
508.802 386.183 l
509.026 386.134 l
509.472 386.245 l
509.695 386.348 l
509.918 386.118 l
510.142 386.247 l
510.811 385.981 l
511.034 386.205 l
511.258 386.087 l
511.481 386.107 l
511.704 385.913 l
512.15 386.197 l
512.374 386.332 l
512.597 386.203 l
512.82 386.241 l
513.043 386.115 l
513.266 386.175 l
513.713 386.045 l
513.936 386.01 l
514.829 386.218 l
515.052 386.045 l
516.838 386.199 l
517.284 386.067 l
518.4 386.062 l
518.4 386.062 l
stroke
grestore
0.500 setlinewidth
0 setlinecap
gsave
/o {
gsave
newpath
translate
0.5 setlinewidth
1 setlinejoin
0 setlinecap
0 0 m
0 4 l
gsave
0.000 setgray
fill
grestore
stroke
grestore
} bind def
72 43.2 o
grestore
gsave
/o {
gsave
newpath
translate
0.5 setlinewidth
1 setlinejoin
0 setlinecap
0 0 m
0 -4 l
gsave
0.000 setgray
fill
grestore
stroke
grestore
} bind def
72 388.8 o
grestore
/BitstreamVeraSans-Roman findfont
12.000 scalefont
setfont
gsave
68.976562 30.075000 translate
0.000000 rotate
0.000000 0.000000 m /zero glyphshow
grestore
gsave
/o {
gsave
newpath
translate
0.5 setlinewidth
1 setlinejoin
0 setlinecap
0 0 m
0 4 l
gsave
0.000 setgray
fill
grestore
stroke
grestore
} bind def
183.6 43.2 o
grestore
gsave
/o {
gsave
newpath
translate
0.5 setlinewidth
1 setlinejoin
0 setlinecap
0 0 m
0 -4 l
gsave
0.000 setgray
fill
grestore
stroke
grestore
} bind def
183.6 388.8 o
grestore
gsave
172.998437 30.075000 translate
0.000000 rotate
0.000000 0.000000 m /five glyphshow
7.634766 0.000000 m /zero glyphshow
15.269531 0.000000 m /zero glyphshow
grestore
gsave
/o {
gsave
newpath
translate
0.5 setlinewidth
1 setlinejoin
0 setlinecap
0 0 m
0 4 l
gsave
0.000 setgray
fill
grestore
stroke
grestore
} bind def
295.2 43.2 o
grestore
gsave
/o {
gsave
newpath
translate
0.5 setlinewidth
1 setlinejoin
0 setlinecap
0 0 m
0 -4 l
gsave
0.000 setgray
fill
grestore
stroke
grestore
} bind def
295.2 388.8 o
grestore
gsave
280.973437 30.075000 translate
0.000000 rotate
0.000000 0.000000 m /one glyphshow
7.634766 0.000000 m /zero glyphshow
15.269531 0.000000 m /zero glyphshow
22.904297 0.000000 m /zero glyphshow
grestore
gsave
/o {
gsave
newpath
translate
0.5 setlinewidth
1 setlinejoin
0 setlinecap
0 0 m
0 4 l
gsave
0.000 setgray
fill
grestore
stroke
grestore
} bind def
406.8 43.2 o
grestore
gsave
/o {
gsave
newpath
translate
0.5 setlinewidth
1 setlinejoin
0 setlinecap
0 0 m
0 -4 l
gsave
0.000 setgray
fill
grestore
stroke
grestore
} bind def
406.8 388.8 o
grestore
gsave
392.573437 30.075000 translate
0.000000 rotate
0.000000 0.000000 m /one glyphshow
7.634766 0.000000 m /five glyphshow
15.269531 0.000000 m /zero glyphshow
22.904297 0.000000 m /zero glyphshow
grestore
gsave
/o {
gsave
newpath
translate
0.5 setlinewidth
1 setlinejoin
0 setlinecap
0 0 m
0 4 l
gsave
0.000 setgray
fill
grestore
stroke
grestore
} bind def
518.4 43.2 o
grestore
gsave
/o {
gsave
newpath
translate
0.5 setlinewidth
1 setlinejoin
0 setlinecap
0 0 m
0 -4 l
gsave
0.000 setgray
fill
grestore
stroke
grestore
} bind def
518.4 388.8 o
grestore
gsave
503.954687 30.075000 translate
0.000000 rotate
0.000000 0.000000 m /two glyphshow
7.634766 0.000000 m /zero glyphshow
15.269531 0.000000 m /zero glyphshow
22.904297 0.000000 m /zero glyphshow
grestore
gsave
277.317187 13.450000 translate
0.000000 rotate
0.000000 0.000000 m /R glyphshow
7.837891 0.000000 m /o glyphshow
15.179688 0.000000 m /u glyphshow
22.785156 0.000000 m /n glyphshow
30.390625 0.000000 m /d glyphshow
grestore
gsave
/o {
gsave
newpath
translate
0.5 setlinewidth
1 setlinejoin
0 setlinecap
0 0 m
4 0 l
gsave
0.000 setgray
fill
grestore
stroke
grestore
} bind def
72 43.2 o
grestore
gsave
/o {
gsave
newpath
translate
0.5 setlinewidth
1 setlinejoin
0 setlinecap
0 0 m
-4 0 l
gsave
0.000 setgray
fill
grestore
stroke
grestore
} bind def
518.4 43.2 o
grestore
gsave
40.906250 39.887500 translate
0.000000 rotate
0.000000 0.000000 m /minus glyphshow
10.054688 0.000000 m /one glyphshow
17.689453 0.000000 m /period glyphshow
21.503906 0.000000 m /zero glyphshow
grestore
gsave
/o {
gsave
newpath
translate
0.5 setlinewidth
1 setlinejoin
0 setlinecap
0 0 m
4 0 l
gsave
0.000 setgray
fill
grestore
stroke
grestore
} bind def
72 112.32 o
grestore
gsave
/o {
gsave
newpath
translate
0.5 setlinewidth
1 setlinejoin
0 setlinecap
0 0 m
-4 0 l
gsave
0.000 setgray
fill
grestore
stroke
grestore
} bind def
518.4 112.32 o
grestore
gsave
40.937500 109.007500 translate
0.000000 rotate
0.000000 0.000000 m /minus glyphshow
10.054688 0.000000 m /zero glyphshow
17.689453 0.000000 m /period glyphshow
21.503906 0.000000 m /eight glyphshow
grestore
gsave
/o {
gsave
newpath
translate
0.5 setlinewidth
1 setlinejoin
0 setlinecap
0 0 m
4 0 l
gsave
0.000 setgray
fill
grestore
stroke
grestore
} bind def
72 181.44 o
grestore
gsave
/o {
gsave
newpath
translate
0.5 setlinewidth
1 setlinejoin
0 setlinecap
0 0 m
-4 0 l
gsave
0.000 setgray
fill
grestore
stroke
grestore
} bind def
518.4 181.44 o
grestore
gsave
40.875000 178.127500 translate
0.000000 rotate
0.000000 0.000000 m /minus glyphshow
10.054688 0.000000 m /zero glyphshow
17.689453 0.000000 m /period glyphshow
21.503906 0.000000 m /six glyphshow
grestore
gsave
/o {
gsave
newpath
translate
0.5 setlinewidth
1 setlinejoin
0 setlinecap
0 0 m
4 0 l
gsave
0.000 setgray
fill
grestore
stroke
grestore
} bind def
72 250.56 o
grestore
gsave
/o {
gsave
newpath
translate
0.5 setlinewidth
1 setlinejoin
0 setlinecap
0 0 m
-4 0 l
gsave
0.000 setgray
fill
grestore
stroke
grestore
} bind def
518.4 250.56 o
grestore
gsave
40.781250 247.247500 translate
0.000000 rotate
0.000000 0.000000 m /minus glyphshow
10.054688 0.000000 m /zero glyphshow
17.689453 0.000000 m /period glyphshow
21.503906 0.000000 m /four glyphshow
grestore
gsave
/o {
gsave
newpath
translate
0.5 setlinewidth
1 setlinejoin
0 setlinecap
0 0 m
4 0 l
gsave
0.000 setgray
fill
grestore
stroke
grestore
} bind def
72 319.68 o
grestore
gsave
/o {
gsave
newpath
translate
0.5 setlinewidth
1 setlinejoin
0 setlinecap
0 0 m
-4 0 l
gsave
0.000 setgray
fill
grestore
stroke
grestore
} bind def
518.4 319.68 o
grestore
gsave
41.312500 316.367500 translate
0.000000 rotate
0.000000 0.000000 m /minus glyphshow
10.054688 0.000000 m /zero glyphshow
17.689453 0.000000 m /period glyphshow
21.503906 0.000000 m /two glyphshow
grestore
gsave
/o {
gsave
newpath
translate
0.5 setlinewidth
1 setlinejoin
0 setlinecap
0 0 m
4 0 l
gsave
0.000 setgray
fill
grestore
stroke
grestore
} bind def
72 388.8 o
grestore
gsave
/o {
gsave
newpath
translate
0.5 setlinewidth
1 setlinejoin
0 setlinecap
0 0 m
-4 0 l
gsave
0.000 setgray
fill
grestore
stroke
grestore
} bind def
518.4 388.8 o
grestore
gsave
50.500000 385.487500 translate
0.000000 rotate
0.000000 0.000000 m /zero glyphshow
7.634766 0.000000 m /period glyphshow
11.449219 0.000000 m /zero glyphshow
grestore
gsave
33.281250 184.234375 translate
90.000000 rotate
0.000000 0.000000 m /T glyphshow
5.330078 0.000000 m /o glyphshow
12.671875 0.000000 m /t glyphshow
17.376953 0.000000 m /a glyphshow
24.730469 0.000000 m /l glyphshow
28.064453 0.000000 m /space glyphshow
31.878906 0.000000 m /s glyphshow
38.130859 0.000000 m /c glyphshow
44.728516 0.000000 m /o glyphshow
52.070312 0.000000 m /r glyphshow
56.753906 0.000000 m /e glyphshow
grestore
gsave
72.000000 391.800000 translate
0.000000 rotate
0.000000 0.000000 m /one glyphshow
7.634766 0.000000 m /e glyphshow
15.017578 0.000000 m /eight glyphshow
grestore
1.000 setlinewidth
gsave
72 388.8 m
518.4 388.8 l
stroke
grestore
gsave
518.4 43.2 m
518.4 388.8 l
stroke
grestore
gsave
72 43.2 m
518.4 43.2 l
stroke
grestore
gsave
72 43.2 m
72 388.8 l
stroke
grestore
/BitstreamVeraSans-Roman findfont
14.400 scalefont
setfont
gsave
29.746875 409.475000 translate
0.000000 rotate
0.000000 0.000000 m /H glyphshow
10.809326 0.000000 m /o glyphshow
19.604187 0.000000 m /w glyphshow
31.361084 0.000000 m /space glyphshow
35.930481 0.000000 m /t glyphshow
41.566772 0.000000 m /h glyphshow
50.677490 0.000000 m /e glyphshow
59.521484 0.000000 m /space glyphshow
64.090881 0.000000 m /t glyphshow
69.727173 0.000000 m /o glyphshow
78.522034 0.000000 m /t glyphshow
84.158325 0.000000 m /a glyphshow
92.967224 0.000000 m /l glyphshow
96.961060 0.000000 m /space glyphshow
101.530457 0.000000 m /s glyphshow
109.019775 0.000000 m /c glyphshow
116.923218 0.000000 m /o glyphshow
125.718079 0.000000 m /r glyphshow
131.253113 0.000000 m /e glyphshow
140.097107 0.000000 m /space glyphshow
144.666504 0.000000 m /o glyphshow
153.461365 0.000000 m /f glyphshow
158.522095 0.000000 m /space glyphshow
163.091492 0.000000 m /t glyphshow
168.727783 0.000000 m /h glyphshow
177.838501 0.000000 m /e glyphshow
186.682495 0.000000 m /space glyphshow
191.251892 0.000000 m /f glyphshow
196.312622 0.000000 m /l glyphshow
200.306458 0.000000 m /o glyphshow
209.101318 0.000000 m /c glyphshow
217.004761 0.000000 m /k glyphshow
225.329346 0.000000 m /space glyphshow
229.898743 0.000000 m /c glyphshow
237.802185 0.000000 m /h glyphshow
246.912903 0.000000 m /a glyphshow
255.721802 0.000000 m /n glyphshow
264.832520 0.000000 m /g glyphshow
273.957275 0.000000 m /e glyphshow
282.801270 0.000000 m /s glyphshow
290.290588 0.000000 m /space glyphshow
294.859985 0.000000 m /f glyphshow
299.920715 0.000000 m /o glyphshow
308.715576 0.000000 m /r glyphshow
314.625610 0.000000 m /space glyphshow
319.195007 0.000000 m /e glyphshow
328.039001 0.000000 m /a glyphshow
336.847900 0.000000 m /c glyphshow
344.751343 0.000000 m /h glyphshow
353.862061 0.000000 m /space glyphshow
358.431458 0.000000 m /r glyphshow
363.966492 0.000000 m /o glyphshow
372.761353 0.000000 m /u glyphshow
381.872070 0.000000 m /n glyphshow
390.982788 0.000000 m /d glyphshow
400.107544 0.000000 m /space glyphshow
404.676941 0.000000 m /o glyphshow
413.471802 0.000000 m /f glyphshow
418.532532 0.000000 m /space glyphshow
423.101929 0.000000 m /t glyphshow
428.738220 0.000000 m /h glyphshow
437.848938 0.000000 m /e glyphshow
446.692932 0.000000 m /space glyphshow
451.262329 0.000000 m /h glyphshow
460.373047 0.000000 m /i glyphshow
464.366882 0.000000 m /l glyphshow
468.360718 0.000000 m /l glyphshow
472.354553 0.000000 m /space glyphshow
476.923950 0.000000 m /c glyphshow
484.827393 0.000000 m /l glyphshow
488.821228 0.000000 m /i glyphshow
492.815063 0.000000 m /m glyphshow
506.818054 0.000000 m /b glyphshow
515.942810 0.000000 m /e glyphshow
524.786804 0.000000 m /r glyphshow
grestore
gsave
295.200000 393.800000 translate
0.000000 rotate

grestore

end
showpage
