%!PS-Adobe-3.0 EPSF-3.0
%%Title: /home/jake/COPE_total.eps
%%Creator: matplotlib version 1.3.1, http://matplotlib.org/
%%CreationDate: Thu Mar  5 16:48:25 2015
%%Orientation: portrait
%%BoundingBox: 13 175 598 616
%%EndComments
%%BeginProlog
/mpldict 8 dict def
mpldict begin
/m { moveto } bind def
/l { lineto } bind def
/r { rlineto } bind def
/c { curveto } bind def
/cl { closepath } bind def
/box {
m
1 index 0 r
0 exch r
neg 0 r
cl
} bind def
/clipbox {
box
clip
newpath
} bind def
%!PS-Adobe-3.0 Resource-Font
%%Title: DejaVu Sans
%%Copyright: Copyright (c) 2003 by Bitstream, Inc. All Rights Reserved. Copyright (c) 2006 by Tavmjong Bah. All Rights Reserved. DejaVu changes are in public domain 
%%Creator: Converted from TrueType to type 3 by PPR
25 dict begin
/_d{bind def}bind def
/_m{moveto}_d
/_l{lineto}_d
/_cl{closepath eofill}_d
/_c{curveto}_d
/_sc{7 -1 roll{setcachedevice}{pop pop pop pop pop pop}ifelse}_d
/_e{exec}_d
/FontName /DejaVuSans def
/PaintType 0 def
/FontMatrix[.001 0 0 .001 0 0]def
/FontBBox[-1021 -415 1681 1167]def
/FontType 3 def
/Encoding [ /space /zero /one /two /three /four /five /six /H /R /T /a /b /c /d /e /f /g /h /i /k /l /m /n /o /r /s /t /u /w ] def
/FontInfo 10 dict dup begin
/FamilyName (DejaVu Sans) def
/FullName (DejaVu Sans) def
/Notice (Copyright (c) 2003 by Bitstream, Inc. All Rights Reserved. Copyright (c) 2006 by Tavmjong Bah. All Rights Reserved. DejaVu changes are in public domain ) def
/Weight (Book) def
/Version (Version 2.34) def
/ItalicAngle 0.0 def
/isFixedPitch false def
/UnderlinePosition -130 def
/UnderlineThickness 90 def
end readonly def
/CharStrings 30 dict dup begin
/space{318 0 0 0 0 0 _sc
}_d
/zero{636 0 66 -13 570 742 _sc
318 664 _m
267 664 229 639 203 589 _c
177 539 165 464 165 364 _c
165 264 177 189 203 139 _c
229 89 267 64 318 64 _c
369 64 407 89 433 139 _c
458 189 471 264 471 364 _c
471 464 458 539 433 589 _c
407 639 369 664 318 664 _c
318 742 _m
399 742 461 709 505 645 _c
548 580 570 486 570 364 _c
570 241 548 147 505 83 _c
461 19 399 -13 318 -13 _c
236 -13 173 19 130 83 _c
87 147 66 241 66 364 _c
66 486 87 580 130 645 _c
173 709 236 742 318 742 _c
_cl}_d
/one{636 0 110 0 544 729 _sc
124 83 _m
285 83 _l
285 639 _l
110 604 _l
110 694 _l
284 729 _l
383 729 _l
383 83 _l
544 83 _l
544 0 _l
124 0 _l
124 83 _l
_cl}_d
/two{{636 0 73 0 536 742 _sc
192 83 _m
536 83 _l
536 0 _l
73 0 _l
73 83 _l
110 121 161 173 226 239 _c
290 304 331 346 348 365 _c
380 400 402 430 414 455 _c
426 479 433 504 433 528 _c
433 566 419 598 392 622 _c
365 646 330 659 286 659 _c
255 659 222 653 188 643 _c
154 632 117 616 78 594 _c
78 694 _l
118 710 155 722 189 730 _c
223 738 255 742 284 742 _c
}_e{359 742 419 723 464 685 _c
509 647 532 597 532 534 _c
532 504 526 475 515 449 _c
504 422 484 390 454 354 _c
446 344 420 317 376 272 _c
332 227 271 164 192 83 _c
_cl}_e}_d
/three{{636 0 76 -13 556 742 _sc
406 393 _m
453 383 490 362 516 330 _c
542 298 556 258 556 212 _c
556 140 531 84 482 45 _c
432 6 362 -13 271 -13 _c
240 -13 208 -10 176 -4 _c
144 1 110 10 76 22 _c
76 117 _l
103 101 133 89 166 81 _c
198 73 232 69 268 69 _c
330 69 377 81 409 105 _c
441 129 458 165 458 212 _c
458 254 443 288 413 312 _c
383 336 341 349 287 349 _c
}_e{202 349 _l
202 430 _l
291 430 _l
339 430 376 439 402 459 _c
428 478 441 506 441 543 _c
441 580 427 609 401 629 _c
374 649 336 659 287 659 _c
260 659 231 656 200 650 _c
169 644 135 635 98 623 _c
98 711 _l
135 721 170 729 203 734 _c
235 739 266 742 296 742 _c
370 742 429 725 473 691 _c
517 657 539 611 539 553 _c
539 513 527 479 504 451 _c
481 423 448 403 406 393 _c
_cl}_e}_d
/four{636 0 49 0 580 729 _sc
378 643 _m
129 254 _l
378 254 _l
378 643 _l
352 729 _m
476 729 _l
476 254 _l
580 254 _l
580 172 _l
476 172 _l
476 0 _l
378 0 _l
378 172 _l
49 172 _l
49 267 _l
352 729 _l
_cl}_d
/five{{636 0 77 -13 549 729 _sc
108 729 _m
495 729 _l
495 646 _l
198 646 _l
198 467 _l
212 472 227 476 241 478 _c
255 480 270 482 284 482 _c
365 482 429 459 477 415 _c
525 370 549 310 549 234 _c
549 155 524 94 475 51 _c
426 8 357 -13 269 -13 _c
238 -13 207 -10 175 -6 _c
143 -1 111 6 77 17 _c
77 116 _l
106 100 136 88 168 80 _c
199 72 232 69 267 69 _c
}_e{323 69 368 83 401 113 _c
433 143 450 183 450 234 _c
450 284 433 324 401 354 _c
368 384 323 399 267 399 _c
241 399 214 396 188 390 _c
162 384 135 375 108 363 _c
108 729 _l
_cl}_e}_d
/six{{636 0 70 -13 573 742 _sc
330 404 _m
286 404 251 388 225 358 _c
199 328 186 286 186 234 _c
186 181 199 139 225 109 _c
251 79 286 64 330 64 _c
374 64 409 79 435 109 _c
461 139 474 181 474 234 _c
474 286 461 328 435 358 _c
409 388 374 404 330 404 _c
526 713 _m
526 623 _l
501 635 476 644 451 650 _c
425 656 400 659 376 659 _c
310 659 260 637 226 593 _c
}_e{192 549 172 482 168 394 _c
187 422 211 444 240 459 _c
269 474 301 482 336 482 _c
409 482 467 459 509 415 _c
551 371 573 310 573 234 _c
573 159 550 99 506 54 _c
462 9 403 -13 330 -13 _c
246 -13 181 19 137 83 _c
92 147 70 241 70 364 _c
70 479 97 571 152 639 _c
206 707 280 742 372 742 _c
396 742 421 739 447 735 _c
472 730 498 723 526 713 _c
_cl}_e}_d
/H{752 0 98 0 654 729 _sc
98 729 _m
197 729 _l
197 430 _l
555 430 _l
555 729 _l
654 729 _l
654 0 _l
555 0 _l
555 347 _l
197 347 _l
197 0 _l
98 0 _l
98 729 _l
_cl}_d
/R{{695 0 98 0 666 729 _sc
444 342 _m
465 334 486 319 506 296 _c
526 272 546 240 566 199 _c
666 0 _l
560 0 _l
467 187 _l
443 235 419 268 397 284 _c
374 300 343 308 304 308 _c
197 308 _l
197 0 _l
98 0 _l
98 729 _l
321 729 _l
404 729 466 711 507 677 _c
548 642 569 589 569 519 _c
569 473 558 434 537 404 _c
515 374 484 353 444 342 _c
197 648 _m
197 389 _l
321 389 _l
}_e{368 389 404 400 428 422 _c
452 444 465 476 465 519 _c
465 561 452 593 428 615 _c
404 637 368 648 321 648 _c
197 648 _l
_cl}_e}_d
/T{611 0 -2 0 614 729 _sc
-2 729 _m
614 729 _l
614 646 _l
355 646 _l
355 0 _l
256 0 _l
256 646 _l
-2 646 _l
-2 729 _l
_cl}_d
/a{{613 0 60 -13 522 560 _sc
343 275 _m
270 275 220 266 192 250 _c
164 233 150 205 150 165 _c
150 133 160 107 181 89 _c
202 70 231 61 267 61 _c
317 61 357 78 387 114 _c
417 149 432 196 432 255 _c
432 275 _l
343 275 _l
522 312 _m
522 0 _l
432 0 _l
432 83 _l
411 49 385 25 355 10 _c
325 -5 287 -13 243 -13 _c
187 -13 142 2 109 33 _c
76 64 60 106 60 159 _c
}_e{60 220 80 266 122 298 _c
163 329 224 345 306 345 _c
432 345 _l
432 354 _l
432 395 418 427 391 450 _c
364 472 326 484 277 484 _c
245 484 215 480 185 472 _c
155 464 127 453 100 439 _c
100 522 _l
132 534 164 544 195 550 _c
226 556 256 560 286 560 _c
365 560 424 539 463 498 _c
502 457 522 395 522 312 _c
_cl}_e}_d
/b{{635 0 91 -13 580 760 _sc
487 273 _m
487 339 473 390 446 428 _c
418 466 381 485 334 485 _c
286 485 249 466 222 428 _c
194 390 181 339 181 273 _c
181 207 194 155 222 117 _c
249 79 286 61 334 61 _c
381 61 418 79 446 117 _c
473 155 487 207 487 273 _c
181 464 _m
199 496 223 520 252 536 _c
281 552 316 560 356 560 _c
422 560 476 533 518 481 _c
559 428 580 359 580 273 _c
}_e{580 187 559 117 518 65 _c
476 13 422 -13 356 -13 _c
316 -13 281 -5 252 10 _c
223 25 199 49 181 82 _c
181 0 _l
91 0 _l
91 760 _l
181 760 _l
181 464 _l
_cl}_e}_d
/c{{550 0 55 -13 488 560 _sc
488 526 _m
488 442 _l
462 456 437 466 411 473 _c
385 480 360 484 334 484 _c
276 484 230 465 198 428 _c
166 391 150 339 150 273 _c
150 206 166 154 198 117 _c
230 80 276 62 334 62 _c
360 62 385 65 411 72 _c
437 79 462 90 488 104 _c
488 21 _l
462 9 436 0 410 -5 _c
383 -10 354 -13 324 -13 _c
242 -13 176 12 128 64 _c
}_e{79 115 55 185 55 273 _c
55 362 79 432 128 483 _c
177 534 244 560 330 560 _c
358 560 385 557 411 551 _c
437 545 463 537 488 526 _c
_cl}_e}_d
/d{{635 0 55 -13 544 760 _sc
454 464 _m
454 760 _l
544 760 _l
544 0 _l
454 0 _l
454 82 _l
435 49 411 25 382 10 _c
353 -5 319 -13 279 -13 _c
213 -13 159 13 117 65 _c
75 117 55 187 55 273 _c
55 359 75 428 117 481 _c
159 533 213 560 279 560 _c
319 560 353 552 382 536 _c
411 520 435 496 454 464 _c
148 273 _m
148 207 161 155 188 117 _c
215 79 253 61 301 61 _c
}_e{348 61 385 79 413 117 _c
440 155 454 207 454 273 _c
454 339 440 390 413 428 _c
385 466 348 485 301 485 _c
253 485 215 466 188 428 _c
161 390 148 339 148 273 _c
_cl}_e}_d
/e{{615 0 55 -13 562 560 _sc
562 296 _m
562 252 _l
149 252 _l
153 190 171 142 205 110 _c
238 78 284 62 344 62 _c
378 62 412 66 444 74 _c
476 82 509 95 541 113 _c
541 28 _l
509 14 476 3 442 -3 _c
408 -9 373 -13 339 -13 _c
251 -13 182 12 131 62 _c
80 112 55 181 55 268 _c
55 357 79 428 127 481 _c
175 533 241 560 323 560 _c
397 560 455 536 498 489 _c
}_e{540 441 562 377 562 296 _c
472 322 _m
471 371 457 410 431 440 _c
404 469 368 484 324 484 _c
274 484 234 469 204 441 _c
174 413 156 373 152 322 _c
472 322 _l
_cl}_e}_d
/f{352 0 23 0 371 760 _sc
371 760 _m
371 685 _l
285 685 _l
253 685 230 678 218 665 _c
205 652 199 629 199 595 _c
199 547 _l
347 547 _l
347 477 _l
199 477 _l
199 0 _l
109 0 _l
109 477 _l
23 477 _l
23 547 _l
109 547 _l
109 585 _l
109 645 123 690 151 718 _c
179 746 224 760 286 760 _c
371 760 _l
_cl}_d
/g{{635 0 55 -207 544 560 _sc
454 280 _m
454 344 440 395 414 431 _c
387 467 349 485 301 485 _c
253 485 215 467 188 431 _c
161 395 148 344 148 280 _c
148 215 161 165 188 129 _c
215 93 253 75 301 75 _c
349 75 387 93 414 129 _c
440 165 454 215 454 280 _c
544 68 _m
544 -24 523 -93 482 -139 _c
440 -184 377 -207 292 -207 _c
260 -207 231 -204 203 -200 _c
175 -195 147 -188 121 -178 _c
}_e{121 -91 _l
147 -105 173 -115 199 -122 _c
225 -129 251 -133 278 -133 _c
336 -133 380 -117 410 -87 _c
439 -56 454 -10 454 52 _c
454 96 _l
435 64 411 40 382 24 _c
353 8 319 0 279 0 _c
211 0 157 25 116 76 _c
75 127 55 195 55 280 _c
55 364 75 432 116 483 _c
157 534 211 560 279 560 _c
319 560 353 552 382 536 _c
411 520 435 496 454 464 _c
454 547 _l
544 547 _l
}_e{544 68 _l
_cl}_e}_d
/h{634 0 91 0 549 760 _sc
549 330 _m
549 0 _l
459 0 _l
459 327 _l
459 379 448 417 428 443 _c
408 469 378 482 338 482 _c
289 482 251 466 223 435 _c
195 404 181 362 181 309 _c
181 0 _l
91 0 _l
91 760 _l
181 760 _l
181 462 _l
202 494 227 519 257 535 _c
286 551 320 560 358 560 _c
420 560 468 540 500 501 _c
532 462 549 405 549 330 _c
_cl}_d
/i{278 0 94 0 184 760 _sc
94 547 _m
184 547 _l
184 0 _l
94 0 _l
94 547 _l
94 760 _m
184 760 _l
184 646 _l
94 646 _l
94 760 _l
_cl}_d
/k{579 0 91 0 576 760 _sc
91 760 _m
181 760 _l
181 311 _l
449 547 _l
564 547 _l
274 291 _l
576 0 _l
459 0 _l
181 267 _l
181 0 _l
91 0 _l
91 760 _l
_cl}_d
/l{278 0 94 0 184 760 _sc
94 760 _m
184 760 _l
184 0 _l
94 0 _l
94 760 _l
_cl}_d
/m{{974 0 91 0 889 560 _sc
520 442 _m
542 482 569 511 600 531 _c
631 550 668 560 711 560 _c
767 560 811 540 842 500 _c
873 460 889 403 889 330 _c
889 0 _l
799 0 _l
799 327 _l
799 379 789 418 771 444 _c
752 469 724 482 686 482 _c
639 482 602 466 575 435 _c
548 404 535 362 535 309 _c
535 0 _l
445 0 _l
445 327 _l
445 379 435 418 417 444 _c
398 469 369 482 331 482 _c
}_e{285 482 248 466 221 435 _c
194 404 181 362 181 309 _c
181 0 _l
91 0 _l
91 547 _l
181 547 _l
181 462 _l
201 495 226 520 255 536 _c
283 552 317 560 357 560 _c
397 560 430 550 458 530 _c
486 510 506 480 520 442 _c
_cl}_e}_d
/n{634 0 91 0 549 560 _sc
549 330 _m
549 0 _l
459 0 _l
459 327 _l
459 379 448 417 428 443 _c
408 469 378 482 338 482 _c
289 482 251 466 223 435 _c
195 404 181 362 181 309 _c
181 0 _l
91 0 _l
91 547 _l
181 547 _l
181 462 _l
202 494 227 519 257 535 _c
286 551 320 560 358 560 _c
420 560 468 540 500 501 _c
532 462 549 405 549 330 _c
_cl}_d
/o{612 0 55 -13 557 560 _sc
306 484 _m
258 484 220 465 192 427 _c
164 389 150 338 150 273 _c
150 207 163 156 191 118 _c
219 80 257 62 306 62 _c
354 62 392 80 420 118 _c
448 156 462 207 462 273 _c
462 337 448 389 420 427 _c
392 465 354 484 306 484 _c
306 560 _m
384 560 445 534 490 484 _c
534 433 557 363 557 273 _c
557 183 534 113 490 63 _c
445 12 384 -13 306 -13 _c
227 -13 165 12 121 63 _c
77 113 55 183 55 273 _c
55 363 77 433 121 484 _c
165 534 227 560 306 560 _c
_cl}_d
/r{411 0 91 0 411 560 _sc
411 463 _m
401 469 390 473 378 476 _c
366 478 353 480 339 480 _c
288 480 249 463 222 430 _c
194 397 181 350 181 288 _c
181 0 _l
91 0 _l
91 547 _l
181 547 _l
181 462 _l
199 495 224 520 254 536 _c
284 552 321 560 365 560 _c
371 560 378 559 386 559 _c
393 558 401 557 411 555 _c
411 463 _l
_cl}_d
/s{{521 0 54 -13 472 560 _sc
443 531 _m
443 446 _l
417 458 391 468 364 475 _c
336 481 308 485 279 485 _c
234 485 200 478 178 464 _c
156 450 145 430 145 403 _c
145 382 153 366 169 354 _c
185 342 217 330 265 320 _c
296 313 _l
360 299 405 279 432 255 _c
458 230 472 195 472 151 _c
472 100 452 60 412 31 _c
372 1 316 -13 246 -13 _c
216 -13 186 -10 154 -5 _c
}_e{122 0 89 8 54 20 _c
54 113 _l
87 95 120 82 152 74 _c
184 65 216 61 248 61 _c
290 61 323 68 346 82 _c
368 96 380 117 380 144 _c
380 168 371 187 355 200 _c
339 213 303 226 247 238 _c
216 245 _l
160 257 119 275 95 299 _c
70 323 58 356 58 399 _c
58 450 76 490 112 518 _c
148 546 200 560 268 560 _c
301 560 332 557 362 552 _c
391 547 418 540 443 531 _c
}_e{_cl}_e}_d
/t{392 0 27 0 368 702 _sc
183 702 _m
183 547 _l
368 547 _l
368 477 _l
183 477 _l
183 180 _l
183 135 189 106 201 94 _c
213 81 238 75 276 75 _c
368 75 _l
368 0 _l
276 0 _l
206 0 158 13 132 39 _c
106 65 93 112 93 180 _c
93 477 _l
27 477 _l
27 547 _l
93 547 _l
93 702 _l
183 702 _l
_cl}_d
/u{634 0 85 -13 543 560 _sc
85 216 _m
85 547 _l
175 547 _l
175 219 _l
175 167 185 129 205 103 _c
225 77 255 64 296 64 _c
344 64 383 79 411 110 _c
439 141 453 183 453 237 _c
453 547 _l
543 547 _l
543 0 _l
453 0 _l
453 84 _l
431 50 405 26 377 10 _c
348 -5 315 -13 277 -13 _c
214 -13 166 6 134 45 _c
101 83 85 140 85 216 _c
311 560 _m
311 560 _l
_cl}_d
/w{818 0 42 0 776 547 _sc
42 547 _m
132 547 _l
244 120 _l
356 547 _l
462 547 _l
574 120 _l
686 547 _l
776 547 _l
633 0 _l
527 0 _l
409 448 _l
291 0 _l
185 0 _l
42 547 _l
_cl}_d
end readonly def

/BuildGlyph
 {exch begin
 CharStrings exch
 2 copy known not{pop /.notdef}if
 true 3 1 roll get exec
 end}_d

/BuildChar {
 1 index /Encoding get exch get
 1 index /BuildGlyph get exec
}_d

FontName currentdict end definefont pop
end
%%EndProlog
mpldict begin
13.5 175.5 translate
585 441 0 0 clipbox
gsave
0 0 m
585 0 l
585 441 l
0 441 l
cl
1.000 setgray
fill
grestore
gsave
73.125 44.1 m
526.5 44.1 l
526.5 396.9 l
73.125 396.9 l
cl
1.000 setgray
fill
grestore
1.000 setlinewidth
1 setlinejoin
2 setlinecap
[] 0 setdash
0.000 setgray
gsave
453.4 352.8 73.12 44.1 clipbox
73.2761 442 m
73.2761 97.7844 l
73.4273 86.5536 l
73.5784 100.43 l
73.7295 101.548 l
74.1829 132.535 l
74.334 139.591 l
74.6363 110.132 l
74.7874 118.482 l
74.9385 116.659 l
75.0896 113.014 l
75.2408 122.01 l
75.3919 122.716 l
75.543 118.306 l
75.6941 95.55 l
75.8452 111.132 l
76.2986 85.7892 l
76.4497 87.5532 l
76.752 127.243 l
76.9031 124.421 l
77.0542 141.355 l
77.2054 142.296 l
77.3565 134.24 l
77.5076 136.651 l
77.961 90.6108 l
78.1121 95.9028 l
78.2632 95.1384 l
78.4144 91.14 l
78.8678 105.134 l
79.0189 101.959 l
79.17 88.9056 l
79.3211 96.8436 l
79.4723 90.0816 l
79.9256 127.42 l
80.0768 127.361 l
80.2279 133.476 l
80.379 114.719 l
80.5301 111.661 l
80.8324 82.4964 l
80.9835 94.08 l
81.1346 95.4912 l
81.2857 76.0284 l
81.4369 82.2612 l
81.7391 110.603 l
81.8902 111.896 l
82.1925 70.1484 l
82.4947 102.077 l
82.797 150.528 l
82.9481 149.587 l
83.0992 142.943 l
83.2504 172.343 l
83.5526 119.717 l
83.7037 123.598 l
84.006 103.194 l
84.1571 114.425 l
84.3083 135.005 l
84.4594 137.886 l
84.6105 112.249 l
84.9128 100.313 l
85.215 127.302 l
85.3661 120.246 l
85.5173 120.716 l
85.6684 92.7276 l
85.8195 88.8468 l
86.1217 95.1384 l
86.424 152.233 l
86.5751 178.576 l
87.0285 95.7264 l
87.1796 95.55 l
87.3307 91.728 l
87.4819 101.077 l
87.633 94.08 l
87.7841 104.017 l
88.3886 167.58 l
88.5397 170.05 l
88.6909 211.798 l
88.9931 202.566 l
89.1442 222.088 l
89.2954 211.033 l
89.4465 191.747 l
89.5976 210.034 l
89.8999 182.633 l
90.2021 162.758 l
90.5044 193.452 l
90.6555 198.862 l
90.8066 197.98 l
91.1089 192.746 l
91.4111 131.594 l
91.5623 124.068 l
91.7134 125.95 l
91.8645 124.774 l
92.0156 149.058 l
92.3179 164.993 l
92.469 184.162 l
92.7712 168.991 l
93.0735 192.276 l
93.2246 184.044 l
93.3757 163.993 l
93.5269 163.464 l
93.678 131.83 l
93.8291 148.764 l
94.1314 137.592 l
94.2825 169.226 l
94.4336 167.462 l
94.5847 143.825 l
94.7359 153.409 l
95.0381 157.172 l
95.1893 165.522 l
95.3404 134.24 l
95.4915 135.769 l
95.6426 130.536 l
95.9449 157.055 l
96.2471 129.772 l
96.5494 124.715 l
96.7005 141.708 l
96.8516 146.177 l
97.0027 154.703 l
97.305 203.86 l
97.4561 228.026 l
97.7584 165.698 l
97.9095 169.109 l
98.0606 176.576 l
98.514 124.832 l
98.6651 118.541 l
98.9674 159.995 l
99.1185 153.527 l
99.2696 183.868 l
99.4207 155.173 l
99.8741 174.46 l
100.025 175.577 l
100.176 174.048 l
100.479 220.97 l
100.63 217.678 l
100.932 193.746 l
101.083 148.999 l
101.234 146.765 l
101.385 153.644 l
101.536 148.764 l
101.688 151.41 l
101.99 174.342 l
102.141 169.285 l
102.443 187.454 l
102.745 138.886 l
103.048 148.588 l
103.199 144.824 l
103.501 146.824 l
103.652 130.124 l
103.803 140.238 l
104.106 191.688 l
104.257 192.746 l
104.408 205.624 l
104.559 197.392 l
104.71 199.979 l
104.861 222.911 l
105.012 217.148 l
105.163 187.16 l
105.315 187.513 l
105.466 203.213 l
105.617 194.04 l
105.768 201.566 l
105.919 234.612 l
106.07 220.382 l
106.221 189.63 l
106.373 189.63 l
106.675 176.459 l
106.826 172.343 l
106.977 183.28 l
107.128 207.917 l
107.279 204.624 l
107.582 168.58 l
107.733 158.466 l
107.884 159.936 l
108.186 182.633 l
108.337 179.634 l
108.488 179.399 l
108.639 155.82 l
108.79 169.991 l
108.942 205.036 l
109.093 206.976 l
109.395 161.406 l
109.546 123.598 l
109.697 118.776 l
109.848 106.252 l
110.453 148.411 l
110.604 169.52 l
110.906 140.944 l
111.208 160.7 l
111.36 152.998 l
111.511 153.233 l
111.662 173.813 l
111.813 169.697 l
112.115 202.331 l
112.266 203.507 l
112.417 177.635 l
112.569 172.519 l
112.72 190.1 l
112.871 183.809 l
113.022 189.101 l
113.173 199.097 l
113.324 193.158 l
113.475 194.158 l
113.626 181.868 l
113.778 180.104 l
114.08 166.698 l
114.231 167.286 l
114.533 153.703 l
114.684 153.292 l
114.987 179.046 l
115.289 220.912 l
115.44 206.8 l
115.591 242.08 l
115.742 227.262 l
115.893 237.787 l
116.044 214.385 l
116.196 226.321 l
116.347 218.148 l
116.498 222.793 l
116.649 216.619 l
116.8 234.553 l
116.951 233.906 l
117.254 209.328 l
117.556 219.265 l
117.707 208.799 l
117.858 211.739 l
118.16 196.686 l
118.462 227.497 l
118.614 226.556 l
118.765 232.966 l
118.916 265.129 l
119.067 265.07 l
119.218 259.72 l
119.369 272.656 l
119.52 266.717 l
119.671 273.008 l
119.823 250.429 l
119.974 191.923 l
120.125 178.164 l
120.276 183.809 l
120.427 184.279 l
120.729 170.52 l
120.88 198.45 l
121.032 205.624 l
121.636 140.238 l
121.787 148.235 l
121.938 176.165 l
122.089 178.282 l
122.241 156.82 l
122.392 151.469 l
122.543 162.523 l
122.694 163.817 l
122.845 146 l
123.298 163.64 l
123.601 196.098 l
123.752 197.274 l
123.903 186.984 l
124.054 168.58 l
124.205 181.457 l
124.356 166.698 l
124.507 134.652 l
124.659 137.004 l
125.112 183.985 l
125.263 176.929 l
125.414 199.214 l
125.565 199.508 l
125.716 190.806 l
125.868 191.394 l
126.019 198.92 l
126.17 197.862 l
126.472 230.026 l
126.623 227.438 l
126.774 195.569 l
127.379 221.441 l
127.53 230.672 l
127.681 222.558 l
127.832 222.088 l
127.983 185.749 l
128.135 188.983 l
128.286 201.508 l
128.437 202.154 l
128.588 174.401 l
128.739 174.46 l
129.041 213.209 l
129.344 223.675 l
129.797 289.414 l
129.948 290.413 l
130.099 292.589 l
130.25 276.595 l
130.401 272.362 l
130.553 303.996 l
130.855 285.944 l
131.157 234.436 l
131.308 230.496 l
131.61 193.746 l
131.761 190.806 l
131.913 207.976 l
132.064 209.622 l
132.215 234.259 l
132.366 227.791 l
132.517 227.438 l
132.819 193.922 l
132.97 192.629 l
133.122 189.865 l
133.273 213.209 l
133.424 218.912 l
133.575 230.378 l
133.726 228.908 l
133.877 229.79 l
134.028 239.316 l
134.179 220.618 l
134.482 237.846 l
134.935 202.272 l
135.086 221.088 l
135.237 208.916 l
135.388 163.817 l
135.54 169.226 l
135.842 239.257 l
136.144 206.094 l
136.295 222.97 l
136.597 184.279 l
136.9 223.852 l
137.051 220.97 l
137.202 211.033 l
137.353 188.866 l
137.504 187.631 l
137.655 171.931 l
137.806 181.927 l
137.958 159.818 l
138.109 187.219 l
138.26 187.219 l
138.411 187.513 l
138.562 192.452 l
138.713 179.046 l
139.015 205.624 l
139.167 223.616 l
139.318 227.203 l
139.62 203.624 l
139.771 228.026 l
139.922 205.388 l
140.073 200.626 l
140.224 187.572 l
140.376 153.35 l
140.527 168.403 l
140.678 168.109 l
140.98 190.747 l
141.131 191.159 l
141.282 190.1 l
141.433 204.33 l
141.736 171.343 l
141.887 213.268 l
142.189 191.512 l
142.642 234.083 l
142.794 229.908 l
142.945 218.971 l
143.247 230.026 l
143.549 197.803 l
143.7 193.452 l
143.851 194.687 l
144.154 209.563 l
144.305 196.745 l
144.607 215.796 l
145.06 150.234 l
145.212 118.776 l
145.363 128.243 l
145.665 186.396 l
145.816 189.571 l
145.967 178.811 l
146.421 218.324 l
146.572 223.028 l
146.723 250.194 l
147.176 198.391 l
147.63 232.26 l
147.781 232.201 l
147.932 234.2 l
148.083 230.908 l
148.234 222.205 l
148.385 221.441 l
148.536 229.202 l
148.688 217.207 l
148.99 227.144 l
149.141 248.724 l
149.292 244.314 l
149.443 254.486 l
149.897 250.135 l
150.048 265.012 l
150.199 263.483 l
150.35 240.962 l
150.501 249.841 l
150.652 226.145 l
150.803 238.081 l
151.106 269.304 l
151.559 242.491 l
151.71 241.55 l
152.012 213.679 l
152.163 221.147 l
152.315 221.382 l
152.768 264.071 l
152.919 248.842 l
153.221 274.949 l
153.523 254.663 l
153.675 261.131 l
153.977 296.94 l
154.279 266.423 l
154.43 276.419 l
154.581 264.247 l
154.884 224.675 l
155.035 247.607 l
155.186 235.553 l
155.488 254.898 l
155.639 261.425 l
155.79 274.184 l
155.941 308.465 l
156.093 292.824 l
156.244 263.659 l
156.395 279.3 l
156.848 240.845 l
157.302 250.958 l
157.453 233.318 l
157.604 232.966 l
157.755 246.372 l
158.057 247.136 l
158.359 254.428 l
158.662 277.771 l
158.964 268.481 l
159.115 266.834 l
159.266 270.833 l
159.417 267.658 l
159.568 292.471 l
159.72 288.884 l
159.871 227.38 l
160.173 196.157 l
160.324 198.038 l
160.475 223.91 l
160.626 229.967 l
160.929 262.836 l
161.08 233.789 l
161.231 246.372 l
161.533 226.792 l
161.684 228.026 l
162.289 278.3 l
162.44 264.6 l
162.591 279.535 l
162.742 265.6 l
162.893 265.541 l
163.195 275.831 l
163.347 264.012 l
163.498 274.831 l
163.649 277.066 l
163.8 284.651 l
163.951 304.114 l
164.253 292.648 l
164.404 298.528 l
164.707 239.316 l
165.009 301.174 l
165.16 297.646 l
165.462 274.361 l
165.613 266.129 l
165.765 270.715 l
165.916 280.417 l
166.218 264.953 l
166.369 242.256 l
166.52 244.314 l
166.671 260.602 l
166.822 262.836 l
166.974 269.774 l
167.125 258.661 l
167.427 261.131 l
167.578 258.308 l
167.729 277.948 l
167.88 278.183 l
168.031 287.003 l
168.334 280.888 l
168.485 286.944 l
168.636 282.946 l
168.787 293.765 l
168.938 287.708 l
169.089 274.596 l
169.24 274.537 l
169.392 249.547 l
169.543 243.726 l
169.996 260.425 l
170.147 279.829 l
170.298 269.245 l
170.45 250.312 l
170.903 293.941 l
171.054 282.475 l
171.205 290.531 l
171.356 280.77 l
171.507 279.418 l
171.659 257.897 l
171.81 266.776 l
171.961 285.886 l
172.112 277.124 l
172.263 281.005 l
172.716 300.468 l
172.868 288.59 l
173.019 293.353 l
173.17 305.936 l
173.321 296.646 l
173.472 258.838 l
173.623 260.543 l
173.925 250.841 l
174.076 246.196 l
174.228 257.779 l
174.379 257.191 l
174.53 249.018 l
174.832 273.067 l
174.983 270.774 l
175.134 272.068 l
175.437 255.78 l
176.041 293.941 l
176.192 289.531 l
176.646 264.482 l
177.099 328.81 l
177.25 330.926 l
177.401 329.045 l
177.703 343.98 l
177.855 340.864 l
178.61 278.065 l
178.761 279.947 l
178.912 296.117 l
179.064 294.47 l
179.215 297.646 l
179.366 304.114 l
179.517 298.763 l
179.668 312.522 l
179.819 303.232 l
179.97 306.054 l
180.121 297.469 l
180.424 326.987 l
180.575 321.166 l
180.726 324.694 l
181.028 317.05 l
181.179 314.227 l
181.33 305.054 l
181.482 325.34 l
181.633 328.045 l
182.086 286.768 l
182.237 288.061 l
182.539 247.019 l
182.842 262.601 l
182.993 262.483 l
183.144 264.6 l
183.295 255.133 l
183.597 266.423 l
183.748 265.541 l
183.9 257.132 l
184.051 272.185 l
184.202 270.95 l
184.353 273.89 l
184.655 294.882 l
184.806 292.589 l
185.109 297.646 l
185.26 296.058 l
185.411 305.584 l
185.562 303.996 l
185.864 287.65 l
186.015 303.937 l
186.166 303.937 l
186.318 304.525 l
186.62 315.58 l
186.771 306.23 l
187.073 279.359 l
187.224 283.475 l
187.375 279.3 l
187.527 292.53 l
187.678 284.004 l
187.829 246.196 l
187.98 246.431 l
188.131 243.197 l
188.282 245.255 l
188.433 267.834 l
188.584 268.657 l
188.736 273.949 l
188.887 274.302 l
189.038 277.83 l
189.34 299.88 l
189.491 301.409 l
189.793 298.116 l
189.945 293.647 l
190.096 301.938 l
190.247 298.41 l
190.549 318.52 l
190.851 332.102 l
191.002 327.398 l
191.154 326.987 l
191.456 303.408 l
191.607 309.523 l
191.758 307.465 l
191.909 323.988 l
192.06 323.518 l
192.363 310.993 l
192.514 321.636 l
192.665 299.057 l
192.816 299.057 l
193.118 267.716 l
193.269 274.126 l
193.421 270.068 l
193.572 262.189 l
193.723 264.6 l
193.874 271.656 l
194.025 273.361 l
194.176 281.123 l
194.327 297.116 l
194.478 288.355 l
194.781 326.634 l
195.083 280.711 l
195.385 303.584 l
195.536 291.236 l
195.687 291.236 l
195.838 301.526 l
195.99 327.163 l
196.141 323.812 l
196.292 329.456 l
196.443 341.687 l
196.594 327.986 l
196.745 327.163 l
196.896 299.174 l
197.047 308.406 l
197.199 308.288 l
197.35 308.641 l
197.803 290.648 l
197.954 289.414 l
198.105 296.528 l
198.256 288.473 l
198.408 290.237 l
198.71 311.405 l
198.861 288.355 l
199.163 313.992 l
199.314 315.521 l
199.465 307.112 l
199.617 305.936 l
199.768 299.645 l
199.919 282.358 l
200.07 287.473 l
200.221 284.886 l
200.372 313.051 l
200.523 303.114 l
200.826 316.52 l
200.977 299.704 l
201.128 310.758 l
201.279 292.177 l
201.43 308.935 l
201.581 310.993 l
201.732 319.813 l
202.035 311.405 l
202.186 311.581 l
202.337 327.692 l
202.488 325.693 l
202.639 332.808 l
202.79 313.286 l
202.941 326.516 l
203.092 312.522 l
203.244 321.342 l
203.546 311.111 l
203.697 312.581 l
203.999 292.354 l
204.301 302.232 l
204.453 302.585 l
204.604 305.466 l
204.755 288.708 l
204.906 285.944 l
205.057 291.295 l
205.208 289.766 l
205.662 313.169 l
205.813 316.697 l
205.964 315.58 l
206.115 319.166 l
206.266 316.226 l
206.417 309.876 l
206.568 297.822 l
206.719 296.058 l
206.871 311.581 l
207.022 311.758 l
207.173 322.753 l
207.475 302.526 l
207.626 303.878 l
207.777 308.641 l
208.08 332.632 l
208.382 324.282 l
208.533 299.998 l
208.684 302.232 l
208.986 321.871 l
209.137 323.518 l
209.289 320.872 l
209.44 320.225 l
209.591 313.228 l
209.742 297.293 l
209.893 299.645 l
210.044 305.995 l
210.195 304.172 l
210.498 296.999 l
210.649 307.289 l
210.8 306.407 l
210.951 304.702 l
211.102 305.172 l
211.253 293.353 l
211.404 293.059 l
211.555 299.586 l
211.707 293.412 l
212.009 319.166 l
212.16 296.646 l
212.311 292.412 l
212.916 261.425 l
213.52 294.294 l
213.822 264.659 l
214.125 269.01 l
214.276 266.482 l
214.427 273.949 l
214.729 259.19 l
214.88 276.478 l
215.031 278.065 l
215.182 288.296 l
215.334 285.709 l
215.485 265.188 l
215.636 263.953 l
215.787 265.952 l
215.938 263.718 l
216.24 282.475 l
216.391 283.063 l
216.543 277.889 l
216.694 291.472 l
216.845 270.245 l
216.996 288.296 l
217.147 273.008 l
217.298 284.239 l
217.449 275.36 l
217.6 289.649 l
217.752 280.594 l
217.903 296.117 l
218.054 293.059 l
218.205 282.358 l
218.356 283.004 l
218.658 298.88 l
218.809 301.82 l
218.961 298.822 l
219.112 303.643 l
219.263 312.64 l
219.414 308.935 l
219.565 301.526 l
219.716 305.525 l
219.867 302.467 l
220.018 306.054 l
220.321 298.763 l
220.472 298.704 l
220.623 313.757 l
220.774 299.468 l
220.925 298.88 l
221.076 311.287 l
221.227 304.231 l
221.379 302.879 l
221.53 311.581 l
221.681 313.58 l
221.832 317.344 l
221.983 314.345 l
222.134 315.58 l
222.285 315.344 l
222.436 317.873 l
222.588 323.87 l
222.739 319.284 l
222.89 298.057 l
223.041 298.998 l
223.494 319.108 l
223.645 308.347 l
223.948 332.102 l
224.25 309.7 l
224.401 311.993 l
224.552 308.582 l
224.703 292.412 l
224.854 304.172 l
225.006 301.997 l
225.308 292.883 l
225.459 296.94 l
225.61 307.642 l
225.761 298.704 l
225.912 299.645 l
226.063 297.469 l
226.215 307.7 l
226.366 302.82 l
226.517 282.652 l
226.819 294.823 l
227.121 283.298 l
227.272 280.358 l
227.424 281.123 l
227.575 290.942 l
227.726 289.061 l
227.877 279.653 l
228.028 298.939 l
228.33 281.828 l
228.481 278.418 l
228.633 286.062 l
228.784 262.366 l
228.935 259.778 l
229.237 288.355 l
229.388 268.246 l
229.539 267.834 l
229.69 278.183 l
229.842 278.242 l
229.993 287.297 l
230.144 288.002 l
230.295 282.71 l
230.446 301.644 l
230.597 298.528 l
230.899 285.004 l
231.353 290.825 l
231.504 299.704 l
231.655 295.176 l
231.806 300.997 l
231.957 294.118 l
232.108 296.705 l
232.26 309.406 l
232.411 297.352 l
232.562 300.644 l
232.713 291.295 l
232.864 295.47 l
233.015 295.294 l
233.166 303.232 l
233.317 292.06 l
233.469 295.646 l
233.62 307.583 l
233.771 288.238 l
233.922 288.532 l
234.224 291.53 l
234.375 285.298 l
234.526 301.644 l
234.678 303.82 l
235.131 284.71 l
235.433 299.586 l
235.735 275.36 l
236.038 305.878 l
236.491 275.596 l
236.642 276.536 l
237.247 304.231 l
237.549 309.112 l
237.7 317.755 l
237.851 310.405 l
238.153 312.875 l
238.305 303.937 l
238.456 312.169 l
238.607 313.933 l
238.758 302.702 l
238.909 311.228 l
239.06 294 l
239.211 292.53 l
239.362 295.588 l
239.514 304.231 l
239.665 303.173 l
239.816 304.525 l
239.967 300.938 l
240.118 317.696 l
240.269 314.168 l
240.42 303.114 l
240.571 307.583 l
240.723 303.055 l
240.874 305.584 l
241.025 297.528 l
241.176 298.704 l
241.478 290.472 l
241.78 306.936 l
241.932 308.406 l
242.234 316.579 l
242.687 293.294 l
242.838 304.408 l
242.989 306.936 l
243.141 298.939 l
243.292 304.408 l
243.443 303.937 l
243.594 301.703 l
243.745 306.113 l
243.896 304.878 l
244.047 295.352 l
244.35 304.408 l
244.501 301.115 l
244.652 313.816 l
244.803 307.994 l
244.954 311.934 l
245.105 309.17 l
245.256 315.168 l
245.559 303.643 l
245.861 319.519 l
246.012 305.231 l
246.163 309.053 l
246.314 316.814 l
246.616 304.114 l
246.919 311.228 l
247.07 307.348 l
247.372 313.051 l
247.523 299.704 l
247.674 305.172 l
247.825 318.578 l
247.977 309.994 l
248.128 315.58 l
248.279 329.28 l
248.581 313.522 l
248.732 322.342 l
248.883 313.345 l
249.034 319.343 l
249.186 320.284 l
249.337 318.049 l
249.79 304.349 l
249.941 315.756 l
250.092 301.35 l
250.243 313.992 l
250.546 305.584 l
250.697 315.109 l
251.301 302.938 l
251.452 295.764 l
251.604 305.231 l
251.755 302.879 l
252.057 317.638 l
252.208 318.931 l
252.51 311.052 l
252.661 310.288 l
252.813 312.228 l
252.964 291.53 l
253.115 297.528 l
253.266 290.942 l
253.417 301.644 l
253.568 284.651 l
253.719 282.181 l
253.87 296.293 l
254.022 297.175 l
254.173 305.525 l
254.324 296.587 l
254.475 299.292 l
254.626 298.057 l
254.777 299.88 l
254.928 303.114 l
255.231 298.586 l
255.382 310.934 l
256.137 279.418 l
256.288 295.764 l
256.44 295.823 l
256.742 287.65 l
256.893 285.768 l
257.044 296.234 l
257.195 289.178 l
257.346 303.467 l
257.497 304.055 l
257.8 299.821 l
257.951 302.232 l
258.102 320.989 l
258.707 300.35 l
258.858 311.464 l
259.009 310.111 l
259.16 323.106 l
259.462 305.642 l
259.613 318.578 l
259.764 302.585 l
259.915 309.406 l
260.067 302.408 l
260.369 315.286 l
260.671 300.233 l
260.822 308.876 l
260.973 309.347 l
261.125 308.582 l
261.276 314.933 l
261.427 298.586 l
261.578 302.879 l
261.88 322.636 l
262.182 314.11 l
262.636 299.41 l
262.787 307.7 l
262.938 294 l
263.089 303.349 l
263.24 304.349 l
263.391 306.407 l
263.543 301.585 l
263.694 311.346 l
263.845 300.938 l
264.147 298.586 l
264.449 313.286 l
264.6 302.761 l
264.903 318.343 l
265.054 312.169 l
265.205 301.115 l
265.356 303.055 l
265.507 301.115 l
265.658 302.173 l
265.809 295.588 l
265.96 309.347 l
266.263 315.403 l
266.414 313.757 l
266.565 317.579 l
266.716 310.758 l
266.867 317.696 l
267.018 301.703 l
267.169 308.465 l
267.321 302.056 l
267.472 289.355 l
267.623 293.647 l
267.925 319.108 l
268.076 305.878 l
268.227 317.579 l
268.378 316.285 l
268.53 309.7 l
268.681 309.288 l
268.832 310.64 l
268.983 307.583 l
269.134 310.758 l
269.285 322.342 l
269.436 311.64 l
269.739 317.05 l
269.89 316.344 l
270.041 316.579 l
270.192 316.285 l
270.343 318.99 l
270.645 315.168 l
270.796 321.342 l
270.948 319.225 l
271.25 327.222 l
271.401 328.633 l
271.552 320.754 l
271.703 320.578 l
271.854 320.754 l
272.005 323.165 l
272.157 320.989 l
272.308 307.054 l
272.459 313.816 l
272.61 313.58 l
272.912 322.871 l
273.063 322.577 l
273.214 321.224 l
273.517 316.579 l
273.668 318.814 l
273.819 310.464 l
273.97 313.404 l
274.121 320.342 l
274.423 305.642 l
274.726 323.929 l
274.877 322.636 l
275.028 315.58 l
275.179 324.458 l
275.33 322.577 l
275.481 314.227 l
275.632 313.051 l
275.784 313.286 l
275.935 321.107 l
276.086 318.108 l
276.237 334.631 l
276.388 326.693 l
276.539 328.104 l
276.69 319.284 l
276.841 318.226 l
277.295 303.584 l
277.446 313.874 l
277.597 303.173 l
278.05 318.343 l
278.202 311.934 l
278.353 318.226 l
278.504 312.346 l
278.655 323.929 l
278.806 324.635 l
279.108 317.755 l
279.26 330.985 l
279.411 309.053 l
279.562 308.994 l
279.713 307.994 l
279.864 316.226 l
280.015 301.409 l
280.317 307.406 l
280.468 302.408 l
280.62 316.638 l
280.771 309.582 l
280.922 307.994 l
281.073 304.349 l
281.224 313.933 l
281.375 314.345 l
281.678 303.996 l
281.829 309.229 l
282.131 307.818 l
282.282 321.46 l
282.433 321.401 l
282.584 321.636 l
282.886 302.585 l
283.038 319.519 l
283.189 315.874 l
283.34 317.932 l
283.491 308.759 l
283.793 325.164 l
284.096 315.697 l
284.398 321.107 l
284.549 307.7 l
284.851 316.226 l
285.002 312.757 l
285.153 295.235 l
285.304 310.111 l
285.456 303.114 l
285.607 306.289 l
285.758 300.527 l
285.909 307.936 l
286.06 302.35 l
286.211 304.408 l
286.362 304.466 l
286.513 296.822 l
286.816 308.876 l
287.118 300.409 l
287.269 284.651 l
287.42 290.119 l
287.571 290.06 l
287.722 291.766 l
287.874 297.998 l
288.025 296.293 l
288.327 313.874 l
288.629 308.171 l
288.78 300.174 l
288.931 307.112 l
289.083 308.053 l
289.234 297.234 l
289.385 296.528 l
289.536 304.584 l
289.838 297.94 l
289.989 286.238 l
290.292 312.934 l
290.443 317.696 l
290.594 303.937 l
290.745 305.29 l
290.896 298.234 l
291.047 311.111 l
291.501 297.234 l
291.652 305.642 l
291.803 296.234 l
292.105 315.815 l
292.407 307.23 l
292.558 317.814 l
292.861 300.586 l
293.012 301.585 l
293.163 299.174 l
293.314 299.41 l
293.465 316.638 l
293.616 304.114 l
293.767 303.055 l
293.919 303.349 l
294.07 296.352 l
294.221 281.064 l
294.372 289.414 l
294.523 279.829 l
294.674 305.878 l
294.825 306.466 l
294.976 301.526 l
295.128 312.463 l
295.279 306.701 l
295.43 295.705 l
295.581 303.408 l
295.883 290.296 l
296.034 298.586 l
296.185 294.059 l
296.337 303.643 l
296.488 299.057 l
296.639 301.291 l
296.941 295.176 l
297.092 300.233 l
297.243 294.294 l
297.394 304.29 l
297.546 291.472 l
297.697 301.468 l
297.848 297.41 l
297.999 298.057 l
298.15 293.118 l
298.301 293.706 l
298.452 299.174 l
298.603 298.057 l
298.755 293.118 l
298.906 294.47 l
299.057 304.408 l
299.208 298.645 l
299.359 310.464 l
299.51 310.523 l
299.661 312.346 l
299.812 308.23 l
299.964 312.404 l
300.115 312.463 l
300.417 296.293 l
300.568 281.593 l
300.719 295.646 l
300.87 285.004 l
301.021 298.175 l
301.173 285.298 l
301.324 301.644 l
301.475 299.704 l
301.626 293.118 l
301.777 294.764 l
301.928 290.531 l
302.079 308.641 l
302.231 310.993 l
302.382 295.411 l
302.684 289.237 l
302.986 278.947 l
303.137 279.829 l
303.288 276.83 l
303.439 276.889 l
303.742 287.767 l
303.893 273.42 l
304.044 279.182 l
304.195 279.124 l
304.346 282.946 l
304.497 280.594 l
304.649 283.945 l
304.8 291.53 l
305.102 294.059 l
305.253 300.88 l
305.404 289.708 l
305.555 300.644 l
305.706 295.529 l
306.009 300.88 l
306.16 300.762 l
306.311 303.467 l
306.613 285.709 l
306.764 295.117 l
306.915 287.414 l
307.066 286.415 l
307.218 290.413 l
307.369 290.413 l
307.52 294.588 l
307.671 294.118 l
307.822 285.18 l
308.124 302.938 l
308.275 290.766 l
308.427 290.354 l
308.578 271.127 l
308.729 267.07 l
308.88 283.651 l
309.031 283.592 l
309.182 298.645 l
309.333 290.06 l
309.484 288.59 l
309.636 279.418 l
309.787 290.354 l
309.938 281.005 l
310.391 295.176 l
310.542 276.889 l
310.845 297.528 l
311.147 283.475 l
311.298 284.122 l
311.449 293.294 l
311.6 294.294 l
311.751 277.654 l
312.054 292.177 l
312.205 303.643 l
312.356 289.708 l
312.507 289.178 l
312.658 290.178 l
312.809 289.766 l
312.96 281.593 l
313.263 299.88 l
313.565 289.414 l
313.867 265.6 l
314.018 273.655 l
314.169 263.071 l
314.32 268.657 l
314.472 284.004 l
314.623 267.364 l
314.774 265.306 l
314.925 267.54 l
315.076 254.192 l
315.227 268.187 l
315.681 274.537 l
315.832 279.476 l
316.134 260.719 l
316.285 256.368 l
316.436 260.719 l
316.587 252.076 l
316.738 270.598 l
316.89 265.717 l
317.041 271.715 l
317.192 263.6 l
317.343 267.07 l
317.494 275.831 l
317.796 265.835 l
318.401 286.885 l
318.552 286.121 l
318.703 287.591 l
318.854 285.474 l
319.308 269.539 l
319.459 268.951 l
319.761 255.604 l
319.912 267.599 l
320.063 252.134 l
320.214 254.075 l
320.365 240.668 l
320.517 259.661 l
320.668 263.659 l
320.97 279.124 l
321.272 263.894 l
321.423 261.719 l
321.574 273.89 l
321.877 264.188 l
322.028 270.186 l
322.179 263.777 l
322.33 264.953 l
322.481 267.893 l
322.784 278.653 l
322.935 273.361 l
323.086 278.418 l
323.237 266.599 l
323.539 275.243 l
323.69 271.832 l
323.841 275.948 l
323.992 273.832 l
324.144 279.182 l
324.295 292.177 l
324.446 285.356 l
324.748 298.116 l
324.899 293.53 l
325.05 293.941 l
325.202 290.119 l
325.353 278.242 l
325.504 286.826 l
325.655 271.597 l
325.806 275.125 l
325.957 286.415 l
326.108 285.239 l
326.259 288.238 l
326.562 281.711 l
326.713 283.004 l
326.864 275.831 l
327.015 274.126 l
327.166 270.774 l
327.317 254.486 l
327.468 250.606 l
327.771 257.309 l
327.922 252.664 l
328.073 261.484 l
328.224 262.895 l
328.375 268.598 l
328.526 261.19 l
328.677 273.244 l
328.98 274.537 l
329.131 280.3 l
329.282 291.707 l
329.433 287.473 l
329.584 274.655 l
329.735 288.414 l
329.886 287.885 l
330.037 296.234 l
330.34 276.36 l
330.491 284.71 l
330.793 274.89 l
330.944 294.118 l
331.095 284.122 l
331.246 284.592 l
331.398 280.829 l
331.549 291.413 l
331.851 279.124 l
332.002 281.299 l
332.153 277.007 l
332.304 279.241 l
332.455 274.302 l
332.758 285.886 l
332.909 277.771 l
333.06 286.356 l
333.362 281.534 l
333.513 284.768 l
333.664 271.127 l
333.816 267.599 l
333.967 259.543 l
334.118 272.714 l
334.42 265.129 l
334.722 277.536 l
334.873 291.942 l
335.025 295.294 l
335.176 288.649 l
335.327 271.891 l
335.478 270.068 l
335.629 270.245 l
335.78 267.599 l
336.082 275.066 l
336.234 273.714 l
336.385 276.478 l
336.536 270.245 l
336.687 273.832 l
336.838 272.656 l
336.989 278.653 l
337.14 278.771 l
337.291 270.95 l
337.443 272.891 l
337.745 289.414 l
337.896 291.589 l
338.047 297.058 l
338.198 290.178 l
338.349 300.115 l
338.652 291.824 l
338.803 269.833 l
338.954 279.947 l
339.256 259.132 l
339.407 266.246 l
339.558 262.542 l
339.709 263.248 l
340.012 279.829 l
340.163 277.124 l
340.314 282.887 l
340.465 277.654 l
340.616 260.249 l
340.918 274.42 l
341.07 269.01 l
341.221 273.244 l
341.372 265.306 l
341.523 276.242 l
341.674 268.716 l
341.976 284.416 l
342.127 285.121 l
342.279 280.594 l
342.43 285.356 l
342.581 294.353 l
342.732 292.236 l
342.883 294.47 l
343.034 300.762 l
343.185 290.119 l
343.488 302.938 l
343.639 285.592 l
343.79 290.766 l
344.092 286.474 l
344.243 302.173 l
344.394 299.233 l
344.545 313.757 l
344.697 293.706 l
344.848 292.471 l
344.999 289.884 l
345.15 301.409 l
345.452 287.356 l
345.603 287.532 l
345.754 305.76 l
345.906 301.174 l
346.057 292.118 l
346.208 275.537 l
346.359 281.182 l
346.51 280.888 l
346.661 284.18 l
346.812 300.527 l
347.115 289.061 l
347.266 291.001 l
347.417 291.354 l
347.568 294.294 l
347.719 280.829 l
347.87 288.414 l
348.021 284.357 l
348.324 307.465 l
348.626 308.759 l
348.777 300.056 l
348.928 301.585 l
349.23 310.758 l
349.381 312.287 l
349.533 310.523 l
349.684 314.051 l
349.835 312.404 l
349.986 309.288 l
350.137 312.816 l
350.288 312.463 l
350.439 309.17 l
350.59 311.052 l
350.742 294.882 l
350.893 297.058 l
351.044 317.932 l
351.195 299.704 l
351.346 316.579 l
351.497 311.816 l
351.799 314.404 l
351.951 319.872 l
352.102 319.108 l
352.253 319.696 l
352.404 318.814 l
352.555 321.577 l
352.706 327.986 l
352.857 320.813 l
353.008 327.986 l
353.16 328.751 l
353.311 307.877 l
353.462 310.464 l
353.613 308.7 l
353.764 324.047 l
353.915 317.344 l
354.066 317.108 l
354.217 317.402 l
354.369 326.399 l
354.822 287.767 l
354.973 310.64 l
355.124 293.588 l
355.578 317.579 l
355.729 306.407 l
356.031 319.049 l
356.182 323.988 l
356.333 320.872 l
356.484 329.28 l
356.787 323.224 l
356.938 324.517 l
357.089 329.28 l
357.24 338.982 l
357.391 327.34 l
357.542 325.693 l
357.693 327.281 l
357.844 327.163 l
357.996 324.164 l
358.298 340.687 l
358.449 335.689 l
358.6 341.04 l
358.902 332.926 l
359.053 314.345 l
359.356 323.694 l
359.507 322.636 l
359.658 326.752 l
359.96 342.804 l
360.262 325.046 l
360.414 327.986 l
360.565 334.748 l
360.716 333.514 l
361.018 328.692 l
361.169 338.57 l
361.32 331.22 l
361.471 339.511 l
361.623 322.694 l
361.774 322.165 l
361.925 331.985 l
362.076 328.339 l
362.227 331.103 l
362.378 320.578 l
362.529 336.395 l
362.68 329.104 l
362.832 333.043 l
362.983 330.28 l
363.134 334.454 l
363.285 334.278 l
363.436 328.927 l
363.587 336.924 l
363.738 335.042 l
363.889 327.163 l
364.041 338.041 l
364.192 338.218 l
364.343 330.926 l
364.494 315.227 l
364.645 327.34 l
364.796 323.929 l
364.947 339.864 l
365.098 335.807 l
365.401 315.521 l
365.552 325.105 l
365.703 322.636 l
365.854 322.283 l
366.005 329.809 l
366.156 327.869 l
366.307 331.808 l
366.459 342.392 l
366.761 317.755 l
366.912 319.637 l
367.063 326.281 l
367.214 325.987 l
367.516 336.16 l
367.819 321.46 l
367.97 334.278 l
368.121 337.277 l
368.272 331.632 l
368.423 332.338 l
368.574 328.868 l
368.725 331.338 l
368.877 331.338 l
369.028 331.985 l
369.179 342.686 l
369.481 336.63 l
369.632 317.932 l
369.783 326.752 l
369.934 325.928 l
370.086 314.756 l
370.237 313.404 l
370.539 325.458 l
370.69 323.929 l
370.841 327.692 l
370.992 324.929 l
371.143 325.576 l
371.446 321.224 l
371.597 334.16 l
371.748 332.044 l
372.05 337.277 l
372.201 335.924 l
372.504 324.341 l
372.655 312.346 l
372.806 314.933 l
372.957 323.929 l
373.108 324.811 l
373.41 315.344 l
373.561 315.462 l
373.864 326.869 l
374.015 322.283 l
374.468 340.217 l
374.619 336.571 l
374.77 327.046 l
374.922 327.81 l
375.073 324.223 l
375.224 314.404 l
375.375 327.869 l
375.526 330.103 l
375.677 325.987 l
375.828 334.925 l
376.131 324.811 l
376.282 331.456 l
376.584 322.812 l
376.886 318.049 l
377.037 320.342 l
377.34 337.394 l
377.491 332.338 l
377.642 339.746 l
377.793 337.982 l
378.095 326.164 l
378.246 324.635 l
378.397 327.104 l
378.549 331.632 l
378.7 331.22 l
379.002 340.393 l
379.153 324.223 l
379.304 333.22 l
379.455 333.102 l
379.606 327.457 l
379.909 336.16 l
380.211 322.753 l
380.362 327.281 l
380.513 317.755 l
380.664 335.16 l
380.815 338.629 l
380.967 319.754 l
381.118 328.574 l
381.269 323.694 l
381.42 322.812 l
381.722 316.873 l
381.873 328.163 l
382.176 321.695 l
382.327 333.396 l
382.478 324.517 l
382.78 337.571 l
382.931 330.691 l
383.233 330.103 l
383.385 334.513 l
383.536 334.925 l
383.838 318.755 l
383.989 331.808 l
384.14 327.928 l
384.442 337.806 l
384.594 325.164 l
384.745 332.69 l
384.896 323.106 l
385.198 331.808 l
385.349 326.516 l
385.5 317.108 l
385.803 331.279 l
385.954 325.811 l
386.105 333.69 l
386.407 324.811 l
386.558 331.279 l
386.709 328.163 l
386.86 337.747 l
387.163 327.928 l
387.314 328.339 l
387.465 321.401 l
387.616 322.636 l
387.767 318.578 l
387.918 318.461 l
388.069 325.87 l
388.221 326.516 l
388.372 319.813 l
388.523 323.753 l
388.674 334.16 l
388.825 327.457 l
388.976 327.104 l
389.127 329.986 l
389.278 322.342 l
389.43 335.63 l
389.732 323.576 l
389.883 322.459 l
390.034 330.926 l
390.185 329.692 l
390.336 336.512 l
390.487 324.929 l
390.639 324.87 l
390.79 314.227 l
391.092 329.515 l
391.243 314.639 l
391.394 323.4 l
391.545 314.345 l
391.696 320.695 l
391.848 305.29 l
391.999 312.64 l
392.15 310.111 l
392.301 309.582 l
392.452 318.52 l
392.603 308.582 l
392.754 319.225 l
392.905 314.286 l
393.057 314.462 l
393.51 339.335 l
393.812 318.696 l
393.963 326.987 l
394.266 316.697 l
394.417 320.46 l
394.719 312.698 l
394.87 324.282 l
395.021 323.576 l
395.172 321.166 l
395.475 326.752 l
395.777 331.926 l
396.23 319.99 l
396.381 328.692 l
396.532 315.991 l
396.684 328.751 l
396.835 325.164 l
397.137 335.748 l
397.59 319.872 l
397.893 333.278 l
398.044 333.278 l
398.195 331.514 l
398.346 325.87 l
398.497 324.4 l
398.648 320.342 l
398.799 320.754 l
399.253 334.748 l
399.404 325.164 l
399.555 328.222 l
399.706 320.107 l
399.857 324.752 l
400.008 324.694 l
400.311 341.275 l
400.462 341.334 l
400.764 335.866 l
400.915 336.101 l
401.368 320.342 l
401.52 327.457 l
401.671 326.164 l
401.822 329.75 l
401.973 326.046 l
402.124 327.046 l
402.426 334.69 l
402.577 330.103 l
402.88 336.454 l
403.031 324.752 l
403.182 323.518 l
403.333 333.631 l
403.484 332.69 l
403.635 339.041 l
403.786 326.281 l
403.938 332.338 l
404.089 322.4 l
404.24 322.753 l
404.542 337.688 l
404.693 322.518 l
405.147 344.803 l
405.298 339.452 l
405.449 343.216 l
405.751 322.988 l
405.902 333.808 l
406.053 335.63 l
406.356 326.516 l
406.507 331.456 l
406.658 330.574 l
406.809 326.399 l
406.96 339.746 l
407.111 331.103 l
407.262 339.452 l
407.565 326.693 l
407.716 335.513 l
407.867 329.868 l
408.169 345.45 l
408.32 347.861 l
408.622 332.573 l
408.774 337.806 l
408.925 338.629 l
409.076 324.87 l
409.378 333.925 l
409.529 329.221 l
409.831 333.866 l
409.983 331.75 l
410.134 345.45 l
410.285 348.86 l
410.587 342.98 l
410.738 343.392 l
410.889 337.159 l
411.04 346.861 l
411.192 347.096 l
411.343 343.392 l
411.494 344.333 l
411.796 331.867 l
411.947 347.508 l
412.098 344.45 l
412.249 337.336 l
412.401 337.453 l
412.552 334.572 l
412.703 334.396 l
412.854 328.633 l
413.005 334.16 l
413.156 349.507 l
413.307 338.57 l
413.61 345.274 l
413.761 338.1 l
413.912 337.865 l
414.063 345.509 l
414.365 340.04 l
414.516 341.334 l
414.667 351.154 l
414.819 345.45 l
414.97 353.447 l
415.423 323.282 l
415.574 334.984 l
415.725 337.159 l
415.876 336.336 l
416.028 331.573 l
416.179 337.512 l
416.33 335.924 l
416.481 326.928 l
416.632 330.926 l
416.783 341.452 l
416.934 344.039 l
417.085 344.686 l
417.237 347.92 l
417.539 334.278 l
417.69 335.689 l
417.841 334.396 l
417.992 336.571 l
418.294 328.222 l
418.446 328.398 l
418.748 314.462 l
419.05 332.396 l
419.352 320.225 l
419.503 324.282 l
419.655 316.638 l
419.957 330.574 l
420.108 329.28 l
420.259 329.398 l
420.41 320.048 l
420.864 335.454 l
421.015 330.397 l
421.166 331.22 l
421.317 331.338 l
421.468 324.929 l
421.619 333.925 l
421.77 333.69 l
421.921 324.106 l
422.073 323.459 l
422.224 326.105 l
422.375 323.518 l
422.828 344.803 l
422.979 344.686 l
423.13 338.041 l
423.282 340.334 l
423.433 329.633 l
423.584 336.454 l
423.735 331.514 l
424.037 346.391 l
424.339 324.047 l
424.642 345.92 l
424.793 344.509 l
425.095 348.331 l
425.548 334.572 l
425.851 327.34 l
426.002 326.34 l
426.304 340.805 l
426.455 337.806 l
426.606 348.449 l
426.757 326.634 l
426.909 329.339 l
427.06 327.575 l
427.211 336.806 l
427.362 328.868 l
427.513 342.51 l
427.664 332.514 l
427.815 332.632 l
427.966 332.22 l
428.118 339.158 l
428.269 331.397 l
428.42 333.631 l
428.571 340.099 l
428.722 332.102 l
428.873 342.628 l
429.175 346.156 l
429.327 343.921 l
429.78 351.212 l
429.931 345.215 l
430.233 341.687 l
430.384 350.801 l
430.687 341.393 l
430.838 351.624 l
430.989 346.744 l
431.14 359.856 l
431.442 340.217 l
431.593 348.625 l
431.745 350.036 l
431.896 357.445 l
432.047 346.45 l
432.349 352.447 l
432.5 347.449 l
432.651 346.45 l
432.802 353.329 l
433.105 343.686 l
433.256 322.4 l
433.407 337.63 l
433.558 340.099 l
433.709 345.156 l
433.86 345.626 l
434.011 355.505 l
434.163 347.508 l
434.314 349.566 l
434.465 348.743 l
434.616 349.978 l
434.767 350.095 l
434.918 349.507 l
435.069 352.918 l
435.22 344.039 l
435.372 348.037 l
435.674 344.392 l
435.825 359.444 l
435.976 358.21 l
436.127 346.626 l
436.278 344.274 l
436.429 344.392 l
436.581 343.098 l
436.732 345.979 l
436.883 343.862 l
437.034 353.27 l
437.185 346.214 l
437.336 348.86 l
437.487 345.391 l
437.638 348.978 l
437.79 341.099 l
437.941 347.978 l
438.243 342.275 l
438.394 346.802 l
438.545 346.508 l
438.696 342.451 l
438.999 351.33 l
439.15 354.682 l
439.603 335.042 l
439.905 347.626 l
440.056 340.864 l
440.208 353.976 l
440.359 352.271 l
440.51 335.924 l
440.661 336.806 l
440.812 348.331 l
441.114 349.096 l
441.568 331.691 l
441.87 352.624 l
442.021 343.451 l
442.172 349.39 l
442.323 340.805 l
442.474 345.685 l
442.777 337.336 l
442.928 338.041 l
443.079 343.51 l
443.23 343.98 l
443.381 346.097 l
443.532 340.334 l
443.683 338.864 l
443.835 347.567 l
443.986 345.156 l
444.137 351.8 l
444.439 349.448 l
444.741 331.926 l
444.892 335.042 l
445.044 340.628 l
445.346 328.986 l
445.497 335.513 l
445.648 329.75 l
445.799 331.926 l
445.95 325.752 l
446.101 329.515 l
446.253 342.863 l
446.404 328.574 l
446.555 328.163 l
446.706 338.57 l
447.008 333.455 l
447.31 342.451 l
447.915 322.106 l
448.066 329.104 l
448.217 330.574 l
448.368 338.1 l
448.671 321.754 l
448.822 320.284 l
448.973 332.867 l
449.275 340.276 l
449.577 329.75 l
449.728 342.98 l
450.031 336.336 l
450.182 335.866 l
450.333 330.809 l
450.484 333.925 l
450.635 342.04 l
450.786 340.922 l
451.089 327.751 l
451.24 334.572 l
451.391 323.518 l
451.542 335.101 l
451.693 327.81 l
451.844 334.631 l
451.995 325.928 l
452.298 337.982 l
452.449 325.399 l
452.6 331.926 l
452.751 333.102 l
452.902 321.93 l
453.053 341.687 l
453.204 335.63 l
453.355 337.865 l
453.507 334.16 l
453.658 324.635 l
453.96 329.221 l
454.111 322.165 l
454.413 330.926 l
454.564 328.574 l
454.716 334.396 l
454.867 330.397 l
455.018 330.456 l
455.169 333.572 l
455.32 342.51 l
455.471 330.103 l
455.622 330.456 l
455.925 339.982 l
456.076 340.158 l
456.227 327.398 l
456.378 330.75 l
456.529 325.693 l
456.68 330.221 l
456.831 330.691 l
456.982 326.222 l
457.134 336.983 l
457.285 327.751 l
457.587 333.514 l
457.738 332.808 l
457.889 338.57 l
458.04 336.924 l
458.191 323.694 l
458.343 330.868 l
458.494 332.161 l
458.645 341.452 l
458.796 340.922 l
459.098 336.748 l
459.249 342.863 l
459.4 342.216 l
459.552 329.28 l
459.703 335.16 l
459.854 331.75 l
460.005 333.925 l
460.156 340.981 l
460.307 339.511 l
460.458 351.624 l
460.609 346.45 l
460.761 334.396 l
460.912 339.217 l
461.063 339.688 l
461.214 337.453 l
461.365 333.455 l
461.516 345.215 l
461.667 342.275 l
461.818 343.098 l
461.97 330.221 l
462.121 336.512 l
462.272 336.042 l
462.423 328.692 l
462.725 338.218 l
462.876 353.741 l
463.027 352.682 l
463.179 356.21 l
463.481 342.451 l
463.632 348.625 l
463.934 333.043 l
464.085 342.275 l
464.388 324.576 l
464.539 335.219 l
464.69 328.222 l
464.841 333.925 l
464.992 323.576 l
465.143 342.804 l
465.294 333.455 l
465.597 342.451 l
465.748 334.69 l
466.05 347.214 l
466.352 339.394 l
466.503 341.04 l
466.654 346.273 l
466.806 333.749 l
467.108 341.452 l
467.41 332.396 l
467.561 332.749 l
467.712 325.34 l
467.863 328.516 l
468.166 339.57 l
468.468 333.102 l
468.77 338.57 l
468.921 337.453 l
469.072 331.338 l
469.224 341.51 l
469.375 342.451 l
469.526 339.923 l
469.677 351.918 l
469.979 340.452 l
470.13 339.805 l
470.281 331.632 l
470.433 341.51 l
470.584 327.81 l
470.735 330.985 l
470.886 330.75 l
471.037 323.4 l
471.188 322.93 l
471.339 332.984 l
471.49 334.16 l
471.642 339.746 l
471.944 329.809 l
472.095 333.396 l
472.246 334.16 l
472.397 333.749 l
472.548 326.046 l
472.699 326.928 l
472.851 321.812 l
473.153 333.22 l
473.455 321.871 l
473.606 329.809 l
473.757 321.871 l
473.908 324.106 l
474.06 331.573 l
474.211 333.102 l
474.362 332.161 l
474.664 325.164 l
474.815 338.041 l
475.117 325.987 l
475.269 325.046 l
475.42 331.456 l
475.571 326.164 l
475.722 332.632 l
476.024 328.927 l
476.175 329.28 l
476.326 329.104 l
476.478 327.457 l
476.78 320.048 l
476.931 325.987 l
477.082 325.87 l
477.233 330.515 l
477.384 319.402 l
477.535 326.34 l
477.687 325.046 l
477.838 324.988 l
477.989 323.87 l
478.14 324.341 l
478.291 311.522 l
478.442 337.747 l
478.744 334.572 l
478.896 327.281 l
479.047 326.281 l
479.198 334.513 l
479.349 333.337 l
479.5 334.513 l
479.802 321.812 l
479.953 330.75 l
480.105 331.632 l
480.256 331.75 l
480.407 333.749 l
480.709 328.457 l
480.86 338.512 l
481.162 336.042 l
481.314 336.101 l
481.616 326.399 l
481.918 337.924 l
482.069 324.223 l
482.22 321.577 l
482.674 340.217 l
483.127 317.696 l
483.278 330.75 l
483.429 329.574 l
483.58 327.163 l
483.883 331.338 l
484.185 320.519 l
484.336 317.638 l
484.638 322.636 l
484.789 313.933 l
484.941 327.281 l
485.092 320.46 l
485.394 327.869 l
485.696 319.813 l
485.847 331.397 l
485.998 329.515 l
486.15 325.634 l
486.301 331.573 l
486.754 325.987 l
486.905 326.987 l
487.056 319.696 l
487.207 323.812 l
487.359 321.989 l
487.51 325.576 l
487.661 325.34 l
487.812 323.635 l
487.963 329.515 l
488.265 325.693 l
488.416 328.222 l
488.719 314.756 l
488.87 332.514 l
489.021 333.102 l
489.172 329.692 l
489.474 339.57 l
489.625 330.515 l
489.777 334.278 l
489.928 315.874 l
490.079 330.456 l
490.23 331.691 l
490.381 334.454 l
490.683 349.684 l
490.986 335.748 l
491.288 338.159 l
491.59 339.982 l
491.892 334.748 l
492.043 324.811 l
492.195 326.34 l
492.346 323.929 l
492.497 327.163 l
492.648 327.634 l
492.799 337.218 l
492.95 335.572 l
493.101 337.336 l
493.252 327.869 l
493.404 338.806 l
493.555 322.988 l
493.706 332.044 l
494.008 327.869 l
494.159 332.102 l
494.31 332.69 l
494.461 331.22 l
494.613 336.689 l
494.764 325.87 l
495.066 330.28 l
495.217 331.103 l
495.368 334.337 l
495.519 322.753 l
495.67 321.048 l
495.973 315.109 l
496.275 336.512 l
496.426 332.69 l
496.728 347.39 l
496.879 333.866 l
497.333 340.57 l
497.484 328.339 l
497.635 327.986 l
497.786 328.457 l
497.937 339.746 l
498.088 342.275 l
498.542 334.337 l
498.693 334.219 l
498.844 324.929 l
499.146 332.396 l
499.297 338.982 l
499.449 326.575 l
499.6 329.398 l
499.751 330.103 l
499.902 324.635 l
500.053 329.574 l
500.204 328.516 l
500.355 329.75 l
500.506 342.334 l
500.658 319.696 l
500.96 336.336 l
501.262 319.402 l
501.564 331.867 l
501.715 343.921 l
502.018 331.044 l
502.32 321.695 l
502.471 318.99 l
502.622 328.574 l
502.924 331.514 l
503.076 330.044 l
503.227 340.628 l
503.378 337.394 l
503.529 328.751 l
503.68 331.103 l
503.831 319.872 l
503.982 335.983 l
504.285 321.107 l
504.436 324.106 l
504.587 320.754 l
504.738 322.4 l
504.889 313.404 l
505.04 331.279 l
505.191 330.456 l
505.342 319.872 l
505.494 326.81 l
505.645 313.286 l
506.098 332.573 l
506.249 335.042 l
506.551 319.402 l
506.703 326.987 l
506.854 328.692 l
507.156 314.698 l
507.307 316.814 l
507.458 312.875 l
507.609 323.106 l
507.76 312.463 l
507.912 317.873 l
508.214 309.523 l
508.365 312.581 l
508.667 294.706 l
508.818 300.586 l
509.121 319.872 l
509.272 306.407 l
509.725 327.281 l
509.876 320.46 l
510.027 321.048 l
510.178 328.045 l
510.33 316.814 l
510.481 324.87 l
510.632 321.636 l
510.783 323.753 l
510.934 321.166 l
511.085 329.339 l
511.236 318.637 l
511.387 326.575 l
511.539 315.462 l
511.841 336.16 l
512.294 320.401 l
512.445 339.452 l
512.748 330.75 l
512.899 337.453 l
513.05 321.754 l
513.352 337.218 l
513.503 339.805 l
513.654 345.685 l
513.957 327.575 l
514.259 322.165 l
514.41 318.814 l
514.561 321.283 l
514.712 333.925 l
514.863 321.518 l
515.166 337.453 l
515.317 336.454 l
515.468 329.75 l
515.77 338.394 l
515.921 338.335 l
516.072 328.751 l
516.223 339.629 l
516.526 325.046 l
516.677 328.163 l
516.828 338.218 l
516.979 337.336 l
517.281 326.634 l
517.584 333.866 l
517.886 324.517 l
518.037 332.926 l
518.188 328.927 l
518.339 332.396 l
518.49 332.102 l
518.641 330.691 l
518.944 341.216 l
519.095 346.802 l
519.246 343.274 l
519.397 332.984 l
519.699 329.692 l
519.851 329.104 l
520.002 334.16 l
520.153 334.925 l
520.304 343.157 l
520.455 338.688 l
520.606 342.51 l
520.757 326.752 l
521.059 339.746 l
521.211 330.162 l
521.362 335.219 l
521.513 328.339 l
521.664 331.808 l
521.815 332.396 l
521.966 332.279 l
522.117 327.046 l
522.268 337.453 l
522.571 325.987 l
522.873 334.748 l
523.175 326.81 l
523.326 330.691 l
523.477 340.158 l
523.629 330.632 l
523.78 332.514 l
523.931 337.982 l
524.082 339.041 l
524.384 332.808 l
524.535 332.69 l
524.687 322.4 l
524.989 329.809 l
525.14 338.335 l
525.291 339.041 l
525.442 329.221 l
525.593 340.393 l
525.895 323.988 l
526.047 326.928 l
526.198 312.404 l
526.5 342.04 l
526.5 342.04 l
stroke
grestore
0.500 setlinewidth
0 setlinecap
gsave
/o {
gsave
newpath
translate
0.5 setlinewidth
1 setlinejoin
0 setlinecap
0 0 m
0 4 l
gsave
0.000 setgray
fill
grestore
stroke
grestore
} bind def
73.125 44.1 o
grestore
gsave
/o {
gsave
newpath
translate
0.5 setlinewidth
1 setlinejoin
0 setlinecap
0 0 m
0 -4 l
gsave
0.000 setgray
fill
grestore
stroke
grestore
} bind def
73.125 396.9 o
grestore
/b'DejaVuSans' findfont
12.000 scalefont
setfont
gsave
70.101562 30.975000 translate
0.000000 rotate
0.000000 0.000000 m /zero glyphshow
grestore
gsave
/o {
gsave
newpath
translate
0.5 setlinewidth
1 setlinejoin
0 setlinecap
0 0 m
0 4 l
gsave
0.000 setgray
fill
grestore
stroke
grestore
} bind def
148.688 44.1 o
grestore
gsave
/o {
gsave
newpath
translate
0.5 setlinewidth
1 setlinejoin
0 setlinecap
0 0 m
0 -4 l
gsave
0.000 setgray
fill
grestore
stroke
grestore
} bind def
148.688 396.9 o
grestore
gsave
138.085938 30.975000 translate
0.000000 rotate
0.000000 0.000000 m /five glyphshow
7.634766 0.000000 m /zero glyphshow
15.269531 0.000000 m /zero glyphshow
grestore
gsave
/o {
gsave
newpath
translate
0.5 setlinewidth
1 setlinejoin
0 setlinecap
0 0 m
0 4 l
gsave
0.000 setgray
fill
grestore
stroke
grestore
} bind def
224.25 44.1 o
grestore
gsave
/o {
gsave
newpath
translate
0.5 setlinewidth
1 setlinejoin
0 setlinecap
0 0 m
0 -4 l
gsave
0.000 setgray
fill
grestore
stroke
grestore
} bind def
224.25 396.9 o
grestore
gsave
210.023437 30.975000 translate
0.000000 rotate
0.000000 0.000000 m /one glyphshow
7.634766 0.000000 m /zero glyphshow
15.269531 0.000000 m /zero glyphshow
22.904297 0.000000 m /zero glyphshow
grestore
gsave
/o {
gsave
newpath
translate
0.5 setlinewidth
1 setlinejoin
0 setlinecap
0 0 m
0 4 l
gsave
0.000 setgray
fill
grestore
stroke
grestore
} bind def
299.812 44.1 o
grestore
gsave
/o {
gsave
newpath
translate
0.5 setlinewidth
1 setlinejoin
0 setlinecap
0 0 m
0 -4 l
gsave
0.000 setgray
fill
grestore
stroke
grestore
} bind def
299.812 396.9 o
grestore
gsave
285.585938 30.975000 translate
0.000000 rotate
0.000000 0.000000 m /one glyphshow
7.634766 0.000000 m /five glyphshow
15.269531 0.000000 m /zero glyphshow
22.904297 0.000000 m /zero glyphshow
grestore
gsave
/o {
gsave
newpath
translate
0.5 setlinewidth
1 setlinejoin
0 setlinecap
0 0 m
0 4 l
gsave
0.000 setgray
fill
grestore
stroke
grestore
} bind def
375.375 44.1 o
grestore
gsave
/o {
gsave
newpath
translate
0.5 setlinewidth
1 setlinejoin
0 setlinecap
0 0 m
0 -4 l
gsave
0.000 setgray
fill
grestore
stroke
grestore
} bind def
375.375 396.9 o
grestore
gsave
360.929687 30.975000 translate
0.000000 rotate
0.000000 0.000000 m /two glyphshow
7.634766 0.000000 m /zero glyphshow
15.269531 0.000000 m /zero glyphshow
22.904297 0.000000 m /zero glyphshow
grestore
gsave
/o {
gsave
newpath
translate
0.5 setlinewidth
1 setlinejoin
0 setlinecap
0 0 m
0 4 l
gsave
0.000 setgray
fill
grestore
stroke
grestore
} bind def
450.937 44.1 o
grestore
gsave
/o {
gsave
newpath
translate
0.5 setlinewidth
1 setlinejoin
0 setlinecap
0 0 m
0 -4 l
gsave
0.000 setgray
fill
grestore
stroke
grestore
} bind def
450.937 396.9 o
grestore
gsave
436.492187 30.975000 translate
0.000000 rotate
0.000000 0.000000 m /two glyphshow
7.634766 0.000000 m /five glyphshow
15.269531 0.000000 m /zero glyphshow
22.904297 0.000000 m /zero glyphshow
grestore
gsave
/o {
gsave
newpath
translate
0.5 setlinewidth
1 setlinejoin
0 setlinecap
0 0 m
0 4 l
gsave
0.000 setgray
fill
grestore
stroke
grestore
} bind def
526.5 44.1 o
grestore
gsave
/o {
gsave
newpath
translate
0.5 setlinewidth
1 setlinejoin
0 setlinecap
0 0 m
0 -4 l
gsave
0.000 setgray
fill
grestore
stroke
grestore
} bind def
526.5 396.9 o
grestore
gsave
512.078125 30.975000 translate
0.000000 rotate
0.000000 0.000000 m /three glyphshow
7.634766 0.000000 m /zero glyphshow
15.269531 0.000000 m /zero glyphshow
22.904297 0.000000 m /zero glyphshow
grestore
gsave
281.929688 14.350000 translate
0.000000 rotate
0.000000 0.000000 m /R glyphshow
7.837891 0.000000 m /o glyphshow
15.179688 0.000000 m /u glyphshow
22.785156 0.000000 m /n glyphshow
30.390625 0.000000 m /d glyphshow
grestore
gsave
/o {
gsave
newpath
translate
0.5 setlinewidth
1 setlinejoin
0 setlinecap
0 0 m
4 0 l
gsave
0.000 setgray
fill
grestore
stroke
grestore
} bind def
73.125 44.1 o
grestore
gsave
/o {
gsave
newpath
translate
0.5 setlinewidth
1 setlinejoin
0 setlinecap
0 0 m
-4 0 l
gsave
0.000 setgray
fill
grestore
stroke
grestore
} bind def
526.5 44.1 o
grestore
gsave
63.078125 40.787500 translate
0.000000 rotate
0.000000 0.000000 m /zero glyphshow
grestore
gsave
/o {
gsave
newpath
translate
0.5 setlinewidth
1 setlinejoin
0 setlinecap
0 0 m
4 0 l
gsave
0.000 setgray
fill
grestore
stroke
grestore
} bind def
73.125 102.9 o
grestore
gsave
/o {
gsave
newpath
translate
0.5 setlinewidth
1 setlinejoin
0 setlinecap
0 0 m
-4 0 l
gsave
0.000 setgray
fill
grestore
stroke
grestore
} bind def
526.5 102.9 o
grestore
gsave
55.953125 99.587500 translate
0.000000 rotate
0.000000 0.000000 m /one glyphshow
7.634766 0.000000 m /zero glyphshow
grestore
gsave
/o {
gsave
newpath
translate
0.5 setlinewidth
1 setlinejoin
0 setlinecap
0 0 m
4 0 l
gsave
0.000 setgray
fill
grestore
stroke
grestore
} bind def
73.125 161.7 o
grestore
gsave
/o {
gsave
newpath
translate
0.5 setlinewidth
1 setlinejoin
0 setlinecap
0 0 m
-4 0 l
gsave
0.000 setgray
fill
grestore
stroke
grestore
} bind def
526.5 161.7 o
grestore
gsave
55.515625 158.387500 translate
0.000000 rotate
0.000000 0.000000 m /two glyphshow
7.634766 0.000000 m /zero glyphshow
grestore
gsave
/o {
gsave
newpath
translate
0.5 setlinewidth
1 setlinejoin
0 setlinecap
0 0 m
4 0 l
gsave
0.000 setgray
fill
grestore
stroke
grestore
} bind def
73.125 220.5 o
grestore
gsave
/o {
gsave
newpath
translate
0.5 setlinewidth
1 setlinejoin
0 setlinecap
0 0 m
-4 0 l
gsave
0.000 setgray
fill
grestore
stroke
grestore
} bind def
526.5 220.5 o
grestore
gsave
55.562500 217.187500 translate
0.000000 rotate
0.000000 0.000000 m /three glyphshow
7.634766 0.000000 m /zero glyphshow
grestore
gsave
/o {
gsave
newpath
translate
0.5 setlinewidth
1 setlinejoin
0 setlinecap
0 0 m
4 0 l
gsave
0.000 setgray
fill
grestore
stroke
grestore
} bind def
73.125 279.3 o
grestore
gsave
/o {
gsave
newpath
translate
0.5 setlinewidth
1 setlinejoin
0 setlinecap
0 0 m
-4 0 l
gsave
0.000 setgray
fill
grestore
stroke
grestore
} bind def
526.5 279.3 o
grestore
gsave
55.234375 275.987500 translate
0.000000 rotate
0.000000 0.000000 m /four glyphshow
7.634766 0.000000 m /zero glyphshow
grestore
gsave
/o {
gsave
newpath
translate
0.5 setlinewidth
1 setlinejoin
0 setlinecap
0 0 m
4 0 l
gsave
0.000 setgray
fill
grestore
stroke
grestore
} bind def
73.125 338.1 o
grestore
gsave
/o {
gsave
newpath
translate
0.5 setlinewidth
1 setlinejoin
0 setlinecap
0 0 m
-4 0 l
gsave
0.000 setgray
fill
grestore
stroke
grestore
} bind def
526.5 338.1 o
grestore
gsave
55.562500 334.787500 translate
0.000000 rotate
0.000000 0.000000 m /five glyphshow
7.634766 0.000000 m /zero glyphshow
grestore
gsave
/o {
gsave
newpath
translate
0.5 setlinewidth
1 setlinejoin
0 setlinecap
0 0 m
4 0 l
gsave
0.000 setgray
fill
grestore
stroke
grestore
} bind def
73.125 396.9 o
grestore
gsave
/o {
gsave
newpath
translate
0.5 setlinewidth
1 setlinejoin
0 setlinecap
0 0 m
-4 0 l
gsave
0.000 setgray
fill
grestore
stroke
grestore
} bind def
526.5 396.9 o
grestore
gsave
55.484375 393.587500 translate
0.000000 rotate
0.000000 0.000000 m /six glyphshow
7.634766 0.000000 m /zero glyphshow
grestore
gsave
47.734375 188.734375 translate
90.000000 rotate
0.000000 0.000000 m /T glyphshow
5.330078 0.000000 m /o glyphshow
12.671875 0.000000 m /t glyphshow
17.376953 0.000000 m /a glyphshow
24.730469 0.000000 m /l glyphshow
28.064453 0.000000 m /space glyphshow
31.878906 0.000000 m /s glyphshow
38.130859 0.000000 m /c glyphshow
44.728516 0.000000 m /o glyphshow
52.070312 0.000000 m /r glyphshow
56.753906 0.000000 m /e glyphshow
grestore
1.000 setlinewidth
gsave
73.125 396.9 m
526.5 396.9 l
stroke
grestore
gsave
526.5 44.1 m
526.5 396.9 l
stroke
grestore
gsave
73.125 44.1 m
73.125 396.9 l
stroke
grestore
gsave
73.125 44.1 m
526.5 44.1 l
stroke
grestore
/b'DejaVuSans' findfont
14.400 scalefont
setfont
gsave
34.359375 417.575000 translate
0.000000 rotate
0.000000 0.000000 m /H glyphshow
10.821075 0.000000 m /o glyphshow
19.625488 0.000000 m /w glyphshow
31.395157 0.000000 m /space glyphshow
35.969513 0.000000 m /t glyphshow
41.611923 0.000000 m /h glyphshow
50.732544 0.000000 m /e glyphshow
59.586151 0.000000 m /space glyphshow
64.160507 0.000000 m /t glyphshow
69.802917 0.000000 m /o glyphshow
78.607330 0.000000 m /t glyphshow
84.249741 0.000000 m /a glyphshow
93.068207 0.000000 m /l glyphshow
97.066376 0.000000 m /space glyphshow
101.640732 0.000000 m /s glyphshow
109.138184 0.000000 m /c glyphshow
117.050217 0.000000 m /o glyphshow
125.854630 0.000000 m /r glyphshow
131.396088 0.000000 m /e glyphshow
140.249695 0.000000 m /space glyphshow
144.824051 0.000000 m /o glyphshow
153.628464 0.000000 m /f glyphshow
158.694687 0.000000 m /space glyphshow
163.269043 0.000000 m /t glyphshow
168.911453 0.000000 m /h glyphshow
178.032074 0.000000 m /e glyphshow
186.885681 0.000000 m /space glyphshow
191.460037 0.000000 m /f glyphshow
196.526260 0.000000 m /l glyphshow
200.524429 0.000000 m /o glyphshow
209.328842 0.000000 m /c glyphshow
217.240875 0.000000 m /k glyphshow
225.574509 0.000000 m /space glyphshow
230.148865 0.000000 m /c glyphshow
238.060898 0.000000 m /h glyphshow
247.181519 0.000000 m /a glyphshow
255.999985 0.000000 m /n glyphshow
265.120605 0.000000 m /g glyphshow
274.255280 0.000000 m /e glyphshow
283.108887 0.000000 m /s glyphshow
290.606339 0.000000 m /space glyphshow
295.180695 0.000000 m /f glyphshow
300.246918 0.000000 m /o glyphshow
309.051331 0.000000 m /r glyphshow
314.967789 0.000000 m /space glyphshow
319.542145 0.000000 m /e glyphshow
328.395752 0.000000 m /a glyphshow
337.214218 0.000000 m /c glyphshow
345.126251 0.000000 m /h glyphshow
354.246872 0.000000 m /space glyphshow
358.821228 0.000000 m /r glyphshow
364.362686 0.000000 m /o glyphshow
373.167099 0.000000 m /u glyphshow
382.287720 0.000000 m /n glyphshow
391.408340 0.000000 m /d glyphshow
400.543015 0.000000 m /space glyphshow
405.117371 0.000000 m /o glyphshow
413.921783 0.000000 m /f glyphshow
418.988007 0.000000 m /space glyphshow
423.562363 0.000000 m /t glyphshow
429.204773 0.000000 m /h glyphshow
438.325394 0.000000 m /e glyphshow
447.179001 0.000000 m /space glyphshow
451.753357 0.000000 m /h glyphshow
460.873978 0.000000 m /i glyphshow
464.872147 0.000000 m /l glyphshow
468.870316 0.000000 m /l glyphshow
472.868484 0.000000 m /space glyphshow
477.442841 0.000000 m /c glyphshow
485.354874 0.000000 m /l glyphshow
489.353043 0.000000 m /i glyphshow
493.351212 0.000000 m /m glyphshow
507.369415 0.000000 m /b glyphshow
516.504089 0.000000 m /e glyphshow
525.357697 0.000000 m /r glyphshow
grestore
gsave
299.812500 401.900000 translate
0.000000 rotate

grestore

end
showpage
