%!PS-Adobe-3.0 EPSF-3.0
%%Title: /Users/Jacob/Documents/Uni/year3/project/graphs/new_hillclimber/INTER_total_20150222.eps
%%Creator: matplotlib version 1.3.1, http://matplotlib.org/
%%CreationDate: Sun Feb 22 13:46:22 2015
%%Orientation: portrait
%%BoundingBox: 18 180 594 612
%%EndComments
%%BeginProlog
/mpldict 8 dict def
mpldict begin
/m { moveto } bind def
/l { lineto } bind def
/r { rlineto } bind def
/c { curveto } bind def
/cl { closepath } bind def
/box {
m
1 index 0 r
0 exch r
neg 0 r
cl
} bind def
/clipbox {
box
clip
newpath
} bind def
%!PS-Adobe-3.0 Resource-Font
%%Title: Bitstream Vera Sans
%%Copyright: Copyright (c) 2003 by Bitstream, Inc. All Rights Reserved.
%%Creator: Converted from TrueType to type 3 by PPR
25 dict begin
/_d{bind def}bind def
/_m{moveto}_d
/_l{lineto}_d
/_cl{closepath eofill}_d
/_c{curveto}_d
/_sc{7 -1 roll{setcachedevice}{pop pop pop pop pop pop}ifelse}_d
/_e{exec}_d
/FontName /BitstreamVeraSans-Roman def
/PaintType 0 def
/FontMatrix[.001 0 0 .001 0 0]def
/FontBBox[-183 -236 1287 928]def
/FontType 3 def
/Encoding [ /space /zero /one /two /three /four /five /six /seven /eight /H /R /T /a /b /c /d /e /f /g /h /i /k /l /m /n /o /r /s /t /u /w ] def
/FontInfo 10 dict dup begin
/FamilyName (Bitstream Vera Sans) def
/FullName (Bitstream Vera Sans) def
/Notice (Copyright (c) 2003 by Bitstream, Inc. All Rights Reserved. Bitstream Vera is a trademark of Bitstream, Inc.) def
/Weight (Roman) def
/Version (Release 1.10) def
/ItalicAngle 0.0 def
/isFixedPitch false def
/UnderlinePosition -213 def
/UnderlineThickness 143 def
end readonly def
/CharStrings 32 dict dup begin
/space{318 0 0 0 0 0 _sc
}_d
/zero{636 0 66 -13 570 742 _sc
318 664 _m
267 664 229 639 203 589 _c
177 539 165 464 165 364 _c
165 264 177 189 203 139 _c
229 89 267 64 318 64 _c
369 64 407 89 433 139 _c
458 189 471 264 471 364 _c
471 464 458 539 433 589 _c
407 639 369 664 318 664 _c
318 742 _m
399 742 461 709 505 645 _c
548 580 570 486 570 364 _c
570 241 548 147 505 83 _c
461 19 399 -13 318 -13 _c
236 -13 173 19 130 83 _c
87 147 66 241 66 364 _c
66 486 87 580 130 645 _c
173 709 236 742 318 742 _c
_cl}_d
/one{636 0 110 0 544 729 _sc
124 83 _m
285 83 _l
285 639 _l
110 604 _l
110 694 _l
284 729 _l
383 729 _l
383 83 _l
544 83 _l
544 0 _l
124 0 _l
124 83 _l
_cl}_d
/two{{636 0 73 0 536 742 _sc
192 83 _m
536 83 _l
536 0 _l
73 0 _l
73 83 _l
110 121 161 173 226 239 _c
290 304 331 346 348 365 _c
380 400 402 430 414 455 _c
426 479 433 504 433 528 _c
433 566 419 598 392 622 _c
365 646 330 659 286 659 _c
255 659 222 653 188 643 _c
154 632 117 616 78 594 _c
78 694 _l
118 710 155 722 189 730 _c
223 738 255 742 284 742 _c
}_e{359 742 419 723 464 685 _c
509 647 532 597 532 534 _c
532 504 526 475 515 449 _c
504 422 484 390 454 354 _c
446 344 420 317 376 272 _c
332 227 271 164 192 83 _c
_cl}_e}_d
/three{{636 0 76 -13 556 742 _sc
406 393 _m
453 383 490 362 516 330 _c
542 298 556 258 556 212 _c
556 140 531 84 482 45 _c
432 6 362 -13 271 -13 _c
240 -13 208 -10 176 -4 _c
144 1 110 10 76 22 _c
76 117 _l
103 101 133 89 166 81 _c
198 73 232 69 268 69 _c
330 69 377 81 409 105 _c
441 129 458 165 458 212 _c
458 254 443 288 413 312 _c
383 336 341 349 287 349 _c
}_e{202 349 _l
202 430 _l
291 430 _l
339 430 376 439 402 459 _c
428 478 441 506 441 543 _c
441 580 427 609 401 629 _c
374 649 336 659 287 659 _c
260 659 231 656 200 650 _c
169 644 135 635 98 623 _c
98 711 _l
135 721 170 729 203 734 _c
235 739 266 742 296 742 _c
370 742 429 725 473 691 _c
517 657 539 611 539 553 _c
539 513 527 479 504 451 _c
481 423 448 403 406 393 _c
_cl}_e}_d
/four{636 0 49 0 580 729 _sc
378 643 _m
129 254 _l
378 254 _l
378 643 _l
352 729 _m
476 729 _l
476 254 _l
580 254 _l
580 172 _l
476 172 _l
476 0 _l
378 0 _l
378 172 _l
49 172 _l
49 267 _l
352 729 _l
_cl}_d
/five{{636 0 77 -13 549 729 _sc
108 729 _m
495 729 _l
495 646 _l
198 646 _l
198 467 _l
212 472 227 476 241 478 _c
255 480 270 482 284 482 _c
365 482 429 459 477 415 _c
525 370 549 310 549 234 _c
549 155 524 94 475 51 _c
426 8 357 -13 269 -13 _c
238 -13 207 -10 175 -6 _c
143 -1 111 6 77 17 _c
77 116 _l
106 100 136 88 168 80 _c
199 72 232 69 267 69 _c
}_e{323 69 368 83 401 113 _c
433 143 450 183 450 234 _c
450 284 433 324 401 354 _c
368 384 323 399 267 399 _c
241 399 214 396 188 390 _c
162 384 135 375 108 363 _c
108 729 _l
_cl}_e}_d
/six{{636 0 70 -13 573 742 _sc
330 404 _m
286 404 251 388 225 358 _c
199 328 186 286 186 234 _c
186 181 199 139 225 109 _c
251 79 286 64 330 64 _c
374 64 409 79 435 109 _c
461 139 474 181 474 234 _c
474 286 461 328 435 358 _c
409 388 374 404 330 404 _c
526 713 _m
526 623 _l
501 635 476 644 451 650 _c
425 656 400 659 376 659 _c
310 659 260 637 226 593 _c
}_e{192 549 172 482 168 394 _c
187 422 211 444 240 459 _c
269 474 301 482 336 482 _c
409 482 467 459 509 415 _c
551 371 573 310 573 234 _c
573 159 550 99 506 54 _c
462 9 403 -13 330 -13 _c
246 -13 181 19 137 83 _c
92 147 70 241 70 364 _c
70 479 97 571 152 639 _c
206 707 280 742 372 742 _c
396 742 421 739 447 735 _c
472 730 498 723 526 713 _c
_cl}_e}_d
/seven{636 0 82 0 551 729 _sc
82 729 _m
551 729 _l
551 687 _l
286 0 _l
183 0 _l
432 646 _l
82 646 _l
82 729 _l
_cl}_d
/eight{{636 0 68 -13 568 742 _sc
318 346 _m
271 346 234 333 207 308 _c
180 283 167 249 167 205 _c
167 161 180 126 207 101 _c
234 76 271 64 318 64 _c
364 64 401 76 428 102 _c
455 127 469 161 469 205 _c
469 249 455 283 429 308 _c
402 333 365 346 318 346 _c
219 388 _m
177 398 144 418 120 447 _c
96 476 85 511 85 553 _c
85 611 105 657 147 691 _c
188 725 245 742 318 742 _c
}_e{390 742 447 725 489 691 _c
530 657 551 611 551 553 _c
551 511 539 476 515 447 _c
491 418 459 398 417 388 _c
464 377 501 355 528 323 _c
554 291 568 251 568 205 _c
568 134 546 80 503 43 _c
459 5 398 -13 318 -13 _c
237 -13 175 5 132 43 _c
89 80 68 134 68 205 _c
68 251 81 291 108 323 _c
134 355 171 377 219 388 _c
183 544 _m
183 506 194 476 218 455 _c
}_e{242 434 275 424 318 424 _c
360 424 393 434 417 455 _c
441 476 453 506 453 544 _c
453 582 441 611 417 632 _c
393 653 360 664 318 664 _c
275 664 242 653 218 632 _c
194 611 183 582 183 544 _c
_cl}_e}_d
/H{752 0 98 0 654 729 _sc
98 729 _m
197 729 _l
197 430 _l
555 430 _l
555 729 _l
654 729 _l
654 0 _l
555 0 _l
555 347 _l
197 347 _l
197 0 _l
98 0 _l
98 729 _l
_cl}_d
/R{{695 0 98 0 666 729 _sc
444 342 _m
465 334 486 319 506 296 _c
526 272 546 240 566 199 _c
666 0 _l
560 0 _l
467 187 _l
443 235 419 268 397 284 _c
374 300 343 308 304 308 _c
197 308 _l
197 0 _l
98 0 _l
98 729 _l
321 729 _l
404 729 466 711 507 677 _c
548 642 569 589 569 519 _c
569 473 558 434 537 404 _c
515 374 484 353 444 342 _c
197 648 _m
197 389 _l
321 389 _l
}_e{368 389 404 400 428 422 _c
452 444 465 476 465 519 _c
465 561 452 593 428 615 _c
404 637 368 648 321 648 _c
197 648 _l
_cl}_e}_d
/T{611 0 -2 0 614 729 _sc
-2 729 _m
614 729 _l
614 646 _l
355 646 _l
355 0 _l
256 0 _l
256 646 _l
-2 646 _l
-2 729 _l
_cl}_d
/a{{613 0 60 -13 522 560 _sc
343 275 _m
270 275 220 266 192 250 _c
164 233 150 205 150 165 _c
150 133 160 107 181 89 _c
202 70 231 61 267 61 _c
317 61 357 78 387 114 _c
417 149 432 196 432 255 _c
432 275 _l
343 275 _l
522 312 _m
522 0 _l
432 0 _l
432 83 _l
411 49 385 25 355 10 _c
325 -5 287 -13 243 -13 _c
187 -13 142 2 109 33 _c
76 64 60 106 60 159 _c
}_e{60 220 80 266 122 298 _c
163 329 224 345 306 345 _c
432 345 _l
432 354 _l
432 395 418 427 391 450 _c
364 472 326 484 277 484 _c
245 484 215 480 185 472 _c
155 464 127 453 100 439 _c
100 522 _l
132 534 164 544 195 550 _c
226 556 256 560 286 560 _c
365 560 424 539 463 498 _c
502 457 522 395 522 312 _c
_cl}_e}_d
/b{{635 0 91 -13 580 760 _sc
487 273 _m
487 339 473 390 446 428 _c
418 466 381 485 334 485 _c
286 485 249 466 222 428 _c
194 390 181 339 181 273 _c
181 207 194 155 222 117 _c
249 79 286 61 334 61 _c
381 61 418 79 446 117 _c
473 155 487 207 487 273 _c
181 464 _m
199 496 223 520 252 536 _c
281 552 316 560 356 560 _c
422 560 476 533 518 481 _c
559 428 580 359 580 273 _c
}_e{580 187 559 117 518 65 _c
476 13 422 -13 356 -13 _c
316 -13 281 -5 252 10 _c
223 25 199 49 181 82 _c
181 0 _l
91 0 _l
91 760 _l
181 760 _l
181 464 _l
_cl}_e}_d
/c{{550 0 55 -13 488 560 _sc
488 526 _m
488 442 _l
462 456 437 466 411 473 _c
385 480 360 484 334 484 _c
276 484 230 465 198 428 _c
166 391 150 339 150 273 _c
150 206 166 154 198 117 _c
230 80 276 62 334 62 _c
360 62 385 65 411 72 _c
437 79 462 90 488 104 _c
488 21 _l
462 9 436 0 410 -5 _c
383 -10 354 -13 324 -13 _c
242 -13 176 12 128 64 _c
}_e{79 115 55 185 55 273 _c
55 362 79 432 128 483 _c
177 534 244 560 330 560 _c
358 560 385 557 411 551 _c
437 545 463 537 488 526 _c
_cl}_e}_d
/d{{635 0 55 -13 544 760 _sc
454 464 _m
454 760 _l
544 760 _l
544 0 _l
454 0 _l
454 82 _l
435 49 411 25 382 10 _c
353 -5 319 -13 279 -13 _c
213 -13 159 13 117 65 _c
75 117 55 187 55 273 _c
55 359 75 428 117 481 _c
159 533 213 560 279 560 _c
319 560 353 552 382 536 _c
411 520 435 496 454 464 _c
148 273 _m
148 207 161 155 188 117 _c
215 79 253 61 301 61 _c
}_e{348 61 385 79 413 117 _c
440 155 454 207 454 273 _c
454 339 440 390 413 428 _c
385 466 348 485 301 485 _c
253 485 215 466 188 428 _c
161 390 148 339 148 273 _c
_cl}_e}_d
/e{{615 0 55 -13 562 560 _sc
562 296 _m
562 252 _l
149 252 _l
153 190 171 142 205 110 _c
238 78 284 62 344 62 _c
378 62 412 66 444 74 _c
476 82 509 95 541 113 _c
541 28 _l
509 14 476 3 442 -3 _c
408 -9 373 -13 339 -13 _c
251 -13 182 12 131 62 _c
80 112 55 181 55 268 _c
55 357 79 428 127 481 _c
175 533 241 560 323 560 _c
397 560 455 536 498 489 _c
}_e{540 441 562 377 562 296 _c
472 322 _m
471 371 457 410 431 440 _c
404 469 368 484 324 484 _c
274 484 234 469 204 441 _c
174 413 156 373 152 322 _c
472 322 _l
_cl}_e}_d
/f{352 0 23 0 371 760 _sc
371 760 _m
371 685 _l
285 685 _l
253 685 230 678 218 665 _c
205 652 199 629 199 595 _c
199 547 _l
347 547 _l
347 477 _l
199 477 _l
199 0 _l
109 0 _l
109 477 _l
23 477 _l
23 547 _l
109 547 _l
109 585 _l
109 645 123 690 151 718 _c
179 746 224 760 286 760 _c
371 760 _l
_cl}_d
/g{{635 0 55 -207 544 560 _sc
454 280 _m
454 344 440 395 414 431 _c
387 467 349 485 301 485 _c
253 485 215 467 188 431 _c
161 395 148 344 148 280 _c
148 215 161 165 188 129 _c
215 93 253 75 301 75 _c
349 75 387 93 414 129 _c
440 165 454 215 454 280 _c
544 68 _m
544 -24 523 -93 482 -139 _c
440 -184 377 -207 292 -207 _c
260 -207 231 -204 203 -200 _c
175 -195 147 -188 121 -178 _c
}_e{121 -91 _l
147 -105 173 -115 199 -122 _c
225 -129 251 -133 278 -133 _c
336 -133 380 -117 410 -87 _c
439 -56 454 -10 454 52 _c
454 96 _l
435 64 411 40 382 24 _c
353 8 319 0 279 0 _c
211 0 157 25 116 76 _c
75 127 55 195 55 280 _c
55 364 75 432 116 483 _c
157 534 211 560 279 560 _c
319 560 353 552 382 536 _c
411 520 435 496 454 464 _c
454 547 _l
544 547 _l
}_e{544 68 _l
_cl}_e}_d
/h{634 0 91 0 549 760 _sc
549 330 _m
549 0 _l
459 0 _l
459 327 _l
459 379 448 417 428 443 _c
408 469 378 482 338 482 _c
289 482 251 466 223 435 _c
195 404 181 362 181 309 _c
181 0 _l
91 0 _l
91 760 _l
181 760 _l
181 462 _l
202 494 227 519 257 535 _c
286 551 320 560 358 560 _c
420 560 468 540 500 501 _c
532 462 549 405 549 330 _c
_cl}_d
/i{278 0 94 0 184 760 _sc
94 547 _m
184 547 _l
184 0 _l
94 0 _l
94 547 _l
94 760 _m
184 760 _l
184 646 _l
94 646 _l
94 760 _l
_cl}_d
/k{579 0 91 0 576 760 _sc
91 760 _m
181 760 _l
181 311 _l
449 547 _l
564 547 _l
274 291 _l
576 0 _l
459 0 _l
181 267 _l
181 0 _l
91 0 _l
91 760 _l
_cl}_d
/l{278 0 94 0 184 760 _sc
94 760 _m
184 760 _l
184 0 _l
94 0 _l
94 760 _l
_cl}_d
/m{{974 0 91 0 889 560 _sc
520 442 _m
542 482 569 511 600 531 _c
631 550 668 560 711 560 _c
767 560 811 540 842 500 _c
873 460 889 403 889 330 _c
889 0 _l
799 0 _l
799 327 _l
799 379 789 418 771 444 _c
752 469 724 482 686 482 _c
639 482 602 466 575 435 _c
548 404 535 362 535 309 _c
535 0 _l
445 0 _l
445 327 _l
445 379 435 418 417 444 _c
398 469 369 482 331 482 _c
}_e{285 482 248 466 221 435 _c
194 404 181 362 181 309 _c
181 0 _l
91 0 _l
91 547 _l
181 547 _l
181 462 _l
201 495 226 520 255 536 _c
283 552 317 560 357 560 _c
397 560 430 550 458 530 _c
486 510 506 480 520 442 _c
_cl}_e}_d
/n{634 0 91 0 549 560 _sc
549 330 _m
549 0 _l
459 0 _l
459 327 _l
459 379 448 417 428 443 _c
408 469 378 482 338 482 _c
289 482 251 466 223 435 _c
195 404 181 362 181 309 _c
181 0 _l
91 0 _l
91 547 _l
181 547 _l
181 462 _l
202 494 227 519 257 535 _c
286 551 320 560 358 560 _c
420 560 468 540 500 501 _c
532 462 549 405 549 330 _c
_cl}_d
/o{612 0 55 -13 557 560 _sc
306 484 _m
258 484 220 465 192 427 _c
164 389 150 338 150 273 _c
150 207 163 156 191 118 _c
219 80 257 62 306 62 _c
354 62 392 80 420 118 _c
448 156 462 207 462 273 _c
462 337 448 389 420 427 _c
392 465 354 484 306 484 _c
306 560 _m
384 560 445 534 490 484 _c
534 433 557 363 557 273 _c
557 183 534 113 490 63 _c
445 12 384 -13 306 -13 _c
227 -13 165 12 121 63 _c
77 113 55 183 55 273 _c
55 363 77 433 121 484 _c
165 534 227 560 306 560 _c
_cl}_d
/r{411 0 91 0 411 560 _sc
411 463 _m
401 469 390 473 378 476 _c
366 478 353 480 339 480 _c
288 480 249 463 222 430 _c
194 397 181 350 181 288 _c
181 0 _l
91 0 _l
91 547 _l
181 547 _l
181 462 _l
199 495 224 520 254 536 _c
284 552 321 560 365 560 _c
371 560 378 559 386 559 _c
393 558 401 557 411 555 _c
411 463 _l
_cl}_d
/s{{521 0 54 -13 472 560 _sc
443 531 _m
443 446 _l
417 458 391 468 364 475 _c
336 481 308 485 279 485 _c
234 485 200 478 178 464 _c
156 450 145 430 145 403 _c
145 382 153 366 169 354 _c
185 342 217 330 265 320 _c
296 313 _l
360 299 405 279 432 255 _c
458 230 472 195 472 151 _c
472 100 452 60 412 31 _c
372 1 316 -13 246 -13 _c
216 -13 186 -10 154 -5 _c
}_e{122 0 89 8 54 20 _c
54 113 _l
87 95 120 82 152 74 _c
184 65 216 61 248 61 _c
290 61 323 68 346 82 _c
368 96 380 117 380 144 _c
380 168 371 187 355 200 _c
339 213 303 226 247 238 _c
216 245 _l
160 257 119 275 95 299 _c
70 323 58 356 58 399 _c
58 450 76 490 112 518 _c
148 546 200 560 268 560 _c
301 560 332 557 362 552 _c
391 547 418 540 443 531 _c
}_e{_cl}_e}_d
/t{392 0 27 0 368 702 _sc
183 702 _m
183 547 _l
368 547 _l
368 477 _l
183 477 _l
183 180 _l
183 135 189 106 201 94 _c
213 81 238 75 276 75 _c
368 75 _l
368 0 _l
276 0 _l
206 0 158 13 132 39 _c
106 65 93 112 93 180 _c
93 477 _l
27 477 _l
27 547 _l
93 547 _l
93 702 _l
183 702 _l
_cl}_d
/u{634 0 85 -13 543 547 _sc
85 216 _m
85 547 _l
175 547 _l
175 219 _l
175 167 185 129 205 103 _c
225 77 255 64 296 64 _c
344 64 383 79 411 110 _c
439 141 453 183 453 237 _c
453 547 _l
543 547 _l
543 0 _l
453 0 _l
453 84 _l
431 50 405 26 377 10 _c
348 -5 315 -13 277 -13 _c
214 -13 166 6 134 45 _c
101 83 85 140 85 216 _c
_cl}_d
/w{818 0 42 0 776 547 _sc
42 547 _m
132 547 _l
244 120 _l
356 547 _l
462 547 _l
574 120 _l
686 547 _l
776 547 _l
633 0 _l
527 0 _l
409 448 _l
291 0 _l
185 0 _l
42 547 _l
_cl}_d
end readonly def

/BuildGlyph
 {exch begin
 CharStrings exch
 2 copy known not{pop /.notdef}if
 true 3 1 roll get exec
 end}_d

/BuildChar {
 1 index /Encoding get exch get
 1 index /BuildGlyph get exec
}_d

FontName currentdict end definefont pop
end
%%EndProlog
mpldict begin
18 180 translate
576 432 0 0 clipbox
gsave
0 0 m
576 0 l
576 432 l
0 432 l
cl
1.000 setgray
fill
grestore
gsave
72 43.2 m
518.4 43.2 l
518.4 388.8 l
72 388.8 l
cl
1.000 setgray
fill
grestore
1.000 setlinewidth
1 setlinejoin
2 setlinecap
[] 0 setdash
0.000 setgray
gsave
446.4 345.6 72 43.2 clipbox
72 43.2 m
72.4464 142.425 l
72.8928 173.859 l
73.3392 247.344 l
73.7856 174.658 l
74.232 215.256 l
75.5712 294.846 l
76.0176 270.678 l
76.464 300.266 l
76.9104 303.765 l
77.3568 304.41 l
77.8032 304.259 l
78.2496 306.458 l
79.5888 290.831 l
80.0352 300.407 l
80.4816 303.291 l
80.928 302.827 l
81.3744 301.606 l
81.8208 298.541 l
82.2672 301.26 l
82.7136 296.957 l
83.16 308.481 l
83.6064 279.644 l
84.0528 280.23 l
84.4992 308.514 l
84.9456 303.201 l
85.392 290.076 l
85.8384 297.197 l
86.2848 298.414 l
86.7312 284.429 l
87.1776 302.524 l
87.624 293.675 l
88.0704 297.724 l
88.5168 294.596 l
88.9632 314.523 l
89.4096 300.321 l
89.856 312.896 l
90.3024 301.521 l
90.7488 304.928 l
91.1952 305.576 l
91.6416 303.75 l
92.088 303.864 l
92.5344 309.014 l
92.9808 307.904 l
93.4272 294.169 l
93.8736 313.41 l
94.32 306.738 l
94.7664 310.132 l
95.2128 309.545 l
95.6592 309.911 l
96.1056 302.641 l
96.552 289.111 l
97.4448 306.818 l
97.8912 289.403 l
98.3376 310.26 l
98.784 298.564 l
99.2304 289.921 l
99.6768 304.565 l
100.123 305.574 l
100.57 306.082 l
101.016 306.279 l
101.462 296.528 l
102.355 314.216 l
102.802 300.757 l
103.248 305.384 l
103.694 304.75 l
104.141 301.58 l
104.587 297.31 l
105.034 300.437 l
105.48 309.058 l
105.926 309.442 l
106.373 291.421 l
106.819 311.243 l
107.266 291.987 l
107.712 300.313 l
108.158 305.115 l
108.605 304.635 l
109.051 306.994 l
109.498 304.41 l
109.944 298.529 l
110.39 313.816 l
110.837 302.677 l
111.283 305.438 l
111.73 286.141 l
112.176 305.436 l
112.622 311.798 l
113.069 311.725 l
113.515 311.47 l
113.962 306.403 l
114.408 315.138 l
114.854 299.926 l
115.301 312.767 l
115.747 311.786 l
116.194 307.03 l
116.64 311.159 l
117.086 292.039 l
117.533 304.228 l
117.979 288.2 l
118.426 299.661 l
118.872 295.841 l
119.318 306.623 l
119.765 298.504 l
120.211 311.173 l
120.658 310.824 l
121.104 314.29 l
121.55 310.16 l
121.997 304.919 l
122.443 304.086 l
122.89 299.194 l
123.336 312.1 l
123.782 297.947 l
124.229 295.689 l
124.675 302.697 l
125.122 312.369 l
125.568 313.236 l
126.014 305.013 l
126.461 308.745 l
126.907 300.188 l
127.354 301.327 l
127.8 301.18 l
128.246 311.838 l
128.693 285.31 l
129.139 287.934 l
129.586 305.902 l
130.032 301.724 l
130.478 301.485 l
130.925 308.925 l
131.371 300.425 l
131.818 303.249 l
132.264 302.356 l
132.71 309.609 l
133.157 296.923 l
133.603 294.282 l
134.05 310.907 l
134.496 303.043 l
134.942 306.915 l
135.389 294.863 l
135.835 311.394 l
136.282 300.862 l
136.728 311.527 l
137.174 308.356 l
137.621 308.507 l
138.067 301.663 l
138.514 289.01 l
138.96 305.978 l
139.406 296.183 l
140.299 303.543 l
140.746 309.098 l
141.192 322.501 l
141.638 293.141 l
142.531 310.484 l
142.978 310.86 l
143.424 312.469 l
143.87 310.363 l
144.317 317.037 l
144.763 301.787 l
145.21 314.207 l
145.656 311.096 l
146.102 313.1 l
146.549 310.997 l
146.995 317.959 l
147.442 305.966 l
147.888 301.113 l
148.334 311.082 l
148.781 314.285 l
149.227 312.183 l
149.674 305.796 l
150.12 320.594 l
150.566 311.963 l
151.013 296.906 l
151.459 310.956 l
151.906 298.375 l
153.245 317.065 l
153.691 308.743 l
154.138 312.516 l
154.584 300.748 l
155.03 308.571 l
155.477 297.171 l
155.923 301.947 l
156.37 316.931 l
156.816 299.548 l
157.262 299.759 l
157.709 316.436 l
158.155 310.148 l
158.602 308.074 l
159.494 323.732 l
159.941 299.022 l
160.387 312.494 l
160.834 309.666 l
161.28 284.63 l
161.726 305.931 l
162.173 306.331 l
162.619 304.574 l
163.512 317.419 l
163.958 317.549 l
164.405 319.998 l
164.851 315.121 l
165.298 320.729 l
165.744 305.97 l
166.19 313.554 l
166.637 317.888 l
167.083 282.035 l
167.53 310.724 l
167.976 324.897 l
168.422 304.531 l
168.869 305.76 l
169.315 305.079 l
169.762 323.104 l
170.208 322.827 l
170.654 316.836 l
171.101 300.535 l
171.994 310.2 l
172.44 317.976 l
172.886 307.524 l
173.333 310.476 l
173.779 298.124 l
174.226 307.269 l
174.672 312.454 l
175.118 306.301 l
175.565 304.145 l
176.011 305.887 l
176.458 311.339 l
176.904 311.543 l
177.35 309.257 l
177.797 299.886 l
178.243 296.106 l
178.69 310.294 l
179.136 315.191 l
179.582 301.674 l
180.029 303.233 l
180.475 317.764 l
180.922 300.097 l
181.368 324.733 l
181.814 309.87 l
182.261 300.785 l
182.707 301.377 l
183.154 309.057 l
183.6 305.262 l
184.046 307.59 l
184.493 308.193 l
184.939 291.48 l
185.386 303.156 l
186.278 315.921 l
186.725 309.393 l
187.171 304.942 l
187.618 306.204 l
188.064 304.641 l
188.51 300.391 l
188.957 304.542 l
189.403 310.844 l
189.85 311.142 l
190.296 308.436 l
190.742 308.797 l
191.189 305.805 l
191.635 307.455 l
192.082 309.892 l
192.974 325.702 l
193.421 309.257 l
193.867 306.144 l
194.314 320.474 l
194.76 315.154 l
195.206 300.691 l
195.653 309.203 l
196.099 305.144 l
196.546 292.149 l
196.992 316.105 l
197.438 317.732 l
197.885 308.345 l
198.331 313.369 l
198.778 301.907 l
199.224 312.216 l
199.67 309.582 l
200.117 310.241 l
200.563 313.03 l
201.456 304.671 l
201.902 297.704 l
202.349 325.038 l
202.795 309.461 l
203.242 310.437 l
203.688 295.011 l
204.134 296.278 l
204.581 318.139 l
205.027 314.136 l
205.474 316.887 l
205.92 318.64 l
206.366 314.674 l
206.813 312.698 l
207.259 314.559 l
207.706 311.532 l
208.152 295.499 l
208.598 304.442 l
209.045 301.794 l
209.491 300.396 l
209.938 312.016 l
210.384 320.697 l
210.83 301.075 l
211.277 303.018 l
211.723 290.496 l
212.17 316.244 l
212.616 321.257 l
213.509 310.433 l
213.955 319.465 l
214.402 310.931 l
214.848 315.242 l
215.294 323.52 l
215.741 310.669 l
216.187 318.272 l
216.634 309.51 l
217.08 296.462 l
217.526 312.936 l
218.419 321.633 l
218.866 317.691 l
219.312 305.669 l
219.758 306.354 l
220.205 312.352 l
220.651 294.132 l
221.098 315.639 l
221.544 324.412 l
221.99 312.31 l
222.437 317.173 l
222.883 310.124 l
223.33 321.169 l
223.776 310.991 l
224.222 296.624 l
224.669 313.541 l
225.115 315.143 l
225.562 286.77 l
226.008 318.846 l
226.454 316.115 l
226.901 319.395 l
227.794 308.848 l
228.24 317.13 l
229.133 301.478 l
229.579 316.902 l
230.026 312.938 l
230.472 320.014 l
230.918 315.292 l
231.811 309.796 l
232.258 305.374 l
232.704 318.462 l
233.15 310.42 l
233.597 317.309 l
234.043 305.246 l
234.936 328.256 l
235.382 324.166 l
235.829 323.762 l
236.275 315.685 l
236.722 320.402 l
237.168 320.002 l
237.614 321.781 l
238.061 315.68 l
238.507 323.127 l
238.954 327.058 l
239.4 311.64 l
239.846 322.826 l
240.293 330.508 l
240.739 317.369 l
241.186 316.614 l
241.632 309.513 l
242.078 300.241 l
242.525 323.212 l
242.971 336.156 l
243.864 322.555 l
244.31 301.728 l
244.757 305.86 l
245.203 306.68 l
245.65 314.241 l
246.542 322.116 l
246.989 307.353 l
247.435 322.493 l
247.882 312.105 l
248.328 326.135 l
248.774 325.104 l
249.221 327.029 l
249.667 315.343 l
250.114 315.972 l
250.56 297.034 l
251.006 334.058 l
251.453 323.837 l
251.899 322.958 l
252.346 325.865 l
252.792 308.378 l
253.238 336.069 l
254.131 319.606 l
254.578 323.813 l
255.024 316.936 l
255.917 320.452 l
256.363 319.073 l
256.81 329.095 l
257.256 325.884 l
257.702 310.387 l
258.149 316.59 l
259.042 323.501 l
259.488 319.86 l
259.934 331.051 l
260.381 317.166 l
260.827 318.043 l
261.274 316.549 l
261.72 299.762 l
262.166 317.352 l
262.613 320.401 l
263.059 297.91 l
263.506 323.444 l
263.952 325.321 l
264.398 313.229 l
264.845 314.027 l
265.291 303.049 l
265.738 324.32 l
266.184 324.818 l
266.63 321.076 l
267.077 319.656 l
267.523 320.321 l
267.97 331.865 l
268.416 313.69 l
268.862 330.765 l
269.309 315.262 l
269.755 317.825 l
270.202 312.141 l
270.648 314.035 l
271.094 325.272 l
271.541 322.211 l
271.987 326.773 l
272.434 318.107 l
272.88 324.835 l
273.326 319.113 l
273.773 307.548 l
274.219 291.71 l
274.666 329.903 l
275.112 327.837 l
275.558 310.421 l
276.005 320.368 l
276.451 321.657 l
276.898 330.356 l
277.344 312.033 l
277.79 322.904 l
278.237 316.024 l
278.683 325.371 l
279.13 330.124 l
279.576 321.025 l
280.022 322.232 l
280.469 324.23 l
281.362 319.57 l
281.808 326.366 l
282.254 324.08 l
283.147 332.959 l
283.594 322.439 l
284.04 333.267 l
284.486 330.2 l
284.933 320.248 l
285.379 325.522 l
285.826 317.323 l
286.272 324.009 l
286.718 321.463 l
287.165 315.678 l
287.611 298.59 l
288.058 329.514 l
288.504 314.784 l
288.95 320.064 l
289.397 305.184 l
289.843 311.953 l
290.29 313.397 l
290.736 329.49 l
291.182 313.537 l
291.629 329.652 l
292.075 308.617 l
293.414 326.027 l
293.861 311.611 l
294.307 323.625 l
294.754 325.941 l
295.2 312.721 l
295.646 323.768 l
296.093 327.381 l
296.539 329.832 l
296.986 326.769 l
297.432 310.593 l
298.325 329.17 l
298.771 318.109 l
299.218 324.285 l
299.664 325.961 l
300.11 325.207 l
300.557 309.453 l
301.003 318.952 l
301.45 325.384 l
301.896 322.022 l
302.342 303.016 l
302.789 324.68 l
303.235 326.721 l
303.682 335.774 l
304.128 319.232 l
304.574 320.645 l
305.021 326.133 l
305.467 329.241 l
305.914 324.33 l
306.36 328.733 l
306.806 327.747 l
307.253 318.477 l
307.699 322.021 l
308.146 316.582 l
308.592 314.233 l
309.038 318.954 l
309.485 328.767 l
309.931 330.739 l
310.378 320.898 l
310.824 332.871 l
311.27 319.282 l
311.717 323.578 l
312.163 307.024 l
312.61 328.289 l
313.056 331.003 l
313.502 322.894 l
313.949 322.69 l
314.395 336.035 l
315.288 313.797 l
315.734 319.168 l
316.181 317.5 l
316.627 321.158 l
317.074 318.806 l
317.52 331.256 l
317.966 325.471 l
318.413 326.482 l
318.859 328.842 l
319.306 322.66 l
320.198 297.216 l
320.645 320.501 l
321.091 324.308 l
321.538 324.222 l
321.984 333.103 l
322.43 324.385 l
322.877 322.523 l
323.323 327.913 l
323.77 305.489 l
324.216 319.202 l
324.662 315.364 l
325.109 327.949 l
325.555 326.623 l
326.002 329.74 l
326.448 321.331 l
326.894 315.528 l
327.341 335.632 l
327.787 320.957 l
328.234 317.01 l
328.68 315.489 l
329.126 326.057 l
329.573 319.754 l
330.019 325.532 l
330.466 317.57 l
330.912 321.783 l
331.358 313.571 l
331.805 322.189 l
332.251 311.318 l
332.698 314.538 l
333.144 323.4 l
333.59 324.182 l
334.037 321.918 l
334.483 317.518 l
334.93 309.771 l
335.376 315.198 l
335.822 325.699 l
336.269 327.705 l
336.715 321.208 l
337.162 320.687 l
337.608 328.237 l
338.054 323.858 l
338.501 328.88 l
339.394 315.704 l
339.84 304.244 l
340.286 321.889 l
340.733 317.238 l
341.179 316.32 l
341.626 316.577 l
342.072 324.453 l
342.518 324.299 l
342.965 333.502 l
343.411 325.143 l
343.858 308.775 l
344.304 322.071 l
344.75 328.687 l
345.643 320.2 l
346.09 318.112 l
346.536 322.202 l
346.982 303.157 l
347.875 318.272 l
348.322 321.361 l
348.768 307.733 l
349.661 324.828 l
350.107 322.407 l
350.554 321.295 l
351 326.594 l
351.446 316.639 l
351.893 316.789 l
352.339 310.661 l
352.786 313.819 l
353.232 317.93 l
353.678 320.738 l
354.125 313.886 l
354.571 325.484 l
355.018 324.102 l
355.464 314.922 l
355.91 302.376 l
356.357 318.52 l
356.803 327.98 l
357.25 319.265 l
357.696 320.053 l
358.142 302.091 l
358.589 323.531 l
359.035 319.255 l
359.482 318.073 l
359.928 317.848 l
360.374 319.696 l
360.821 325.641 l
361.714 311.456 l
362.16 324.499 l
362.606 330.295 l
363.053 324.408 l
363.499 325.327 l
363.946 320.588 l
364.392 327.578 l
364.838 329.487 l
365.285 318.776 l
365.731 329.008 l
366.178 334.536 l
366.624 315.275 l
367.07 315.399 l
367.517 313.043 l
367.963 319.93 l
368.41 320.391 l
368.856 333.417 l
369.302 333.648 l
369.749 323.994 l
370.195 337.833 l
370.642 317.029 l
371.534 328.075 l
371.981 312.979 l
372.427 318.762 l
372.874 315.583 l
373.32 310.669 l
373.766 329.136 l
374.659 313.591 l
375.106 330.006 l
375.552 320.631 l
375.998 308.346 l
376.445 326.79 l
376.891 325.416 l
377.784 317.353 l
378.23 316.249 l
378.677 303.531 l
379.123 307.142 l
379.57 321.144 l
380.016 328.395 l
380.462 321.233 l
380.909 321.611 l
381.355 315.712 l
381.802 313.584 l
382.248 327.985 l
382.694 318.741 l
383.141 306.123 l
383.587 329.771 l
384.034 319.92 l
384.48 326.764 l
384.926 322.681 l
385.373 322.92 l
385.819 331.89 l
386.266 313.406 l
386.712 325.269 l
387.158 322.916 l
387.605 325.559 l
388.051 326.869 l
388.498 323.244 l
388.944 322.165 l
389.39 307.009 l
389.837 326.226 l
390.283 322.726 l
390.73 324.624 l
391.176 328.697 l
391.622 312.603 l
392.069 336.797 l
392.515 322.778 l
392.962 319.499 l
393.408 331.903 l
393.854 323.394 l
394.301 329.885 l
394.747 329.852 l
395.194 315.135 l
395.64 331.218 l
396.086 338.625 l
396.533 316.287 l
396.979 307.868 l
397.426 318.689 l
397.872 324.85 l
398.318 324.121 l
398.765 331.216 l
399.211 334.926 l
399.658 334.81 l
400.104 328.01 l
400.55 317.042 l
401.89 326.948 l
402.336 327.038 l
402.782 329.694 l
403.229 326.858 l
403.675 320.047 l
404.122 317.312 l
404.568 313.564 l
405.014 326.677 l
405.461 332.341 l
405.907 322.044 l
406.354 320.097 l
406.8 327.986 l
407.246 321.074 l
407.693 324.409 l
408.139 318.544 l
408.586 315.704 l
409.032 328.152 l
409.478 327.936 l
409.925 319.34 l
410.371 316.655 l
410.818 311.801 l
411.264 321.362 l
411.71 327.326 l
412.157 324.673 l
412.603 325.984 l
413.05 328.507 l
413.496 336.418 l
413.942 326.023 l
414.389 325.419 l
414.835 327.007 l
415.282 324.243 l
415.728 337.438 l
416.174 322.185 l
416.621 329.205 l
417.067 320.062 l
417.514 320.833 l
417.96 328.58 l
418.406 328.046 l
418.853 320.395 l
419.299 326.693 l
419.746 328.082 l
420.192 320.156 l
420.638 314.613 l
421.085 316.699 l
421.531 331.005 l
421.978 326.898 l
422.424 326.808 l
422.87 338.283 l
423.317 324.81 l
423.763 318.652 l
424.21 318.182 l
424.656 323.962 l
425.102 328.186 l
425.549 327.751 l
425.995 333.899 l
426.888 323.581 l
427.334 334.46 l
427.781 321.729 l
428.227 318.643 l
428.674 313.199 l
429.12 322.792 l
429.566 325.852 l
430.013 327.83 l
430.459 327.626 l
430.906 331.836 l
431.352 332.826 l
431.798 312.103 l
432.245 327.212 l
432.691 326.726 l
433.138 323.224 l
433.584 328.252 l
434.03 321.309 l
434.477 323.275 l
434.923 318.439 l
435.37 336.83 l
435.816 330.582 l
436.262 327.667 l
436.709 335.064 l
437.155 329.468 l
437.602 317.654 l
438.048 322.869 l
438.494 331.915 l
438.941 329.643 l
439.387 331.638 l
439.834 332.451 l
440.28 320.478 l
440.726 324.281 l
441.173 334.782 l
441.619 336.82 l
442.066 333.188 l
442.512 336.214 l
442.958 327.079 l
443.405 329.736 l
443.851 334.043 l
444.298 326.448 l
444.744 328.646 l
445.19 328.907 l
445.637 309.901 l
446.083 327.989 l
446.53 325.919 l
446.976 328.801 l
447.422 322.137 l
447.869 332.812 l
448.315 335.146 l
448.762 326.492 l
449.208 323.663 l
449.654 330.861 l
450.101 324.324 l
450.547 321.553 l
451.44 326.043 l
451.886 339.176 l
452.333 339.644 l
452.779 309.967 l
453.226 318.043 l
453.672 334.47 l
454.118 324.782 l
454.565 330.446 l
455.011 326.471 l
455.458 330.976 l
455.904 323.723 l
456.35 330.676 l
456.797 324.027 l
457.243 329.634 l
457.69 325.904 l
458.136 316.955 l
458.582 331.991 l
459.029 328.619 l
459.475 319.767 l
459.922 326.042 l
460.368 326.574 l
460.814 320.232 l
461.261 318.44 l
461.707 324.689 l
462.154 324.783 l
462.6 327.264 l
463.046 334.088 l
463.493 316.1 l
463.939 318.426 l
464.386 327.064 l
464.832 327.636 l
465.278 325.811 l
465.725 323.048 l
466.171 325.304 l
466.618 332.798 l
467.064 319.296 l
467.51 326.733 l
467.957 326.223 l
468.403 329.322 l
468.85 289.198 l
469.296 319.238 l
469.742 313.888 l
470.189 329.249 l
470.635 328.716 l
471.082 327.751 l
471.528 312.895 l
471.974 319.429 l
472.421 317.311 l
472.867 323.411 l
473.314 323.428 l
473.76 330.528 l
474.206 316.39 l
475.099 333.156 l
475.546 318.934 l
475.992 320.482 l
476.438 311.267 l
476.885 326.252 l
477.331 315.996 l
477.778 316.882 l
478.224 314.538 l
478.67 332.133 l
479.117 329.335 l
479.563 304.263 l
480.01 313.766 l
480.456 332.127 l
480.902 331.277 l
481.349 322.856 l
482.242 329.436 l
482.688 329.841 l
483.134 332.12 l
483.581 324.829 l
484.027 327.572 l
484.474 316.492 l
484.92 326.675 l
485.366 331.344 l
485.813 322.351 l
486.259 323.377 l
486.706 322.765 l
487.152 327.483 l
487.598 326.101 l
488.045 318.766 l
488.491 325.843 l
488.938 315.535 l
489.384 327.565 l
489.83 326.681 l
490.277 315.699 l
490.723 337.201 l
491.17 329.668 l
491.616 315.671 l
492.062 327.895 l
492.509 328.348 l
492.955 326.071 l
493.402 327.702 l
493.848 342.724 l
494.294 324.419 l
494.741 331.094 l
495.187 325.306 l
495.634 323.05 l
496.08 312.548 l
496.526 323.956 l
496.973 312.763 l
497.419 311.79 l
497.866 327.393 l
498.312 334.6 l
498.758 323.192 l
499.205 318.147 l
499.651 325.121 l
500.098 326.944 l
500.544 326.811 l
500.99 320.116 l
501.437 328.771 l
501.883 318.512 l
502.33 332.246 l
502.776 308.883 l
503.222 324.097 l
503.669 310.326 l
504.115 302.848 l
504.562 310.934 l
505.008 307.875 l
505.454 318.44 l
505.901 309.791 l
506.347 330.36 l
506.794 328.978 l
507.24 333.563 l
507.686 325.995 l
508.133 323.562 l
508.579 314.063 l
509.026 310.518 l
509.918 338.865 l
510.365 322.367 l
510.811 313.807 l
511.258 315.558 l
511.704 318.002 l
512.15 317.892 l
513.043 327.136 l
513.49 333.154 l
513.936 327.131 l
514.382 330.823 l
514.829 329.211 l
515.275 323.334 l
515.722 329.177 l
516.614 314.352 l
517.061 338.813 l
517.507 311.141 l
517.954 322.093 l
518.4 330.039 l
518.846 330.192 l
518.846 330.192 l
stroke
grestore
0.500 setlinewidth
0 setlinecap
gsave
/o {
gsave
newpath
translate
0.5 setlinewidth
1 setlinejoin
0 setlinecap
0 0 m
0 4 l
gsave
0.000 setgray
fill
grestore
stroke
grestore
} bind def
72 43.2 o
grestore
gsave
/o {
gsave
newpath
translate
0.5 setlinewidth
1 setlinejoin
0 setlinecap
0 0 m
0 -4 l
gsave
0.000 setgray
fill
grestore
stroke
grestore
} bind def
72 388.8 o
grestore
/BitstreamVeraSans-Roman findfont
12.000 scalefont
setfont
gsave
68.976562 30.075000 translate
0.000000 rotate
0.000000 0.000000 m /zero glyphshow
grestore
gsave
/o {
gsave
newpath
translate
0.5 setlinewidth
1 setlinejoin
0 setlinecap
0 0 m
0 4 l
gsave
0.000 setgray
fill
grestore
stroke
grestore
} bind def
161.28 43.2 o
grestore
gsave
/o {
gsave
newpath
translate
0.5 setlinewidth
1 setlinejoin
0 setlinecap
0 0 m
0 -4 l
gsave
0.000 setgray
fill
grestore
stroke
grestore
} bind def
161.28 388.8 o
grestore
gsave
150.655000 30.075000 translate
0.000000 rotate
0.000000 0.000000 m /two glyphshow
7.634766 0.000000 m /zero glyphshow
15.269531 0.000000 m /zero glyphshow
grestore
gsave
/o {
gsave
newpath
translate
0.5 setlinewidth
1 setlinejoin
0 setlinecap
0 0 m
0 4 l
gsave
0.000 setgray
fill
grestore
stroke
grestore
} bind def
250.56 43.2 o
grestore
gsave
/o {
gsave
newpath
translate
0.5 setlinewidth
1 setlinejoin
0 setlinecap
0 0 m
0 -4 l
gsave
0.000 setgray
fill
grestore
stroke
grestore
} bind def
250.56 388.8 o
grestore
gsave
239.794375 30.075000 translate
0.000000 rotate
0.000000 0.000000 m /four glyphshow
7.634766 0.000000 m /zero glyphshow
15.269531 0.000000 m /zero glyphshow
grestore
gsave
/o {
gsave
newpath
translate
0.5 setlinewidth
1 setlinejoin
0 setlinecap
0 0 m
0 4 l
gsave
0.000 setgray
fill
grestore
stroke
grestore
} bind def
339.84 43.2 o
grestore
gsave
/o {
gsave
newpath
translate
0.5 setlinewidth
1 setlinejoin
0 setlinecap
0 0 m
0 -4 l
gsave
0.000 setgray
fill
grestore
stroke
grestore
} bind def
339.84 388.8 o
grestore
gsave
329.199375 30.075000 translate
0.000000 rotate
0.000000 0.000000 m /six glyphshow
7.634766 0.000000 m /zero glyphshow
15.269531 0.000000 m /zero glyphshow
grestore
gsave
/o {
gsave
newpath
translate
0.5 setlinewidth
1 setlinejoin
0 setlinecap
0 0 m
0 4 l
gsave
0.000 setgray
fill
grestore
stroke
grestore
} bind def
429.12 43.2 o
grestore
gsave
/o {
gsave
newpath
translate
0.5 setlinewidth
1 setlinejoin
0 setlinecap
0 0 m
0 -4 l
gsave
0.000 setgray
fill
grestore
stroke
grestore
} bind def
429.12 388.8 o
grestore
gsave
418.463750 30.075000 translate
0.000000 rotate
0.000000 0.000000 m /eight glyphshow
7.634766 0.000000 m /zero glyphshow
15.269531 0.000000 m /zero glyphshow
grestore
gsave
/o {
gsave
newpath
translate
0.5 setlinewidth
1 setlinejoin
0 setlinecap
0 0 m
0 4 l
gsave
0.000 setgray
fill
grestore
stroke
grestore
} bind def
518.4 43.2 o
grestore
gsave
/o {
gsave
newpath
translate
0.5 setlinewidth
1 setlinejoin
0 setlinecap
0 0 m
0 -4 l
gsave
0.000 setgray
fill
grestore
stroke
grestore
} bind def
518.4 388.8 o
grestore
gsave
504.173437 30.075000 translate
0.000000 rotate
0.000000 0.000000 m /one glyphshow
7.634766 0.000000 m /zero glyphshow
15.269531 0.000000 m /zero glyphshow
22.904297 0.000000 m /zero glyphshow
grestore
gsave
277.317187 13.450000 translate
0.000000 rotate
0.000000 0.000000 m /R glyphshow
7.837891 0.000000 m /o glyphshow
15.179688 0.000000 m /u glyphshow
22.785156 0.000000 m /n glyphshow
30.390625 0.000000 m /d glyphshow
grestore
gsave
/o {
gsave
newpath
translate
0.5 setlinewidth
1 setlinejoin
0 setlinecap
0 0 m
4 0 l
gsave
0.000 setgray
fill
grestore
stroke
grestore
} bind def
72 43.2 o
grestore
gsave
/o {
gsave
newpath
translate
0.5 setlinewidth
1 setlinejoin
0 setlinecap
0 0 m
-4 0 l
gsave
0.000 setgray
fill
grestore
stroke
grestore
} bind def
518.4 43.2 o
grestore
gsave
61.953125 39.887500 translate
0.000000 rotate
0.000000 0.000000 m /zero glyphshow
grestore
gsave
/o {
gsave
newpath
translate
0.5 setlinewidth
1 setlinejoin
0 setlinecap
0 0 m
4 0 l
gsave
0.000 setgray
fill
grestore
stroke
grestore
} bind def
72 92.5714 o
grestore
gsave
/o {
gsave
newpath
translate
0.5 setlinewidth
1 setlinejoin
0 setlinecap
0 0 m
-4 0 l
gsave
0.000 setgray
fill
grestore
stroke
grestore
} bind def
518.4 92.5714 o
grestore
gsave
62.781250 89.258929 translate
0.000000 rotate
0.000000 0.000000 m /one glyphshow
grestore
gsave
/o {
gsave
newpath
translate
0.5 setlinewidth
1 setlinejoin
0 setlinecap
0 0 m
4 0 l
gsave
0.000 setgray
fill
grestore
stroke
grestore
} bind def
72 141.943 o
grestore
gsave
/o {
gsave
newpath
translate
0.5 setlinewidth
1 setlinejoin
0 setlinecap
0 0 m
-4 0 l
gsave
0.000 setgray
fill
grestore
stroke
grestore
} bind def
518.4 141.943 o
grestore
gsave
62.437500 138.630357 translate
0.000000 rotate
0.000000 0.000000 m /two glyphshow
grestore
gsave
/o {
gsave
newpath
translate
0.5 setlinewidth
1 setlinejoin
0 setlinecap
0 0 m
4 0 l
gsave
0.000 setgray
fill
grestore
stroke
grestore
} bind def
72 191.314 o
grestore
gsave
/o {
gsave
newpath
translate
0.5 setlinewidth
1 setlinejoin
0 setlinecap
0 0 m
-4 0 l
gsave
0.000 setgray
fill
grestore
stroke
grestore
} bind def
518.4 191.314 o
grestore
gsave
62.250000 188.001786 translate
0.000000 rotate
0.000000 0.000000 m /three glyphshow
grestore
gsave
/o {
gsave
newpath
translate
0.5 setlinewidth
1 setlinejoin
0 setlinecap
0 0 m
4 0 l
gsave
0.000 setgray
fill
grestore
stroke
grestore
} bind def
72 240.686 o
grestore
gsave
/o {
gsave
newpath
translate
0.5 setlinewidth
1 setlinejoin
0 setlinecap
0 0 m
-4 0 l
gsave
0.000 setgray
fill
grestore
stroke
grestore
} bind def
518.4 240.686 o
grestore
gsave
61.625000 237.373214 translate
0.000000 rotate
0.000000 0.000000 m /four glyphshow
grestore
gsave
/o {
gsave
newpath
translate
0.5 setlinewidth
1 setlinejoin
0 setlinecap
0 0 m
4 0 l
gsave
0.000 setgray
fill
grestore
stroke
grestore
} bind def
72 290.057 o
grestore
gsave
/o {
gsave
newpath
translate
0.5 setlinewidth
1 setlinejoin
0 setlinecap
0 0 m
-4 0 l
gsave
0.000 setgray
fill
grestore
stroke
grestore
} bind def
518.4 290.057 o
grestore
gsave
62.328125 286.744643 translate
0.000000 rotate
0.000000 0.000000 m /five glyphshow
grestore
gsave
/o {
gsave
newpath
translate
0.5 setlinewidth
1 setlinejoin
0 setlinecap
0 0 m
4 0 l
gsave
0.000 setgray
fill
grestore
stroke
grestore
} bind def
72 339.429 o
grestore
gsave
/o {
gsave
newpath
translate
0.5 setlinewidth
1 setlinejoin
0 setlinecap
0 0 m
-4 0 l
gsave
0.000 setgray
fill
grestore
stroke
grestore
} bind def
518.4 339.429 o
grestore
gsave
61.968750 336.116071 translate
0.000000 rotate
0.000000 0.000000 m /six glyphshow
grestore
gsave
/o {
gsave
newpath
translate
0.5 setlinewidth
1 setlinejoin
0 setlinecap
0 0 m
4 0 l
gsave
0.000 setgray
fill
grestore
stroke
grestore
} bind def
72 388.8 o
grestore
gsave
/o {
gsave
newpath
translate
0.5 setlinewidth
1 setlinejoin
0 setlinecap
0 0 m
-4 0 l
gsave
0.000 setgray
fill
grestore
stroke
grestore
} bind def
518.4 388.8 o
grestore
gsave
62.375000 385.487500 translate
0.000000 rotate
0.000000 0.000000 m /seven glyphshow
grestore
gsave
54.125000 184.234375 translate
90.000000 rotate
0.000000 0.000000 m /T glyphshow
5.330078 0.000000 m /o glyphshow
12.671875 0.000000 m /t glyphshow
17.376953 0.000000 m /a glyphshow
24.730469 0.000000 m /l glyphshow
28.064453 0.000000 m /space glyphshow
31.878906 0.000000 m /s glyphshow
38.130859 0.000000 m /c glyphshow
44.728516 0.000000 m /o glyphshow
52.070312 0.000000 m /r glyphshow
56.753906 0.000000 m /e glyphshow
grestore
gsave
72.000000 391.800000 translate
0.000000 rotate
0.000000 0.000000 m /one glyphshow
7.634766 0.000000 m /e glyphshow
15.017578 0.000000 m /eight glyphshow
grestore
1.000 setlinewidth
gsave
72 388.8 m
518.4 388.8 l
stroke
grestore
gsave
518.4 43.2 m
518.4 388.8 l
stroke
grestore
gsave
72 43.2 m
518.4 43.2 l
stroke
grestore
gsave
72 43.2 m
72 388.8 l
stroke
grestore
/BitstreamVeraSans-Roman findfont
14.400 scalefont
setfont
gsave
29.746875 409.475000 translate
0.000000 rotate
0.000000 0.000000 m /H glyphshow
10.809326 0.000000 m /o glyphshow
19.604187 0.000000 m /w glyphshow
31.361084 0.000000 m /space glyphshow
35.930481 0.000000 m /t glyphshow
41.566772 0.000000 m /h glyphshow
50.677490 0.000000 m /e glyphshow
59.521484 0.000000 m /space glyphshow
64.090881 0.000000 m /t glyphshow
69.727173 0.000000 m /o glyphshow
78.522034 0.000000 m /t glyphshow
84.158325 0.000000 m /a glyphshow
92.967224 0.000000 m /l glyphshow
96.961060 0.000000 m /space glyphshow
101.530457 0.000000 m /s glyphshow
109.019775 0.000000 m /c glyphshow
116.923218 0.000000 m /o glyphshow
125.718079 0.000000 m /r glyphshow
131.253113 0.000000 m /e glyphshow
140.097107 0.000000 m /space glyphshow
144.666504 0.000000 m /o glyphshow
153.461365 0.000000 m /f glyphshow
158.522095 0.000000 m /space glyphshow
163.091492 0.000000 m /t glyphshow
168.727783 0.000000 m /h glyphshow
177.838501 0.000000 m /e glyphshow
186.682495 0.000000 m /space glyphshow
191.251892 0.000000 m /f glyphshow
196.312622 0.000000 m /l glyphshow
200.306458 0.000000 m /o glyphshow
209.101318 0.000000 m /c glyphshow
217.004761 0.000000 m /k glyphshow
225.329346 0.000000 m /space glyphshow
229.898743 0.000000 m /c glyphshow
237.802185 0.000000 m /h glyphshow
246.912903 0.000000 m /a glyphshow
255.721802 0.000000 m /n glyphshow
264.832520 0.000000 m /g glyphshow
273.957275 0.000000 m /e glyphshow
282.801270 0.000000 m /s glyphshow
290.290588 0.000000 m /space glyphshow
294.859985 0.000000 m /f glyphshow
299.920715 0.000000 m /o glyphshow
308.715576 0.000000 m /r glyphshow
314.625610 0.000000 m /space glyphshow
319.195007 0.000000 m /e glyphshow
328.039001 0.000000 m /a glyphshow
336.847900 0.000000 m /c glyphshow
344.751343 0.000000 m /h glyphshow
353.862061 0.000000 m /space glyphshow
358.431458 0.000000 m /r glyphshow
363.966492 0.000000 m /o glyphshow
372.761353 0.000000 m /u glyphshow
381.872070 0.000000 m /n glyphshow
390.982788 0.000000 m /d glyphshow
400.107544 0.000000 m /space glyphshow
404.676941 0.000000 m /o glyphshow
413.471802 0.000000 m /f glyphshow
418.532532 0.000000 m /space glyphshow
423.101929 0.000000 m /t glyphshow
428.738220 0.000000 m /h glyphshow
437.848938 0.000000 m /e glyphshow
446.692932 0.000000 m /space glyphshow
451.262329 0.000000 m /h glyphshow
460.373047 0.000000 m /i glyphshow
464.366882 0.000000 m /l glyphshow
468.360718 0.000000 m /l glyphshow
472.354553 0.000000 m /space glyphshow
476.923950 0.000000 m /c glyphshow
484.827393 0.000000 m /l glyphshow
488.821228 0.000000 m /i glyphshow
492.815063 0.000000 m /m glyphshow
506.818054 0.000000 m /b glyphshow
515.942810 0.000000 m /e glyphshow
524.786804 0.000000 m /r glyphshow
grestore
gsave
295.200000 393.800000 translate
0.000000 rotate

grestore

end
showpage
