%!PS-Adobe-3.0 EPSF-3.0
%%Title: /Users/Jacob/Documents/Uni/year3/project/graphs/new_hillclimber/SCAN_noRevert_total_1000_20150219.eps
%%Creator: matplotlib version 1.3.1, http://matplotlib.org/
%%CreationDate: Fri Feb 20 13:12:05 2015
%%Orientation: portrait
%%BoundingBox: 18 180 594 612
%%EndComments
%%BeginProlog
/mpldict 8 dict def
mpldict begin
/m { moveto } bind def
/l { lineto } bind def
/r { rlineto } bind def
/c { curveto } bind def
/cl { closepath } bind def
/box {
m
1 index 0 r
0 exch r
neg 0 r
cl
} bind def
/clipbox {
box
clip
newpath
} bind def
%!PS-Adobe-3.0 Resource-Font
%%Title: Bitstream Vera Sans
%%Copyright: Copyright (c) 2003 by Bitstream, Inc. All Rights Reserved.
%%Creator: Converted from TrueType to type 3 by PPR
25 dict begin
/_d{bind def}bind def
/_m{moveto}_d
/_l{lineto}_d
/_cl{closepath eofill}_d
/_c{curveto}_d
/_sc{7 -1 roll{setcachedevice}{pop pop pop pop pop pop}ifelse}_d
/_e{exec}_d
/FontName /BitstreamVeraSans-Roman def
/PaintType 0 def
/FontMatrix[.001 0 0 .001 0 0]def
/FontBBox[-183 -236 1287 928]def
/FontType 3 def
/Encoding [ /space /zero /one /two /four /six /eight /H /R /T /a /b /c /d /e /f /g /h /i /k /l /m /n /o /r /s /t /u /w ] def
/FontInfo 10 dict dup begin
/FamilyName (Bitstream Vera Sans) def
/FullName (Bitstream Vera Sans) def
/Notice (Copyright (c) 2003 by Bitstream, Inc. All Rights Reserved. Bitstream Vera is a trademark of Bitstream, Inc.) def
/Weight (Roman) def
/Version (Release 1.10) def
/ItalicAngle 0.0 def
/isFixedPitch false def
/UnderlinePosition -213 def
/UnderlineThickness 143 def
end readonly def
/CharStrings 29 dict dup begin
/space{318 0 0 0 0 0 _sc
}_d
/zero{636 0 66 -13 570 742 _sc
318 664 _m
267 664 229 639 203 589 _c
177 539 165 464 165 364 _c
165 264 177 189 203 139 _c
229 89 267 64 318 64 _c
369 64 407 89 433 139 _c
458 189 471 264 471 364 _c
471 464 458 539 433 589 _c
407 639 369 664 318 664 _c
318 742 _m
399 742 461 709 505 645 _c
548 580 570 486 570 364 _c
570 241 548 147 505 83 _c
461 19 399 -13 318 -13 _c
236 -13 173 19 130 83 _c
87 147 66 241 66 364 _c
66 486 87 580 130 645 _c
173 709 236 742 318 742 _c
_cl}_d
/one{636 0 110 0 544 729 _sc
124 83 _m
285 83 _l
285 639 _l
110 604 _l
110 694 _l
284 729 _l
383 729 _l
383 83 _l
544 83 _l
544 0 _l
124 0 _l
124 83 _l
_cl}_d
/two{{636 0 73 0 536 742 _sc
192 83 _m
536 83 _l
536 0 _l
73 0 _l
73 83 _l
110 121 161 173 226 239 _c
290 304 331 346 348 365 _c
380 400 402 430 414 455 _c
426 479 433 504 433 528 _c
433 566 419 598 392 622 _c
365 646 330 659 286 659 _c
255 659 222 653 188 643 _c
154 632 117 616 78 594 _c
78 694 _l
118 710 155 722 189 730 _c
223 738 255 742 284 742 _c
}_e{359 742 419 723 464 685 _c
509 647 532 597 532 534 _c
532 504 526 475 515 449 _c
504 422 484 390 454 354 _c
446 344 420 317 376 272 _c
332 227 271 164 192 83 _c
_cl}_e}_d
/four{636 0 49 0 580 729 _sc
378 643 _m
129 254 _l
378 254 _l
378 643 _l
352 729 _m
476 729 _l
476 254 _l
580 254 _l
580 172 _l
476 172 _l
476 0 _l
378 0 _l
378 172 _l
49 172 _l
49 267 _l
352 729 _l
_cl}_d
/six{{636 0 70 -13 573 742 _sc
330 404 _m
286 404 251 388 225 358 _c
199 328 186 286 186 234 _c
186 181 199 139 225 109 _c
251 79 286 64 330 64 _c
374 64 409 79 435 109 _c
461 139 474 181 474 234 _c
474 286 461 328 435 358 _c
409 388 374 404 330 404 _c
526 713 _m
526 623 _l
501 635 476 644 451 650 _c
425 656 400 659 376 659 _c
310 659 260 637 226 593 _c
}_e{192 549 172 482 168 394 _c
187 422 211 444 240 459 _c
269 474 301 482 336 482 _c
409 482 467 459 509 415 _c
551 371 573 310 573 234 _c
573 159 550 99 506 54 _c
462 9 403 -13 330 -13 _c
246 -13 181 19 137 83 _c
92 147 70 241 70 364 _c
70 479 97 571 152 639 _c
206 707 280 742 372 742 _c
396 742 421 739 447 735 _c
472 730 498 723 526 713 _c
_cl}_e}_d
/eight{{636 0 68 -13 568 742 _sc
318 346 _m
271 346 234 333 207 308 _c
180 283 167 249 167 205 _c
167 161 180 126 207 101 _c
234 76 271 64 318 64 _c
364 64 401 76 428 102 _c
455 127 469 161 469 205 _c
469 249 455 283 429 308 _c
402 333 365 346 318 346 _c
219 388 _m
177 398 144 418 120 447 _c
96 476 85 511 85 553 _c
85 611 105 657 147 691 _c
188 725 245 742 318 742 _c
}_e{390 742 447 725 489 691 _c
530 657 551 611 551 553 _c
551 511 539 476 515 447 _c
491 418 459 398 417 388 _c
464 377 501 355 528 323 _c
554 291 568 251 568 205 _c
568 134 546 80 503 43 _c
459 5 398 -13 318 -13 _c
237 -13 175 5 132 43 _c
89 80 68 134 68 205 _c
68 251 81 291 108 323 _c
134 355 171 377 219 388 _c
183 544 _m
183 506 194 476 218 455 _c
}_e{242 434 275 424 318 424 _c
360 424 393 434 417 455 _c
441 476 453 506 453 544 _c
453 582 441 611 417 632 _c
393 653 360 664 318 664 _c
275 664 242 653 218 632 _c
194 611 183 582 183 544 _c
_cl}_e}_d
/H{752 0 98 0 654 729 _sc
98 729 _m
197 729 _l
197 430 _l
555 430 _l
555 729 _l
654 729 _l
654 0 _l
555 0 _l
555 347 _l
197 347 _l
197 0 _l
98 0 _l
98 729 _l
_cl}_d
/R{{695 0 98 0 666 729 _sc
444 342 _m
465 334 486 319 506 296 _c
526 272 546 240 566 199 _c
666 0 _l
560 0 _l
467 187 _l
443 235 419 268 397 284 _c
374 300 343 308 304 308 _c
197 308 _l
197 0 _l
98 0 _l
98 729 _l
321 729 _l
404 729 466 711 507 677 _c
548 642 569 589 569 519 _c
569 473 558 434 537 404 _c
515 374 484 353 444 342 _c
197 648 _m
197 389 _l
321 389 _l
}_e{368 389 404 400 428 422 _c
452 444 465 476 465 519 _c
465 561 452 593 428 615 _c
404 637 368 648 321 648 _c
197 648 _l
_cl}_e}_d
/T{611 0 -2 0 614 729 _sc
-2 729 _m
614 729 _l
614 646 _l
355 646 _l
355 0 _l
256 0 _l
256 646 _l
-2 646 _l
-2 729 _l
_cl}_d
/a{{613 0 60 -13 522 560 _sc
343 275 _m
270 275 220 266 192 250 _c
164 233 150 205 150 165 _c
150 133 160 107 181 89 _c
202 70 231 61 267 61 _c
317 61 357 78 387 114 _c
417 149 432 196 432 255 _c
432 275 _l
343 275 _l
522 312 _m
522 0 _l
432 0 _l
432 83 _l
411 49 385 25 355 10 _c
325 -5 287 -13 243 -13 _c
187 -13 142 2 109 33 _c
76 64 60 106 60 159 _c
}_e{60 220 80 266 122 298 _c
163 329 224 345 306 345 _c
432 345 _l
432 354 _l
432 395 418 427 391 450 _c
364 472 326 484 277 484 _c
245 484 215 480 185 472 _c
155 464 127 453 100 439 _c
100 522 _l
132 534 164 544 195 550 _c
226 556 256 560 286 560 _c
365 560 424 539 463 498 _c
502 457 522 395 522 312 _c
_cl}_e}_d
/b{{635 0 91 -13 580 760 _sc
487 273 _m
487 339 473 390 446 428 _c
418 466 381 485 334 485 _c
286 485 249 466 222 428 _c
194 390 181 339 181 273 _c
181 207 194 155 222 117 _c
249 79 286 61 334 61 _c
381 61 418 79 446 117 _c
473 155 487 207 487 273 _c
181 464 _m
199 496 223 520 252 536 _c
281 552 316 560 356 560 _c
422 560 476 533 518 481 _c
559 428 580 359 580 273 _c
}_e{580 187 559 117 518 65 _c
476 13 422 -13 356 -13 _c
316 -13 281 -5 252 10 _c
223 25 199 49 181 82 _c
181 0 _l
91 0 _l
91 760 _l
181 760 _l
181 464 _l
_cl}_e}_d
/c{{550 0 55 -13 488 560 _sc
488 526 _m
488 442 _l
462 456 437 466 411 473 _c
385 480 360 484 334 484 _c
276 484 230 465 198 428 _c
166 391 150 339 150 273 _c
150 206 166 154 198 117 _c
230 80 276 62 334 62 _c
360 62 385 65 411 72 _c
437 79 462 90 488 104 _c
488 21 _l
462 9 436 0 410 -5 _c
383 -10 354 -13 324 -13 _c
242 -13 176 12 128 64 _c
}_e{79 115 55 185 55 273 _c
55 362 79 432 128 483 _c
177 534 244 560 330 560 _c
358 560 385 557 411 551 _c
437 545 463 537 488 526 _c
_cl}_e}_d
/d{{635 0 55 -13 544 760 _sc
454 464 _m
454 760 _l
544 760 _l
544 0 _l
454 0 _l
454 82 _l
435 49 411 25 382 10 _c
353 -5 319 -13 279 -13 _c
213 -13 159 13 117 65 _c
75 117 55 187 55 273 _c
55 359 75 428 117 481 _c
159 533 213 560 279 560 _c
319 560 353 552 382 536 _c
411 520 435 496 454 464 _c
148 273 _m
148 207 161 155 188 117 _c
215 79 253 61 301 61 _c
}_e{348 61 385 79 413 117 _c
440 155 454 207 454 273 _c
454 339 440 390 413 428 _c
385 466 348 485 301 485 _c
253 485 215 466 188 428 _c
161 390 148 339 148 273 _c
_cl}_e}_d
/e{{615 0 55 -13 562 560 _sc
562 296 _m
562 252 _l
149 252 _l
153 190 171 142 205 110 _c
238 78 284 62 344 62 _c
378 62 412 66 444 74 _c
476 82 509 95 541 113 _c
541 28 _l
509 14 476 3 442 -3 _c
408 -9 373 -13 339 -13 _c
251 -13 182 12 131 62 _c
80 112 55 181 55 268 _c
55 357 79 428 127 481 _c
175 533 241 560 323 560 _c
397 560 455 536 498 489 _c
}_e{540 441 562 377 562 296 _c
472 322 _m
471 371 457 410 431 440 _c
404 469 368 484 324 484 _c
274 484 234 469 204 441 _c
174 413 156 373 152 322 _c
472 322 _l
_cl}_e}_d
/f{352 0 23 0 371 760 _sc
371 760 _m
371 685 _l
285 685 _l
253 685 230 678 218 665 _c
205 652 199 629 199 595 _c
199 547 _l
347 547 _l
347 477 _l
199 477 _l
199 0 _l
109 0 _l
109 477 _l
23 477 _l
23 547 _l
109 547 _l
109 585 _l
109 645 123 690 151 718 _c
179 746 224 760 286 760 _c
371 760 _l
_cl}_d
/g{{635 0 55 -207 544 560 _sc
454 280 _m
454 344 440 395 414 431 _c
387 467 349 485 301 485 _c
253 485 215 467 188 431 _c
161 395 148 344 148 280 _c
148 215 161 165 188 129 _c
215 93 253 75 301 75 _c
349 75 387 93 414 129 _c
440 165 454 215 454 280 _c
544 68 _m
544 -24 523 -93 482 -139 _c
440 -184 377 -207 292 -207 _c
260 -207 231 -204 203 -200 _c
175 -195 147 -188 121 -178 _c
}_e{121 -91 _l
147 -105 173 -115 199 -122 _c
225 -129 251 -133 278 -133 _c
336 -133 380 -117 410 -87 _c
439 -56 454 -10 454 52 _c
454 96 _l
435 64 411 40 382 24 _c
353 8 319 0 279 0 _c
211 0 157 25 116 76 _c
75 127 55 195 55 280 _c
55 364 75 432 116 483 _c
157 534 211 560 279 560 _c
319 560 353 552 382 536 _c
411 520 435 496 454 464 _c
454 547 _l
544 547 _l
}_e{544 68 _l
_cl}_e}_d
/h{634 0 91 0 549 760 _sc
549 330 _m
549 0 _l
459 0 _l
459 327 _l
459 379 448 417 428 443 _c
408 469 378 482 338 482 _c
289 482 251 466 223 435 _c
195 404 181 362 181 309 _c
181 0 _l
91 0 _l
91 760 _l
181 760 _l
181 462 _l
202 494 227 519 257 535 _c
286 551 320 560 358 560 _c
420 560 468 540 500 501 _c
532 462 549 405 549 330 _c
_cl}_d
/i{278 0 94 0 184 760 _sc
94 547 _m
184 547 _l
184 0 _l
94 0 _l
94 547 _l
94 760 _m
184 760 _l
184 646 _l
94 646 _l
94 760 _l
_cl}_d
/k{579 0 91 0 576 760 _sc
91 760 _m
181 760 _l
181 311 _l
449 547 _l
564 547 _l
274 291 _l
576 0 _l
459 0 _l
181 267 _l
181 0 _l
91 0 _l
91 760 _l
_cl}_d
/l{278 0 94 0 184 760 _sc
94 760 _m
184 760 _l
184 0 _l
94 0 _l
94 760 _l
_cl}_d
/m{{974 0 91 0 889 560 _sc
520 442 _m
542 482 569 511 600 531 _c
631 550 668 560 711 560 _c
767 560 811 540 842 500 _c
873 460 889 403 889 330 _c
889 0 _l
799 0 _l
799 327 _l
799 379 789 418 771 444 _c
752 469 724 482 686 482 _c
639 482 602 466 575 435 _c
548 404 535 362 535 309 _c
535 0 _l
445 0 _l
445 327 _l
445 379 435 418 417 444 _c
398 469 369 482 331 482 _c
}_e{285 482 248 466 221 435 _c
194 404 181 362 181 309 _c
181 0 _l
91 0 _l
91 547 _l
181 547 _l
181 462 _l
201 495 226 520 255 536 _c
283 552 317 560 357 560 _c
397 560 430 550 458 530 _c
486 510 506 480 520 442 _c
_cl}_e}_d
/n{634 0 91 0 549 560 _sc
549 330 _m
549 0 _l
459 0 _l
459 327 _l
459 379 448 417 428 443 _c
408 469 378 482 338 482 _c
289 482 251 466 223 435 _c
195 404 181 362 181 309 _c
181 0 _l
91 0 _l
91 547 _l
181 547 _l
181 462 _l
202 494 227 519 257 535 _c
286 551 320 560 358 560 _c
420 560 468 540 500 501 _c
532 462 549 405 549 330 _c
_cl}_d
/o{612 0 55 -13 557 560 _sc
306 484 _m
258 484 220 465 192 427 _c
164 389 150 338 150 273 _c
150 207 163 156 191 118 _c
219 80 257 62 306 62 _c
354 62 392 80 420 118 _c
448 156 462 207 462 273 _c
462 337 448 389 420 427 _c
392 465 354 484 306 484 _c
306 560 _m
384 560 445 534 490 484 _c
534 433 557 363 557 273 _c
557 183 534 113 490 63 _c
445 12 384 -13 306 -13 _c
227 -13 165 12 121 63 _c
77 113 55 183 55 273 _c
55 363 77 433 121 484 _c
165 534 227 560 306 560 _c
_cl}_d
/r{411 0 91 0 411 560 _sc
411 463 _m
401 469 390 473 378 476 _c
366 478 353 480 339 480 _c
288 480 249 463 222 430 _c
194 397 181 350 181 288 _c
181 0 _l
91 0 _l
91 547 _l
181 547 _l
181 462 _l
199 495 224 520 254 536 _c
284 552 321 560 365 560 _c
371 560 378 559 386 559 _c
393 558 401 557 411 555 _c
411 463 _l
_cl}_d
/s{{521 0 54 -13 472 560 _sc
443 531 _m
443 446 _l
417 458 391 468 364 475 _c
336 481 308 485 279 485 _c
234 485 200 478 178 464 _c
156 450 145 430 145 403 _c
145 382 153 366 169 354 _c
185 342 217 330 265 320 _c
296 313 _l
360 299 405 279 432 255 _c
458 230 472 195 472 151 _c
472 100 452 60 412 31 _c
372 1 316 -13 246 -13 _c
216 -13 186 -10 154 -5 _c
}_e{122 0 89 8 54 20 _c
54 113 _l
87 95 120 82 152 74 _c
184 65 216 61 248 61 _c
290 61 323 68 346 82 _c
368 96 380 117 380 144 _c
380 168 371 187 355 200 _c
339 213 303 226 247 238 _c
216 245 _l
160 257 119 275 95 299 _c
70 323 58 356 58 399 _c
58 450 76 490 112 518 _c
148 546 200 560 268 560 _c
301 560 332 557 362 552 _c
391 547 418 540 443 531 _c
}_e{_cl}_e}_d
/t{392 0 27 0 368 702 _sc
183 702 _m
183 547 _l
368 547 _l
368 477 _l
183 477 _l
183 180 _l
183 135 189 106 201 94 _c
213 81 238 75 276 75 _c
368 75 _l
368 0 _l
276 0 _l
206 0 158 13 132 39 _c
106 65 93 112 93 180 _c
93 477 _l
27 477 _l
27 547 _l
93 547 _l
93 702 _l
183 702 _l
_cl}_d
/u{634 0 85 -13 543 547 _sc
85 216 _m
85 547 _l
175 547 _l
175 219 _l
175 167 185 129 205 103 _c
225 77 255 64 296 64 _c
344 64 383 79 411 110 _c
439 141 453 183 453 237 _c
453 547 _l
543 547 _l
543 0 _l
453 0 _l
453 84 _l
431 50 405 26 377 10 _c
348 -5 315 -13 277 -13 _c
214 -13 166 6 134 45 _c
101 83 85 140 85 216 _c
_cl}_d
/w{818 0 42 0 776 547 _sc
42 547 _m
132 547 _l
244 120 _l
356 547 _l
462 547 _l
574 120 _l
686 547 _l
776 547 _l
633 0 _l
527 0 _l
409 448 _l
291 0 _l
185 0 _l
42 547 _l
_cl}_d
end readonly def

/BuildGlyph
 {exch begin
 CharStrings exch
 2 copy known not{pop /.notdef}if
 true 3 1 roll get exec
 end}_d

/BuildChar {
 1 index /Encoding get exch get
 1 index /BuildGlyph get exec
}_d

FontName currentdict end definefont pop
end
%%EndProlog
mpldict begin
18 180 translate
576 432 0 0 clipbox
gsave
0 0 m
576 0 l
576 432 l
0 432 l
cl
1.000 setgray
fill
grestore
gsave
72 43.2 m
518.4 43.2 l
518.4 388.8 l
72 388.8 l
cl
1.000 setgray
fill
grestore
1.000 setlinewidth
1 setlinejoin
2 setlinecap
[] 0 setdash
0.000 setgray
gsave
446.4 345.6 72 43.2 clipbox
72 43.2 m
72.4464 146.88 l
72.8928 172.8 l
73.3392 179.28 l
73.7856 200.88 l
74.232 177.12 l
74.6784 192.24 l
75.1248 224.64 l
76.0176 259.2 l
76.464 259.2 l
76.9104 291.6 l
77.3568 306.72 l
77.8032 300.24 l
78.2496 291.6 l
78.696 285.12 l
79.1424 287.28 l
79.5888 287.28 l
80.0352 295.92 l
80.4816 293.76 l
80.928 270 l
81.3744 287.28 l
81.8208 311.04 l
82.2672 321.84 l
82.7136 319.68 l
83.16 293.76 l
83.6064 308.88 l
84.0528 313.2 l
84.4992 289.44 l
84.9456 287.28 l
85.392 263.52 l
86.2848 306.72 l
86.7312 317.52 l
87.1776 319.68 l
87.624 293.76 l
88.0704 295.92 l
88.5168 295.92 l
88.9632 291.6 l
89.4096 302.4 l
89.856 293.76 l
90.3024 280.8 l
90.7488 304.56 l
91.1952 295.92 l
91.6416 302.4 l
92.5344 321.84 l
92.9808 324 l
93.4272 311.04 l
93.8736 274.32 l
94.32 291.6 l
94.7664 293.76 l
95.2128 298.08 l
95.6592 317.52 l
96.1056 306.72 l
96.552 282.96 l
96.9984 289.44 l
97.4448 289.44 l
97.8912 304.56 l
98.3376 276.48 l
98.784 289.44 l
99.2304 291.6 l
99.6768 298.08 l
100.123 313.2 l
100.57 313.2 l
101.016 304.56 l
101.909 313.2 l
102.355 311.04 l
102.802 313.2 l
103.248 321.84 l
103.694 324 l
104.141 304.56 l
104.587 311.04 l
105.034 326.16 l
105.926 300.24 l
106.819 321.84 l
107.712 326.16 l
108.158 330.48 l
108.605 336.96 l
109.051 341.28 l
109.498 343.44 l
109.944 324 l
110.39 313.2 l
111.73 339.12 l
112.176 317.52 l
112.622 315.36 l
113.069 328.32 l
113.515 326.16 l
113.962 321.84 l
114.408 313.2 l
114.854 311.04 l
115.301 315.36 l
115.747 328.32 l
116.194 324 l
116.64 341.28 l
117.086 324 l
117.533 326.16 l
117.979 339.12 l
118.426 328.32 l
118.872 332.64 l
119.318 332.64 l
119.765 328.32 l
120.211 334.8 l
120.658 330.48 l
121.104 334.8 l
121.55 341.28 l
121.997 334.8 l
122.443 330.48 l
122.89 321.84 l
123.336 321.84 l
123.782 332.64 l
124.229 319.68 l
124.675 315.36 l
125.122 326.16 l
125.568 332.64 l
126.014 324 l
126.461 332.64 l
126.907 328.32 l
127.8 315.36 l
128.246 315.36 l
128.693 313.2 l
129.139 315.36 l
129.586 328.32 l
130.032 326.16 l
130.478 315.36 l
130.925 317.52 l
131.371 321.84 l
131.818 317.52 l
132.264 324 l
132.71 324 l
133.157 328.32 l
133.603 334.8 l
134.05 328.32 l
134.496 324 l
134.942 313.2 l
135.389 326.16 l
135.835 326.16 l
136.282 319.68 l
136.728 328.32 l
137.174 319.68 l
137.621 326.16 l
138.067 328.32 l
138.514 332.64 l
138.96 330.48 l
139.406 321.84 l
139.853 328.32 l
140.299 339.12 l
140.746 328.32 l
141.192 332.64 l
141.638 319.68 l
142.085 315.36 l
142.531 324 l
142.978 339.12 l
143.424 339.12 l
143.87 330.48 l
144.317 334.8 l
145.21 330.48 l
145.656 324 l
146.102 319.68 l
146.549 321.84 l
146.995 334.8 l
147.442 336.96 l
147.888 343.44 l
148.334 339.12 l
148.781 332.64 l
149.227 334.8 l
149.674 341.28 l
150.12 336.96 l
150.566 321.84 l
151.013 319.68 l
151.459 313.2 l
152.352 334.8 l
152.798 339.12 l
153.245 341.28 l
153.691 336.96 l
154.138 343.44 l
154.584 336.96 l
155.03 334.8 l
155.477 328.32 l
155.923 334.8 l
156.37 330.48 l
156.816 328.32 l
157.262 336.96 l
157.709 336.96 l
158.155 330.48 l
158.602 332.64 l
159.048 339.12 l
159.494 330.48 l
159.941 330.48 l
160.387 324 l
161.28 332.64 l
161.726 341.28 l
162.173 339.12 l
162.619 332.64 l
163.066 332.64 l
163.512 339.12 l
163.958 334.8 l
164.405 334.8 l
164.851 332.64 l
165.298 341.28 l
166.19 341.28 l
166.637 343.44 l
167.083 332.64 l
167.53 330.48 l
167.976 336.96 l
168.422 341.28 l
168.869 341.28 l
169.315 334.8 l
169.762 332.64 l
170.208 341.28 l
170.654 328.32 l
171.101 339.12 l
171.547 324 l
171.994 302.4 l
172.44 315.36 l
172.886 324 l
173.333 319.68 l
173.779 321.84 l
174.226 326.16 l
174.672 324 l
175.118 328.32 l
175.565 339.12 l
176.011 328.32 l
176.458 326.16 l
176.904 330.48 l
177.35 326.16 l
178.243 339.12 l
178.69 339.12 l
179.136 341.28 l
179.582 334.8 l
180.029 334.8 l
180.475 336.96 l
180.922 336.96 l
181.368 341.28 l
181.814 336.96 l
182.261 341.28 l
182.707 339.12 l
183.154 341.28 l
183.6 334.8 l
184.493 339.12 l
185.386 347.76 l
185.832 341.28 l
186.725 345.6 l
187.171 336.96 l
187.618 343.44 l
188.064 343.44 l
188.51 341.28 l
188.957 334.8 l
189.403 336.96 l
190.296 336.96 l
190.742 330.48 l
191.189 336.96 l
191.635 336.96 l
192.082 334.8 l
192.528 343.44 l
192.974 345.6 l
193.421 343.44 l
193.867 343.44 l
194.314 345.6 l
194.76 345.6 l
195.206 343.44 l
195.653 345.6 l
196.099 345.6 l
196.992 336.96 l
197.438 334.8 l
197.885 343.44 l
198.331 343.44 l
199.224 334.8 l
200.117 339.12 l
200.563 336.96 l
201.01 336.96 l
201.456 339.12 l
202.349 339.12 l
202.795 341.28 l
203.242 341.28 l
203.688 336.96 l
204.134 324 l
205.027 336.96 l
205.474 336.96 l
205.92 330.48 l
206.366 326.16 l
206.813 324 l
207.259 324 l
207.706 315.36 l
208.598 339.12 l
209.045 326.16 l
209.491 326.16 l
210.384 334.8 l
211.277 339.12 l
212.17 334.8 l
212.616 343.44 l
213.955 336.96 l
214.402 341.28 l
214.848 341.28 l
215.294 334.8 l
215.741 339.12 l
216.187 339.12 l
216.634 345.6 l
217.526 341.28 l
217.973 345.6 l
218.419 341.28 l
219.312 345.6 l
219.758 343.44 l
220.205 334.8 l
220.651 339.12 l
221.098 341.28 l
221.544 345.6 l
221.99 336.96 l
222.437 341.28 l
222.883 336.96 l
223.33 336.96 l
223.776 334.8 l
224.222 328.32 l
225.115 332.64 l
225.562 336.96 l
226.008 332.64 l
226.454 341.28 l
227.347 336.96 l
227.794 336.96 l
228.24 345.6 l
228.686 345.6 l
229.133 334.8 l
230.918 343.44 l
231.365 341.28 l
231.811 343.44 l
232.258 339.12 l
232.704 345.6 l
233.15 341.28 l
233.597 334.8 l
234.043 343.44 l
234.49 343.44 l
234.936 345.6 l
235.382 341.28 l
235.829 347.76 l
236.275 343.44 l
236.722 345.6 l
237.168 339.12 l
238.061 343.44 l
238.507 336.96 l
238.954 334.8 l
239.4 339.12 l
239.846 345.6 l
240.293 347.76 l
240.739 345.6 l
241.186 347.76 l
241.632 345.6 l
242.078 345.6 l
242.525 341.28 l
242.971 343.44 l
243.418 347.76 l
243.864 343.44 l
244.757 343.44 l
245.203 345.6 l
245.65 345.6 l
246.096 347.76 l
246.989 347.76 l
247.435 339.12 l
248.328 343.44 l
248.774 347.76 l
249.221 345.6 l
249.667 345.6 l
250.114 343.44 l
251.006 343.44 l
251.453 347.76 l
251.899 341.28 l
252.346 349.92 l
252.792 341.28 l
253.238 345.6 l
254.131 341.28 l
254.578 347.76 l
255.024 347.76 l
255.47 345.6 l
255.917 349.92 l
256.363 343.44 l
257.256 347.76 l
257.702 341.28 l
258.149 347.76 l
258.595 341.28 l
259.042 343.44 l
259.488 341.28 l
259.934 332.64 l
260.381 341.28 l
260.827 345.6 l
261.274 343.44 l
262.166 347.76 l
263.059 347.76 l
263.506 345.6 l
263.952 341.28 l
264.398 343.44 l
264.845 347.76 l
265.291 343.44 l
266.184 347.76 l
266.63 345.6 l
267.077 341.28 l
267.523 345.6 l
267.97 343.44 l
268.862 347.76 l
269.309 345.6 l
269.755 341.28 l
270.202 345.6 l
270.648 339.12 l
271.094 343.44 l
271.541 345.6 l
272.434 345.6 l
272.88 334.8 l
273.326 339.12 l
274.666 345.6 l
275.112 345.6 l
275.558 347.76 l
276.005 343.44 l
276.451 343.44 l
276.898 345.6 l
277.344 334.8 l
277.79 343.44 l
278.237 345.6 l
278.683 339.12 l
279.13 336.96 l
279.576 345.6 l
280.022 345.6 l
280.469 343.44 l
280.915 343.44 l
281.362 347.76 l
281.808 341.28 l
282.701 345.6 l
283.147 341.28 l
283.594 341.28 l
284.486 345.6 l
285.379 336.96 l
285.826 341.28 l
286.272 336.96 l
286.718 341.28 l
287.165 343.44 l
287.611 347.76 l
288.058 345.6 l
289.397 345.6 l
289.843 349.92 l
290.29 324 l
290.736 339.12 l
291.182 343.44 l
291.629 345.6 l
292.075 332.64 l
292.522 341.28 l
292.968 341.28 l
293.414 345.6 l
293.861 345.6 l
294.307 347.76 l
294.754 347.76 l
295.2 345.6 l
296.093 345.6 l
296.539 343.44 l
296.986 343.44 l
297.432 345.6 l
297.878 349.92 l
298.325 345.6 l
299.218 349.92 l
299.664 339.12 l
300.11 339.12 l
301.003 343.44 l
301.45 341.28 l
301.896 341.28 l
302.342 345.6 l
302.789 345.6 l
303.235 343.44 l
303.682 347.76 l
304.128 343.44 l
305.914 343.44 l
306.36 347.76 l
306.806 343.44 l
307.253 347.76 l
307.699 334.8 l
308.146 343.44 l
308.592 341.28 l
309.038 345.6 l
309.931 349.92 l
311.27 343.44 l
311.717 343.44 l
313.056 349.92 l
313.502 345.6 l
314.395 345.6 l
314.842 347.76 l
315.288 347.76 l
315.734 345.6 l
316.181 341.28 l
316.627 339.12 l
317.074 343.44 l
318.413 349.92 l
319.306 345.6 l
321.091 345.6 l
321.538 347.76 l
321.984 339.12 l
322.43 343.44 l
322.877 336.96 l
323.323 345.6 l
323.77 339.12 l
324.216 343.44 l
324.662 343.44 l
325.109 332.64 l
325.555 330.48 l
326.002 341.28 l
326.448 341.28 l
326.894 343.44 l
327.341 343.44 l
327.787 339.12 l
328.234 345.6 l
328.68 347.76 l
329.126 347.76 l
329.573 343.44 l
330.019 347.76 l
330.912 339.12 l
331.358 345.6 l
331.805 347.76 l
332.251 345.6 l
332.698 347.76 l
334.037 347.76 l
334.483 345.6 l
334.93 347.76 l
335.376 343.44 l
335.822 343.44 l
336.269 336.96 l
336.715 347.76 l
337.608 343.44 l
338.054 352.08 l
338.501 347.76 l
338.947 347.76 l
339.394 349.92 l
339.84 345.6 l
340.286 343.44 l
340.733 347.76 l
341.179 345.6 l
341.626 349.92 l
342.072 345.6 l
342.518 349.92 l
342.965 343.44 l
343.411 347.76 l
343.858 343.44 l
344.304 345.6 l
344.75 341.28 l
345.197 345.6 l
345.643 347.76 l
346.09 347.76 l
346.536 345.6 l
346.982 345.6 l
347.429 347.76 l
347.875 345.6 l
348.322 347.76 l
348.768 343.44 l
349.214 349.92 l
349.661 345.6 l
350.107 349.92 l
351 345.6 l
351.446 349.92 l
351.893 349.92 l
352.339 352.08 l
352.786 347.76 l
353.232 349.92 l
354.125 349.92 l
354.571 343.44 l
355.018 347.76 l
355.464 343.44 l
355.91 345.6 l
356.357 345.6 l
356.803 347.76 l
357.25 347.76 l
357.696 343.44 l
358.142 345.6 l
359.035 345.6 l
359.482 347.76 l
360.374 347.76 l
360.821 349.92 l
361.267 345.6 l
361.714 347.76 l
362.16 341.28 l
363.053 341.28 l
363.499 336.96 l
363.946 343.44 l
364.392 347.76 l
364.838 347.76 l
365.285 345.6 l
366.178 345.6 l
366.624 347.76 l
367.963 347.76 l
368.41 345.6 l
368.856 349.92 l
369.302 343.44 l
369.749 349.92 l
370.642 345.6 l
371.981 352.08 l
373.32 339.12 l
374.213 347.76 l
374.659 347.76 l
375.106 345.6 l
375.552 352.08 l
375.998 347.76 l
376.445 345.6 l
376.891 347.76 l
377.338 347.76 l
378.23 334.8 l
378.677 347.76 l
379.57 347.76 l
380.016 341.28 l
380.462 347.76 l
380.909 347.76 l
381.355 349.92 l
381.802 343.44 l
382.248 345.6 l
382.694 349.92 l
383.141 347.76 l
383.587 347.76 l
384.034 349.92 l
384.926 349.92 l
385.373 345.6 l
385.819 349.92 l
386.266 347.76 l
386.712 349.92 l
387.158 345.6 l
387.605 352.08 l
388.051 347.76 l
388.498 349.92 l
388.944 347.76 l
389.39 349.92 l
389.837 347.76 l
390.283 347.76 l
391.176 352.08 l
392.069 347.76 l
392.515 347.76 l
392.962 341.28 l
393.408 347.76 l
393.854 347.76 l
394.301 345.6 l
394.747 341.28 l
395.64 349.92 l
396.533 341.28 l
396.979 341.28 l
397.426 347.76 l
398.318 343.44 l
398.765 347.76 l
399.211 349.92 l
399.658 341.28 l
400.104 345.6 l
400.997 345.6 l
401.443 343.44 l
401.89 349.92 l
402.782 345.6 l
403.229 345.6 l
403.675 347.76 l
404.122 343.44 l
404.568 347.76 l
405.461 343.44 l
405.907 347.76 l
406.354 345.6 l
406.8 345.6 l
407.246 341.28 l
407.693 347.76 l
408.139 345.6 l
408.586 349.92 l
409.032 352.08 l
409.925 347.76 l
410.371 347.76 l
410.818 349.92 l
411.264 345.6 l
411.71 345.6 l
412.157 349.92 l
412.603 343.44 l
413.05 349.92 l
413.496 347.76 l
413.942 341.28 l
414.389 349.92 l
414.835 349.92 l
415.282 347.76 l
415.728 349.92 l
416.174 349.92 l
416.621 347.76 l
417.067 352.08 l
417.514 349.92 l
417.96 343.44 l
418.406 341.28 l
418.853 349.92 l
419.746 349.92 l
420.192 347.76 l
420.638 347.76 l
421.085 349.92 l
421.531 347.76 l
423.317 347.76 l
423.763 345.6 l
424.21 345.6 l
424.656 347.76 l
425.102 345.6 l
425.549 349.92 l
426.442 345.6 l
427.334 345.6 l
427.781 347.76 l
428.227 343.44 l
428.674 345.6 l
429.12 345.6 l
429.566 349.92 l
430.013 345.6 l
430.459 347.76 l
430.906 347.76 l
431.352 345.6 l
431.798 341.28 l
432.245 349.92 l
432.691 339.12 l
433.138 343.44 l
433.584 345.6 l
434.03 343.44 l
434.477 345.6 l
434.923 345.6 l
435.37 349.92 l
435.816 347.76 l
436.262 349.92 l
437.155 349.92 l
437.602 347.76 l
438.048 349.92 l
438.494 343.44 l
438.941 343.44 l
439.387 349.92 l
439.834 349.92 l
440.28 347.76 l
440.726 352.08 l
441.173 345.6 l
441.619 347.76 l
442.066 345.6 l
442.512 349.92 l
442.958 347.76 l
443.405 349.92 l
443.851 349.92 l
444.298 347.76 l
444.744 349.92 l
445.19 349.92 l
445.637 343.44 l
446.083 347.76 l
446.53 347.76 l
446.976 345.6 l
447.422 349.92 l
447.869 345.6 l
448.762 349.92 l
449.208 349.92 l
449.654 352.08 l
450.101 345.6 l
450.547 347.76 l
450.994 345.6 l
451.44 349.92 l
451.886 345.6 l
452.333 352.08 l
452.779 347.76 l
453.226 349.92 l
453.672 347.76 l
454.118 343.44 l
454.565 352.08 l
455.011 345.6 l
455.458 352.08 l
455.904 352.08 l
456.35 347.76 l
456.797 352.08 l
457.243 352.08 l
457.69 341.28 l
458.136 349.92 l
458.582 352.08 l
459.029 347.76 l
459.475 347.76 l
459.922 343.44 l
460.368 345.6 l
460.814 341.28 l
461.261 347.76 l
462.154 347.76 l
462.6 343.44 l
463.939 349.92 l
464.832 345.6 l
465.278 347.76 l
465.725 352.08 l
466.171 352.08 l
466.618 349.92 l
467.064 345.6 l
467.51 343.44 l
467.957 347.76 l
468.403 345.6 l
468.85 345.6 l
469.296 349.92 l
469.742 345.6 l
471.082 345.6 l
471.528 349.92 l
471.974 347.76 l
472.421 352.08 l
472.867 347.76 l
474.206 347.76 l
474.653 352.08 l
475.099 341.28 l
475.546 345.6 l
475.992 347.76 l
476.438 347.76 l
476.885 349.92 l
477.331 349.92 l
477.778 345.6 l
478.224 343.44 l
478.67 347.76 l
479.117 349.92 l
479.563 349.92 l
480.01 341.28 l
480.456 347.76 l
480.902 349.92 l
481.795 349.92 l
482.242 345.6 l
483.134 349.92 l
483.581 343.44 l
484.027 347.76 l
484.474 347.76 l
484.92 349.92 l
485.366 347.76 l
486.259 352.08 l
486.706 347.76 l
487.152 349.92 l
487.598 347.76 l
488.491 352.08 l
489.384 347.76 l
489.83 349.92 l
490.277 345.6 l
490.723 349.92 l
491.17 345.6 l
492.062 349.92 l
492.509 347.76 l
493.402 339.12 l
493.848 349.92 l
494.294 345.6 l
494.741 347.76 l
495.187 339.12 l
495.634 343.44 l
496.08 345.6 l
496.526 352.08 l
496.973 349.92 l
497.419 345.6 l
497.866 349.92 l
498.312 347.76 l
499.205 352.08 l
499.651 343.44 l
500.098 349.92 l
500.544 349.92 l
500.99 345.6 l
501.883 349.92 l
502.33 349.92 l
502.776 352.08 l
503.222 347.76 l
503.669 347.76 l
504.115 349.92 l
505.454 349.92 l
505.901 352.08 l
506.347 347.76 l
506.794 347.76 l
507.686 352.08 l
508.133 347.76 l
508.579 352.08 l
509.026 352.08 l
509.472 349.92 l
509.918 352.08 l
510.365 347.76 l
510.811 345.6 l
511.258 349.92 l
511.704 347.76 l
512.597 347.76 l
513.043 343.44 l
513.49 352.08 l
513.936 352.08 l
514.382 347.76 l
514.829 345.6 l
515.275 347.76 l
515.722 352.08 l
516.614 347.76 l
517.061 349.92 l
517.507 349.92 l
517.954 347.76 l
518.4 352.08 l
518.846 349.92 l
518.846 349.92 l
stroke
grestore
0.500 setlinewidth
0 setlinecap
gsave
/o {
gsave
newpath
translate
0.5 setlinewidth
1 setlinejoin
0 setlinecap
0 0 m
0 4 l
gsave
0.000 setgray
fill
grestore
stroke
grestore
} bind def
72 43.2 o
grestore
gsave
/o {
gsave
newpath
translate
0.5 setlinewidth
1 setlinejoin
0 setlinecap
0 0 m
0 -4 l
gsave
0.000 setgray
fill
grestore
stroke
grestore
} bind def
72 388.8 o
grestore
/BitstreamVeraSans-Roman findfont
12.000 scalefont
setfont
gsave
68.976562 30.075000 translate
0.000000 rotate
0.000000 0.000000 m /zero glyphshow
grestore
gsave
/o {
gsave
newpath
translate
0.5 setlinewidth
1 setlinejoin
0 setlinecap
0 0 m
0 4 l
gsave
0.000 setgray
fill
grestore
stroke
grestore
} bind def
161.28 43.2 o
grestore
gsave
/o {
gsave
newpath
translate
0.5 setlinewidth
1 setlinejoin
0 setlinecap
0 0 m
0 -4 l
gsave
0.000 setgray
fill
grestore
stroke
grestore
} bind def
161.28 388.8 o
grestore
gsave
150.655000 30.075000 translate
0.000000 rotate
0.000000 0.000000 m /two glyphshow
7.634766 0.000000 m /zero glyphshow
15.269531 0.000000 m /zero glyphshow
grestore
gsave
/o {
gsave
newpath
translate
0.5 setlinewidth
1 setlinejoin
0 setlinecap
0 0 m
0 4 l
gsave
0.000 setgray
fill
grestore
stroke
grestore
} bind def
250.56 43.2 o
grestore
gsave
/o {
gsave
newpath
translate
0.5 setlinewidth
1 setlinejoin
0 setlinecap
0 0 m
0 -4 l
gsave
0.000 setgray
fill
grestore
stroke
grestore
} bind def
250.56 388.8 o
grestore
gsave
239.794375 30.075000 translate
0.000000 rotate
0.000000 0.000000 m /four glyphshow
7.634766 0.000000 m /zero glyphshow
15.269531 0.000000 m /zero glyphshow
grestore
gsave
/o {
gsave
newpath
translate
0.5 setlinewidth
1 setlinejoin
0 setlinecap
0 0 m
0 4 l
gsave
0.000 setgray
fill
grestore
stroke
grestore
} bind def
339.84 43.2 o
grestore
gsave
/o {
gsave
newpath
translate
0.5 setlinewidth
1 setlinejoin
0 setlinecap
0 0 m
0 -4 l
gsave
0.000 setgray
fill
grestore
stroke
grestore
} bind def
339.84 388.8 o
grestore
gsave
329.199375 30.075000 translate
0.000000 rotate
0.000000 0.000000 m /six glyphshow
7.634766 0.000000 m /zero glyphshow
15.269531 0.000000 m /zero glyphshow
grestore
gsave
/o {
gsave
newpath
translate
0.5 setlinewidth
1 setlinejoin
0 setlinecap
0 0 m
0 4 l
gsave
0.000 setgray
fill
grestore
stroke
grestore
} bind def
429.12 43.2 o
grestore
gsave
/o {
gsave
newpath
translate
0.5 setlinewidth
1 setlinejoin
0 setlinecap
0 0 m
0 -4 l
gsave
0.000 setgray
fill
grestore
stroke
grestore
} bind def
429.12 388.8 o
grestore
gsave
418.463750 30.075000 translate
0.000000 rotate
0.000000 0.000000 m /eight glyphshow
7.634766 0.000000 m /zero glyphshow
15.269531 0.000000 m /zero glyphshow
grestore
gsave
/o {
gsave
newpath
translate
0.5 setlinewidth
1 setlinejoin
0 setlinecap
0 0 m
0 4 l
gsave
0.000 setgray
fill
grestore
stroke
grestore
} bind def
518.4 43.2 o
grestore
gsave
/o {
gsave
newpath
translate
0.5 setlinewidth
1 setlinejoin
0 setlinecap
0 0 m
0 -4 l
gsave
0.000 setgray
fill
grestore
stroke
grestore
} bind def
518.4 388.8 o
grestore
gsave
504.173437 30.075000 translate
0.000000 rotate
0.000000 0.000000 m /one glyphshow
7.634766 0.000000 m /zero glyphshow
15.269531 0.000000 m /zero glyphshow
22.904297 0.000000 m /zero glyphshow
grestore
gsave
277.317187 13.450000 translate
0.000000 rotate
0.000000 0.000000 m /R glyphshow
7.837891 0.000000 m /o glyphshow
15.179688 0.000000 m /u glyphshow
22.785156 0.000000 m /n glyphshow
30.390625 0.000000 m /d glyphshow
grestore
gsave
/o {
gsave
newpath
translate
0.5 setlinewidth
1 setlinejoin
0 setlinecap
0 0 m
4 0 l
gsave
0.000 setgray
fill
grestore
stroke
grestore
} bind def
72 43.2 o
grestore
gsave
/o {
gsave
newpath
translate
0.5 setlinewidth
1 setlinejoin
0 setlinecap
0 0 m
-4 0 l
gsave
0.000 setgray
fill
grestore
stroke
grestore
} bind def
518.4 43.2 o
grestore
gsave
61.953125 39.887500 translate
0.000000 rotate
0.000000 0.000000 m /zero glyphshow
grestore
gsave
/o {
gsave
newpath
translate
0.5 setlinewidth
1 setlinejoin
0 setlinecap
0 0 m
4 0 l
gsave
0.000 setgray
fill
grestore
stroke
grestore
} bind def
72 86.4 o
grestore
gsave
/o {
gsave
newpath
translate
0.5 setlinewidth
1 setlinejoin
0 setlinecap
0 0 m
-4 0 l
gsave
0.000 setgray
fill
grestore
stroke
grestore
} bind def
518.4 86.4 o
grestore
gsave
54.390625 83.087500 translate
0.000000 rotate
0.000000 0.000000 m /two glyphshow
7.634766 0.000000 m /zero glyphshow
grestore
gsave
/o {
gsave
newpath
translate
0.5 setlinewidth
1 setlinejoin
0 setlinecap
0 0 m
4 0 l
gsave
0.000 setgray
fill
grestore
stroke
grestore
} bind def
72 129.6 o
grestore
gsave
/o {
gsave
newpath
translate
0.5 setlinewidth
1 setlinejoin
0 setlinecap
0 0 m
-4 0 l
gsave
0.000 setgray
fill
grestore
stroke
grestore
} bind def
518.4 129.6 o
grestore
gsave
54.109375 126.287500 translate
0.000000 rotate
0.000000 0.000000 m /four glyphshow
7.634766 0.000000 m /zero glyphshow
grestore
gsave
/o {
gsave
newpath
translate
0.5 setlinewidth
1 setlinejoin
0 setlinecap
0 0 m
4 0 l
gsave
0.000 setgray
fill
grestore
stroke
grestore
} bind def
72 172.8 o
grestore
gsave
/o {
gsave
newpath
translate
0.5 setlinewidth
1 setlinejoin
0 setlinecap
0 0 m
-4 0 l
gsave
0.000 setgray
fill
grestore
stroke
grestore
} bind def
518.4 172.8 o
grestore
gsave
54.359375 169.487500 translate
0.000000 rotate
0.000000 0.000000 m /six glyphshow
7.634766 0.000000 m /zero glyphshow
grestore
gsave
/o {
gsave
newpath
translate
0.5 setlinewidth
1 setlinejoin
0 setlinecap
0 0 m
4 0 l
gsave
0.000 setgray
fill
grestore
stroke
grestore
} bind def
72 216 o
grestore
gsave
/o {
gsave
newpath
translate
0.5 setlinewidth
1 setlinejoin
0 setlinecap
0 0 m
-4 0 l
gsave
0.000 setgray
fill
grestore
stroke
grestore
} bind def
518.4 216 o
grestore
gsave
54.328125 212.687500 translate
0.000000 rotate
0.000000 0.000000 m /eight glyphshow
7.634766 0.000000 m /zero glyphshow
grestore
gsave
/o {
gsave
newpath
translate
0.5 setlinewidth
1 setlinejoin
0 setlinecap
0 0 m
4 0 l
gsave
0.000 setgray
fill
grestore
stroke
grestore
} bind def
72 259.2 o
grestore
gsave
/o {
gsave
newpath
translate
0.5 setlinewidth
1 setlinejoin
0 setlinecap
0 0 m
-4 0 l
gsave
0.000 setgray
fill
grestore
stroke
grestore
} bind def
518.4 259.2 o
grestore
gsave
47.187500 255.887500 translate
0.000000 rotate
0.000000 0.000000 m /one glyphshow
7.634766 0.000000 m /zero glyphshow
15.269531 0.000000 m /zero glyphshow
grestore
gsave
/o {
gsave
newpath
translate
0.5 setlinewidth
1 setlinejoin
0 setlinecap
0 0 m
4 0 l
gsave
0.000 setgray
fill
grestore
stroke
grestore
} bind def
72 302.4 o
grestore
gsave
/o {
gsave
newpath
translate
0.5 setlinewidth
1 setlinejoin
0 setlinecap
0 0 m
-4 0 l
gsave
0.000 setgray
fill
grestore
stroke
grestore
} bind def
518.4 302.4 o
grestore
gsave
47.187500 299.087500 translate
0.000000 rotate
0.000000 0.000000 m /one glyphshow
7.634766 0.000000 m /two glyphshow
15.269531 0.000000 m /zero glyphshow
grestore
gsave
/o {
gsave
newpath
translate
0.5 setlinewidth
1 setlinejoin
0 setlinecap
0 0 m
4 0 l
gsave
0.000 setgray
fill
grestore
stroke
grestore
} bind def
72 345.6 o
grestore
gsave
/o {
gsave
newpath
translate
0.5 setlinewidth
1 setlinejoin
0 setlinecap
0 0 m
-4 0 l
gsave
0.000 setgray
fill
grestore
stroke
grestore
} bind def
518.4 345.6 o
grestore
gsave
47.187500 342.287500 translate
0.000000 rotate
0.000000 0.000000 m /one glyphshow
7.634766 0.000000 m /four glyphshow
15.269531 0.000000 m /zero glyphshow
grestore
gsave
/o {
gsave
newpath
translate
0.5 setlinewidth
1 setlinejoin
0 setlinecap
0 0 m
4 0 l
gsave
0.000 setgray
fill
grestore
stroke
grestore
} bind def
72 388.8 o
grestore
gsave
/o {
gsave
newpath
translate
0.5 setlinewidth
1 setlinejoin
0 setlinecap
0 0 m
-4 0 l
gsave
0.000 setgray
fill
grestore
stroke
grestore
} bind def
518.4 388.8 o
grestore
gsave
47.187500 385.487500 translate
0.000000 rotate
0.000000 0.000000 m /one glyphshow
7.634766 0.000000 m /six glyphshow
15.269531 0.000000 m /zero glyphshow
grestore
gsave
39.687500 184.234375 translate
90.000000 rotate
0.000000 0.000000 m /T glyphshow
5.330078 0.000000 m /o glyphshow
12.671875 0.000000 m /t glyphshow
17.376953 0.000000 m /a glyphshow
24.730469 0.000000 m /l glyphshow
28.064453 0.000000 m /space glyphshow
31.878906 0.000000 m /s glyphshow
38.130859 0.000000 m /c glyphshow
44.728516 0.000000 m /o glyphshow
52.070312 0.000000 m /r glyphshow
56.753906 0.000000 m /e glyphshow
grestore
1.000 setlinewidth
gsave
72 388.8 m
518.4 388.8 l
stroke
grestore
gsave
518.4 43.2 m
518.4 388.8 l
stroke
grestore
gsave
72 43.2 m
518.4 43.2 l
stroke
grestore
gsave
72 43.2 m
72 388.8 l
stroke
grestore
/BitstreamVeraSans-Roman findfont
14.400 scalefont
setfont
gsave
29.746875 409.475000 translate
0.000000 rotate
0.000000 0.000000 m /H glyphshow
10.809326 0.000000 m /o glyphshow
19.604187 0.000000 m /w glyphshow
31.361084 0.000000 m /space glyphshow
35.930481 0.000000 m /t glyphshow
41.566772 0.000000 m /h glyphshow
50.677490 0.000000 m /e glyphshow
59.521484 0.000000 m /space glyphshow
64.090881 0.000000 m /t glyphshow
69.727173 0.000000 m /o glyphshow
78.522034 0.000000 m /t glyphshow
84.158325 0.000000 m /a glyphshow
92.967224 0.000000 m /l glyphshow
96.961060 0.000000 m /space glyphshow
101.530457 0.000000 m /s glyphshow
109.019775 0.000000 m /c glyphshow
116.923218 0.000000 m /o glyphshow
125.718079 0.000000 m /r glyphshow
131.253113 0.000000 m /e glyphshow
140.097107 0.000000 m /space glyphshow
144.666504 0.000000 m /o glyphshow
153.461365 0.000000 m /f glyphshow
158.522095 0.000000 m /space glyphshow
163.091492 0.000000 m /t glyphshow
168.727783 0.000000 m /h glyphshow
177.838501 0.000000 m /e glyphshow
186.682495 0.000000 m /space glyphshow
191.251892 0.000000 m /f glyphshow
196.312622 0.000000 m /l glyphshow
200.306458 0.000000 m /o glyphshow
209.101318 0.000000 m /c glyphshow
217.004761 0.000000 m /k glyphshow
225.329346 0.000000 m /space glyphshow
229.898743 0.000000 m /c glyphshow
237.802185 0.000000 m /h glyphshow
246.912903 0.000000 m /a glyphshow
255.721802 0.000000 m /n glyphshow
264.832520 0.000000 m /g glyphshow
273.957275 0.000000 m /e glyphshow
282.801270 0.000000 m /s glyphshow
290.290588 0.000000 m /space glyphshow
294.859985 0.000000 m /f glyphshow
299.920715 0.000000 m /o glyphshow
308.715576 0.000000 m /r glyphshow
314.625610 0.000000 m /space glyphshow
319.195007 0.000000 m /e glyphshow
328.039001 0.000000 m /a glyphshow
336.847900 0.000000 m /c glyphshow
344.751343 0.000000 m /h glyphshow
353.862061 0.000000 m /space glyphshow
358.431458 0.000000 m /r glyphshow
363.966492 0.000000 m /o glyphshow
372.761353 0.000000 m /u glyphshow
381.872070 0.000000 m /n glyphshow
390.982788 0.000000 m /d glyphshow
400.107544 0.000000 m /space glyphshow
404.676941 0.000000 m /o glyphshow
413.471802 0.000000 m /f glyphshow
418.532532 0.000000 m /space glyphshow
423.101929 0.000000 m /t glyphshow
428.738220 0.000000 m /h glyphshow
437.848938 0.000000 m /e glyphshow
446.692932 0.000000 m /space glyphshow
451.262329 0.000000 m /h glyphshow
460.373047 0.000000 m /i glyphshow
464.366882 0.000000 m /l glyphshow
468.360718 0.000000 m /l glyphshow
472.354553 0.000000 m /space glyphshow
476.923950 0.000000 m /c glyphshow
484.827393 0.000000 m /l glyphshow
488.821228 0.000000 m /i glyphshow
492.815063 0.000000 m /m glyphshow
506.818054 0.000000 m /b glyphshow
515.942810 0.000000 m /e glyphshow
524.786804 0.000000 m /r glyphshow
grestore
gsave
295.200000 393.800000 translate
0.000000 rotate

grestore

end
showpage
